time,adc,distance,mass,millis,samples,steps,force,state
0.0,4994,-0.001,5.727,3729795,11946,80409,2.29,i
0.21,4989,-0.001,5.727,3729984,11947,80449,2.49,p
0.52,4978,-0.03,5.727,3730286,11948,80488,4.5,p
0.86,4977,-0.052,5.727,3730672,11949,80528,5.79,p
1.12,4972,-0.052,5.727,3730951,11950,80567,6.97,p
1.42,4954,-0.083,5.727,3731177,11951,80607,7.68,p
1.73,4955,-0.103,5.727,3731487,11952,80647,8.37,p
2.05,4935,-0.103,5.727,3731803,11953,80686,8.87,p
2.36,4916,-0.12,5.727,3732193,11954,80726,10.06,p
2.63,4921,-0.153,5.727,3732441,11955,80765,11.34,p
3.07,4901,-0.187,5.728,3732844,11956,80805,12.87,p
3.17,4905,-0.187,5.728,3732978,11957,80844,14.11,p
3.59,4885,-0.22,5.728,3733376,11958,80884,15.19,p
3.86,4849,-0.22,5.728,3733647,11959,80923,16.91,p
4.1,4859,-0.254,5.729,3733932,11960,80963,17.93,p
4.58,4832,-0.288,5.729,3734308,11961,81002,19.12,p
4.69,4838,-0.288,5.729,3734503,11962,81042,20.52,p
5.08,4808,-0.322,5.729,3734854,11963,81081,22.0,p
5.32,4772,-0.356,5.729,3735112,11964,81121,22.99,p
5.61,4789,-0.356,5.73,3735424,11965,81161,24.17,p
5.92,4761,-0.39,5.73,3735695,11966,81200,25.46,p
6.19,4765,-0.424,5.73,3736006,11967,81240,26.72,p
6.58,4728,-0.424,5.73,3736379,11968,81279,27.44,p
6.94,4735,-0.457,5.73,3736657,11969,81319,28.71,p
7.19,4741,-0.491,5.73,3736995,11970,81358,29.55,p
7.49,4728,-0.525,5.731,3737284,11971,81398,30.48,p
7.82,4735,-0.525,5.731,3737592,11972,81437,31.53,p
8.02,4726,-0.56,5.731,3737810,11973,81477,32.42,p
8.32,4737,-0.595,5.731,3738087,11974,81516,33.3,p
8.72,4717,-0.595,5.732,3738493,11975,81556,34.01,p
9.01,4728,-0.63,5.732,3738791,11976,81595,35.07,p
9.26,4728,-0.664,5.732,3739048,11977,81635,35.9,p
9.49,4739,-0.664,5.733,3739335,11978,81674,36.51,p
9.95,4728,-0.699,5.734,3739727,11979,81714,37.47,p
10.27,4735,-0.733,5.735,3740081,11980,81754,37.81,p
10.55,4739,-0.733,5.735,3740350,11981,81793,38.9,p
10.83,4742,-0.767,5.736,3740596,11982,81833,39.45,p
11.18,4707,-0.801,5.736,3740887,11983,81872,39.59,p
11.7,4719,-0.821,5.738,3741315,11984,81912,40.65,p
12.01,4739,-0.856,5.74,3741587,11985,81951,41.42,p
12.26,4740,-0.891,5.74,3741808,11986,81991,42.03,p
12.49,4738,-0.891,5.741,3742191,11987,82030,42.74,p
12.6,4714,-0.925,5.742,3742420,11988,82070,43.24,p
13.23,4739,-0.96,5.745,3743012,11990,82149,44.03,p
13.51,4736,-0.994,5.746,3743314,11991,82188,44.67,p
13.79,4741,-0.994,5.748,3743566,11992,82228,45.27,p
14.04,4723,-1.028,5.749,3743808,11993,82268,45.95,p
14.48,4727,-1.064,5.752,3744256,11994,82307,46.34,p
14.58,4718,-1.064,5.752,3744409,11995,82347,46.73,p
14.93,4731,-1.099,5.755,3744706,11996,82386,47.32,p
15.36,4735,-1.133,5.758,3745137,11997,82426,47.43,p
15.64,4724,-1.133,5.76,3745440,11998,82465,47.98,p
15.9,4734,-1.168,5.761,3745696,11999,82505,48.59,p
16.11,4729,-1.202,5.763,3745938,12000,82544,48.6,p
16.49,4724,-1.223,5.766,3746231,12001,82584,48.92,p
16.71,4734,-1.223,5.767,3746533,12002,82623,49.29,p
17.09,4729,-1.257,5.771,3746886,12003,82663,49.9,p
17.39,4737,-1.291,5.773,3747119,12004,82702,50.12,p
17.72,4734,-1.291,5.776,3747450,12005,82742,50.71,p
17.93,4728,-1.326,5.777,3747732,12006,82782,50.95,p
18.21,4717,-1.36,5.78,3748027,12007,82821,51.05,p
18.58,4737,-1.36,5.784,3748345,12008,82861,51.5,p
18.97,4707,-1.395,5.787,3748726,12009,82900,51.48,p
19.19,4723,-1.43,5.789,3748987,12010,82940,52.27,p
19.43,4711,-1.43,5.792,3749245,12011,82979,52.3,p
19.74,4736,-1.465,5.795,3749505,12012,83019,52.19,p
20.15,4730,-1.5,5.798,3749903,12013,83058,52.71,p
20.47,4733,-1.535,5.801,3750214,12014,83098,52.94,p
20.73,4736,-1.556,5.805,3750506,12015,83137,53.29,p
21.04,4734,-1.556,5.808,3750795,12016,83177,53.7,p
21.24,4734,-1.592,5.811,3751072,12017,83216,53.63,p
21.63,4728,-1.627,5.814,3751433,12018,83256,53.96,p
21.96,4728,-1.627,5.817,3751752,12019,83296,54.47,p
22.25,4733,-1.663,5.822,3752025,12020,83335,54.17,p
22.51,4730,-1.699,5.823,3752287,12021,83375,54.55,p
22.8,4718,-1.699,5.826,3752560,12022,83414,54.95,p
23.1,4722,-1.735,5.83,3752821,12023,83454,54.99,p
23.35,4725,-1.771,5.834,3753174,12024,83493,55.28,p
23.62,4732,-1.771,5.837,3753454,12025,83533,55.39,p
24.05,4727,-1.806,5.84,3753833,12026,83572,55.39,p
24.29,4711,-1.842,5.844,3754088,12027,83612,56.11,p
24.59,4734,-1.842,5.847,3754396,12028,83651,56.56,p
24.92,4729,-1.878,5.853,3754687,12029,83691,56.49,p
25.21,4731,-1.914,5.855,3754974,12030,83730,56.43,p
25.42,4735,-1.914,5.859,3755248,12031,83770,56.94,p
25.72,4707,-1.949,5.862,3755516,12032,83810,57.11,p
26.18,4727,-1.985,5.868,3755974,12033,83849,57.38,p
26.46,4730,-2.02,5.872,3756253,12034,83889,56.66,p
26.77,4719,-2.02,5.875,3756515,12035,83928,57.26,p
27.04,4734,-2.056,5.879,3756807,12036,83968,57.56,p
27.25,4717,-2.056,5.881,3757082,12037,84007,57.54,p
27.64,4730,-2.092,5.886,3757414,12038,84047,58.14,p
27.92,4734,-2.129,5.889,3757693,12039,84086,57.74,p
28.15,4729,-2.151,5.892,3757946,12040,84126,57.93,p
28.56,4731,-2.187,5.898,3758312,12041,84165,58.08,p
28.86,4733,-2.187,5.902,3758615,12042,84205,58.09,p
29.17,4706,-2.245,5.906,3758925,12043,84244,58.46,p
29.45,4732,-2.245,5.91,3759256,12044,84284,58.48,p
29.73,4728,-2.281,5.913,3759508,12045,84323,58.95,p
30.05,4731,-2.317,5.917,3759835,12046,84363,58.65,p
30.29,4730,-2.317,5.921,3760073,12047,84403,59.19,p
30.58,4729,-2.354,5.926,3760365,12048,84442,59.39,p
30.92,4733,-2.354,5.93,3760744,12049,84482,59.04,p
31.24,4732,-2.39,5.934,3761057,12050,84521,59.18,p
31.54,4724,-2.426,5.938,3761350,12051,84561,59.26,p
31.73,4733,-2.426,5.94,3761567,12052,84600,59.5,p
32.2,4728,-2.461,5.946,3761953,12053,84640,59.32,p
32.43,4729,-2.497,5.949,3762287,12054,84679,59.69,p
32.8,4729,-2.533,5.955,3762541,12055,84719,59.59,p
33.05,4719,-2.533,5.959,3762890,12056,84758,59.86,p
33.37,4730,-2.569,5.963,3763142,12057,84798,59.87,p
33.71,4731,-2.592,5.967,3763465,12058,84837,60.09,p
33.99,4721,-2.628,5.973,3763789,12059,84877,59.84,p
34.21,4730,-2.628,5.975,3764037,12060,84917,59.9,p
34.45,4724,-2.664,5.977,3764263,12061,84956,60.12,p
34.76,4719,-2.664,5.984,3764561,12062,84996,60.17,p
35.16,4728,-2.7,5.988,3764936,12063,85035,60.31,p
35.43,4726,-2.736,5.992,3765220,12064,85075,60.05,p
35.68,4731,-2.772,5.996,3765439,12065,85114,60.56,p
35.95,4720,-2.772,6.0,3765732,12066,85154,60.34,p
36.36,4732,-2.808,6.004,3766166,12067,85193,60.25,p
36.6,4733,-2.843,6.008,3766389,12068,85233,60.55,p
36.89,4727,-2.843,6.013,3766651,12069,85272,60.53,p
37.25,4730,-2.879,6.019,3767059,12070,85312,60.84,p
37.53,4720,-2.916,6.024,3767298,12071,85351,60.67,p
37.78,4730,-2.916,6.025,3767563,12072,85391,60.56,p
38.11,4730,-2.951,6.031,3767877,12073,85431,60.91,p
38.42,4706,-2.987,6.036,3768156,12074,85470,60.67,p
38.67,4733,-2.987,6.039,3768446,12075,85510,60.47,p
38.92,4715,-3.023,6.043,3768755,12076,85549,61.11,p
39.29,4731,-3.059,6.047,3769104,12077,85589,61.28,p
39.59,4712,-3.096,6.051,3769414,12078,85628,61.37,p
39.92,4729,-3.096,6.058,3769674,12079,85668,61.06,p
40.19,4729,-3.132,6.062,3770004,12080,85707,60.86,p
40.58,4725,-3.168,6.067,3770275,12081,85747,61.05,p
40.93,4728,-3.168,6.071,3770631,12082,85786,61.46,p
41.12,4722,-3.204,6.074,3770898,12083,85826,61.11,p
41.41,4720,-3.241,6.081,3771189,12084,85865,61.01,p
41.72,4727,-3.241,6.085,3771462,12085,85905,61.13,p
41.97,4728,-3.277,6.086,3771823,12086,85945,61.31,p
42.3,4705,-3.313,6.093,3772093,12087,85984,61.15,p
42.57,4719,-3.313,6.096,3772366,12088,86024,61.26,p
42.98,4727,-3.349,6.102,3772760,12089,86063,61.24,p
43.23,4714,-3.385,6.106,3773032,12090,86103,61.43,p
43.47,4731,-3.385,6.111,3773286,12091,86142,61.22,p
43.88,4728,-3.421,6.118,3773619,12092,86182,61.59,p
44.08,4726,-3.421,6.119,3773920,12093,86221,61.5,p
44.5,4717,-3.457,6.126,3774302,12094,86261,61.68,p
44.78,4717,-3.493,6.131,3774533,12095,86300,61.87,p
44.99,4712,-3.529,6.131,3774786,12096,86340,62.03,p
45.24,4713,-3.529,6.135,3775060,12097,86379,61.73,p
45.61,4724,-3.565,6.144,3775421,12098,86419,61.66,p
45.9,4730,-3.601,6.145,3775672,12099,86459,61.68,p
46.31,4731,-3.638,6.154,3776056,12100,86498,61.51,p
46.63,4724,-3.638,6.158,3776396,12101,86538,61.59,p
46.92,4712,-3.674,6.164,3776687,12102,86577,61.72,p
47.13,4712,-3.674,6.165,3776954,12103,86617,61.84,p
47.45,4726,-3.711,6.17,3777217,12104,86656,62.03,p
47.73,4725,-3.748,6.174,3777566,12105,86696,61.87,p
48.09,4725,-3.783,6.235,3777848,12106,86735,61.6,p
48.4,4715,-3.805,6.278,3778160,12107,86775,62.19,p
48.72,4720,-3.805,6.294,3778457,12108,86814,62.0,p
48.98,4731,-3.841,6.302,3778752,12109,86854,61.9,p
49.28,4731,-3.877,6.302,3779076,12110,86893,61.73,p
49.58,4716,-3.877,6.304,3779357,12111,86933,62.11,p
49.8,4729,-3.913,6.304,3779638,12112,86972,61.95,p
50.08,4714,-3.95,6.305,3779875,12113,87012,62.01,p
50.49,4720,-3.971,6.306,3780284,12114,87052,62.1,p
50.74,4731,-3.971,6.306,3780532,12115,87091,62.05,p
51.02,4718,-4.007,6.307,3780797,12116,87131,62.01,p
51.41,4729,-4.044,6.307,3781151,12117,87170,62.06,p
51.64,4732,-4.044,6.308,3781417,12118,87210,62.28,p
51.92,4727,-4.08,6.308,3781657,12119,87249,61.95,p
52.19,4731,-4.117,6.309,3781975,12120,87289,62.11,p
52.54,4714,-4.117,6.31,3782397,12121,87328,62.12,p
52.79,4730,-4.155,6.31,3782587,12122,87368,61.98,p
53.07,4722,-4.192,6.31,3782862,12123,87407,62.11,p
53.45,4724,-4.227,6.312,3783208,12124,87447,62.11,p
53.79,4726,-4.248,6.312,3783576,12125,87486,62.28,p
54.09,4730,-4.248,6.313,3783857,12126,87526,62.08,p
54.3,4730,-4.285,6.315,3784100,12127,87566,62.44,p
54.71,4711,-4.321,6.317,3784491,12128,87605,62.43,p
54.93,4716,-4.321,6.318,3784709,12129,87645,62.52,p
55.18,4727,-4.357,6.318,3784975,12130,87684,62.53,p
55.55,4726,-4.393,6.321,3785377,12131,87724,62.31,p
55.82,4728,-4.393,6.323,3785578,12132,87763,62.25,p
56.09,4728,-4.429,6.324,3785865,12133,87803,62.48,p
56.47,4720,-4.465,6.328,3786249,12134,87842,62.37,p
56.72,4729,-4.465,6.331,3786526,12135,87882,62.31,p
57.03,4728,-4.501,6.333,3786769,12136,87921,62.44,p
57.22,4729,-4.501,6.334,3787067,12137,87961,62.25,p
57.64,4723,-4.537,6.339,3787437,12138,88000,62.44,p
57.99,4731,-4.573,6.343,3787766,12139,88040,62.38,p
58.27,4725,-4.61,6.346,3788072,12140,88079,62.41,p
58.63,4723,-4.646,6.35,3788350,12141,88119,62.41,p
58.85,4722,-4.646,6.351,3788646,12142,88159,62.55,p
59.16,4728,-4.684,6.357,3788917,12143,88198,62.76,p
59.5,4727,-4.72,6.361,3789257,12144,88238,62.83,p
59.79,4715,-4.72,6.365,3789576,12145,88277,62.49,p
60.01,4728,-4.756,6.367,3789826,12146,88317,62.71,p
60.33,4725,-4.793,6.372,3790108,12147,88356,62.6,p
60.67,4728,-4.814,6.376,3790414,12148,88396,62.63,p
60.94,4729,-4.814,6.382,3790686,12149,88435,62.5,p
61.21,4718,-4.851,6.386,3790999,12150,88475,62.98,p
61.51,4725,-4.887,6.39,3791336,12151,88514,62.55,p
61.8,4720,-4.887,6.394,3791588,12152,88554,62.8,p
62.09,4725,-4.923,6.397,3791905,12153,88593,62.82,p
62.54,4729,-4.959,6.403,3792328,12154,88633,62.76,p
62.85,4728,-4.98,6.41,3792601,12155,88673,62.78,p
63.08,4729,-5.002,6.413,3792903,12156,88712,62.74,p
63.38,4730,-5.038,6.417,3793158,12157,88752,62.7,p
63.72,4702,-5.06,6.421,3793474,12158,88791,62.82,p
63.93,4727,-5.06,6.423,3793725,12159,88831,63.02,p
64.25,4723,-5.096,6.43,3794007,12160,88870,62.93,p
64.55,4728,-5.118,6.434,3794305,12161,88910,62.8,p
64.84,4730,-5.155,6.439,3794608,12162,88949,62.75,p
65.13,4715,-5.155,6.444,3794886,12163,88989,62.83,p
65.51,4730,-5.192,6.449,3795217,12164,89028,62.77,p
65.8,4726,-5.228,6.453,3795577,12165,89068,62.75,p
66.03,4726,-5.228,6.458,3795825,12166,89107,63.11,p
66.41,4717,-5.265,6.462,3796183,12167,89147,63.02,p
66.63,4722,-5.301,6.466,3796461,12168,89186,63.03,p
66.93,4731,-5.301,6.471,3796709,12169,89226,63.04,p
67.22,4733,-5.337,6.475,3797004,12170,89266,63.14,p
67.69,4724,-5.358,6.483,3797441,12171,89305,62.99,p
67.8,4727,-5.395,6.485,3797599,12172,89345,63.02,p
68.1,4703,-5.395,6.49,3797887,12173,89384,63.15,p
68.53,4708,-5.431,6.497,3798322,12174,89424,63.15,p
68.77,4728,-5.467,6.499,3798584,12175,89463,63.15,p
69.13,4722,-5.503,6.503,3798870,12176,89503,63.08,p
69.39,4726,-5.503,6.511,3799205,12177,89542,63.2,p
69.63,4724,-5.539,6.513,3799460,12178,89582,63.02,p
69.87,4729,-5.539,6.518,3799702,12179,89621,63.32,p
70.31,4725,-5.576,6.524,3800087,12180,89661,63.38,p
70.59,4721,-5.612,6.53,3800356,12181,89700,63.57,p
70.96,4720,-5.634,6.534,3800652,12182,89740,63.49,p
71.21,4728,-5.671,6.539,3801007,12183,89779,63.32,p
71.44,4715,-5.671,6.54,3801277,12184,89819,63.47,p
71.79,4729,-5.707,6.548,3801550,12185,89859,63.43,p
72.03,4714,-5.744,6.551,3801842,12186,89898,63.54,p
72.36,4726,-5.744,6.556,3802175,12187,89938,63.7,p
72.59,4723,-5.78,6.559,3802405,12188,89977,63.79,p
73.0,4720,-5.816,6.567,3802776,12189,90017,63.71,p
73.33,4727,-5.851,6.571,3803087,12190,90056,63.62,p
73.55,4730,-5.851,6.573,3803363,12191,90096,63.71,p
73.88,4719,-5.887,6.58,3803628,12192,90135,63.49,p
74.23,4730,-5.923,6.583,3803915,12193,90175,63.69,p
74.48,4723,-5.923,6.587,3804239,12194,90214,63.57,p
74.74,4724,-5.96,6.593,3804530,12195,90254,63.88,p
75.09,4725,-5.995,6.599,3804849,12196,90293,63.68,p
75.32,4719,-5.995,6.601,3805152,12197,90333,63.71,p
75.8,4722,-6.031,6.608,3805542,12198,90373,63.84,p
76.05,4729,-6.067,6.613,3805807,12199,90412,64.09,p
76.35,4709,-6.067,6.617,3806136,12200,90452,63.7,p
76.58,4712,-6.104,6.621,3806366,12201,90491,63.58,p
76.88,4723,-6.141,6.626,3806658,12202,90531,63.8,p
77.21,4727,-6.141,6.632,3806968,12203,90570,63.95,p
77.39,4720,-6.178,6.633,3807215,12204,90610,63.79,p
77.8,4696,-6.215,6.641,3807621,12205,90649,63.99,p
78.09,4726,-6.215,6.645,3807870,12206,90689,63.95,p
78.34,4717,-6.251,6.649,3808147,12207,90728,63.95,p
78.59,4733,-6.251,6.652,3808418,12208,90768,63.91,p
78.98,4726,-6.309,6.66,3808737,12209,90807,63.98,p
79.29,4722,-6.345,6.666,3809151,12210,90847,64.08,p
79.59,4725,-6.345,6.667,3809366,12211,90886,63.76,p
79.92,4726,-6.382,6.675,3809718,12212,90926,64.02,p
80.21,4702,-6.418,6.679,3810000,12213,90966,63.97,p
80.48,4720,-6.418,6.682,3810289,12214,91005,64.02,p
80.72,4712,-6.454,6.686,3810544,12215,91045,64.2,p
81.11,4725,-6.476,6.694,3810901,12216,91084,64.01,p
81.34,4728,-6.476,6.695,3811141,12217,91124,64.23,p
81.74,4720,-6.512,6.703,3811511,12218,91163,63.76,p
82.03,4729,-6.547,6.704,3811795,12219,91203,63.86,p
82.29,4711,-6.583,6.71,3812085,12220,91242,64.28,p
82.63,4713,-6.583,6.716,3812455,12221,91282,64.1,p
82.88,4725,-6.62,6.719,3812686,12222,91321,64.04,p
83.22,4717,-6.657,6.723,3813002,12223,91361,64.31,p
83.54,4715,-6.657,6.731,3813322,12224,91400,64.06,p
83.9,4717,-6.694,6.735,3813602,12225,91440,64.03,p
84.04,4718,-6.73,6.737,3813840,12226,91479,64.25,p
84.5,4726,-6.767,6.744,3814239,12227,91519,64.52,p
84.69,4721,-6.767,6.748,3814432,12228,91559,63.93,p
85.01,4726,-6.803,6.753,3814812,12229,91598,64.15,p
85.28,4728,-6.803,6.756,3815084,12230,91638,64.2,p
85.58,4713,-6.839,6.76,3815356,12231,91677,64.25,p
85.86,4717,-6.86,6.765,3815637,12232,91717,64.28,p
86.13,4714,-6.897,6.769,3815920,12233,91756,64.02,p
86.53,4717,-6.933,6.777,3816291,12234,91796,64.32,p
86.81,4714,-6.933,6.781,3816568,12235,91835,64.14,p
87.03,4700,-6.969,6.784,3816863,12236,91875,64.2,p
87.33,4727,-6.969,6.788,3817135,12237,91914,64.14,p
87.8,4728,-7.041,6.797,3817568,12238,91954,63.85,p
87.93,4722,-7.041,6.797,3817727,12239,91993,63.84,p
88.26,4712,-7.041,6.805,3818065,12240,92033,64.5,p
88.62,4716,-7.077,6.809,3818334,12241,92072,64.28,p
88.88,4726,-7.115,6.814,3818653,12242,92112,64.72,p
89.13,4726,-7.151,6.817,3818946,12243,92152,64.48,p
89.48,4705,-7.151,6.824,3819234,12244,92191,64.39,p
89.83,4728,-7.188,6.828,3819627,12245,92231,64.5,p
90.11,4724,-7.224,6.833,3819896,12246,92270,64.42,p
90.33,4729,-7.246,6.834,3820164,12247,92310,64.58,p
90.79,4724,-7.282,6.845,3820550,12248,92349,64.57,p
91.01,4721,-7.304,6.846,3820849,12249,92389,64.52,p
91.3,4727,-7.304,6.851,3821075,12250,92428,64.47,p
91.58,4723,-7.34,6.856,3821368,12251,92468,64.41,p
91.97,4722,-7.376,6.861,3821678,12252,92507,64.64,p
92.23,4726,-7.376,6.865,3822055,12253,92547,63.97,p
92.5,4718,-7.412,6.87,3822277,12254,92586,64.24,p
92.78,4720,-7.412,6.874,3822577,12255,92626,64.65,p
93.17,4723,-7.448,6.879,3822877,12256,92666,64.29,p
93.41,4719,-7.484,6.883,3823191,12257,92705,64.54,p
93.84,4709,-7.52,6.89,3823587,12258,92745,64.17,p
93.98,4723,-7.52,6.893,3823746,12259,92784,64.3,p
94.36,4699,-7.556,6.898,3824101,12260,92824,64.39,p
94.66,4725,-7.593,6.902,3824405,12261,92863,64.3,p
94.87,4715,-7.593,6.906,3824636,12262,92903,64.51,p
95.28,4716,-7.629,6.911,3825047,12263,92942,64.45,p
95.55,4727,-7.665,6.972,3825315,12264,92982,64.39,p
95.9,4727,-7.702,7.026,3825677,12265,93021,64.52,p
95.99,4727,-7.702,7.026,3825827,12266,93061,64.15,p
96.42,4726,-7.725,7.037,3826217,12267,93100,64.35,p
96.71,4717,-7.761,7.039,3826442,12268,93140,64.23,p
96.92,4727,-7.761,7.039,3826755,12269,93180,64.47,p
97.39,4725,-7.797,7.041,3827098,12270,93219,64.17,p
97.56,4724,-7.834,7.041,3827398,12271,93259,64.34,p
97.88,4723,-7.834,7.042,3827633,12272,93298,64.36,p
98.24,4723,-7.87,7.042,3828056,12273,93338,64.1,p
98.52,4725,-7.906,7.043,3828337,12274,93377,64.31,p
98.77,4723,-7.906,7.043,3828567,12275,93417,64.35,p
99.16,4716,-7.942,7.044,3828988,12276,93456,64.64,p
99.38,4725,-7.978,7.044,3829179,12277,93496,64.57,p
99.62,4721,-7.978,7.045,3829441,12278,93535,64.35,p
100.08,4720,-8.014,7.046,3829872,12279,93575,64.34,p
100.29,4728,-8.05,7.047,3830125,12280,93614,64.2,p
100.6,4718,-8.086,7.048,3830387,12281,93654,64.51,p
100.79,4724,-8.086,7.048,3830649,12282,93693,64.39,p
101.2,4721,-8.122,7.049,3831003,12283,93733,64.65,p
101.49,4725,-8.122,7.051,3831255,12284,93773,64.65,p
101.81,4725,-8.159,7.052,3831624,12285,93812,64.73,p
102.16,4720,-8.196,7.054,3831897,12286,93852,64.65,p
102.39,4727,-8.233,7.055,3832198,12287,93891,64.46,p
102.75,4724,-8.233,7.057,3832576,12288,93931,64.65,p
103.06,4717,-8.269,7.06,3832807,12289,93970,64.73,p
103.33,4727,-8.306,7.061,3833090,12290,94010,64.56,p
103.54,4714,-8.306,7.063,3833399,12291,94049,64.13,p
103.9,4726,-8.342,7.065,3833718,12292,94089,64.29,p
104.16,4708,-8.342,7.069,3833986,12293,94128,64.28,p
104.56,4699,-8.414,7.072,3834349,12294,94168,64.45,p
104.88,4727,-8.436,7.075,3834649,12295,94207,64.46,p
105.11,4716,-8.458,7.077,3834930,12296,94247,64.45,p
105.4,4728,-8.458,7.08,3835172,12297,94287,64.58,p
105.87,4723,-8.494,7.087,3835631,12298,94326,64.36,p
105.99,4713,-8.494,7.089,3835802,12299,94366,64.87,p
106.43,4720,-8.53,7.093,3836197,12300,94405,64.46,p
106.61,4728,-8.566,7.097,3836429,12301,94445,64.68,p
106.94,4720,-8.602,7.1,3836672,12302,94484,64.4,p
107.12,4724,-8.624,7.103,3836968,12303,94524,64.83,p
107.64,4726,-8.646,7.11,3837318,12304,94563,64.64,p
107.96,4714,-8.683,7.114,3837727,12305,94603,64.76,p
108.16,4725,-8.683,7.118,3837866,12306,94642,64.41,p
108.43,4716,-8.72,7.122,3838217,12307,94682,64.47,p
108.66,4725,-8.72,7.125,3838489,12308,94721,64.76,p
109.09,4727,-8.756,7.13,3838807,12309,94761,64.5,p
109.34,4719,-8.793,7.136,3839110,12310,94800,64.72,p
109.64,4719,-8.828,7.14,3839396,12311,94840,64.4,p
109.97,4720,-8.828,7.145,3839705,12312,94880,64.73,p
110.25,4727,-8.864,7.149,3840024,12313,94919,64.69,p
110.47,4720,-8.864,7.153,3840296,12314,94959,64.67,p
110.77,4725,-8.9,7.156,3840585,12315,94998,64.96,p
111.21,4727,-8.936,7.165,3840976,12316,95038,64.56,p
111.51,4726,-8.973,7.169,3841275,12317,95077,64.84,p
111.78,4717,-8.973,7.171,3841585,12318,95117,64.92,p
111.99,4727,-9.009,7.175,3841807,12319,95156,64.73,p
112.33,4704,-9.045,7.183,3842110,12320,95196,64.69,p
112.59,4717,-9.045,7.186,3842366,12321,95235,64.72,p
112.96,4725,-9.081,7.19,3842790,12322,95275,64.65,p
113.26,4717,-9.117,7.195,3843025,12323,95314,64.89,p
113.58,4721,-9.117,7.199,3843314,12324,95354,64.92,p
113.9,4720,-9.153,7.206,3843673,12325,95394,64.84,p
114.16,4723,-9.189,7.208,3843916,12326,95433,64.72,p
114.46,4728,-9.189,7.215,3844265,12327,95473,64.64,p
114.73,4714,-9.226,7.22,3844524,12328,95512,64.54,p
114.98,4721,-9.263,7.223,3844787,12329,95552,64.79,p
115.28,4718,-9.263,7.227,3845100,12330,95591,64.79,p
115.63,4722,-9.3,7.232,3845457,12331,95631,64.76,p
115.93,4724,-9.336,7.239,3845734,12332,95670,64.76,p
116.27,4717,-9.358,7.241,3846015,12333,95710,64.72,p
116.56,4726,-9.358,7.248,3846298,12334,95749,64.76,p
116.78,4717,-9.394,7.251,3846573,12335,95789,64.7,p
117.15,4721,-9.431,7.257,3846955,12336,95828,64.98,p
117.54,4725,-9.467,7.262,3847267,12337,95868,65.17,p
117.7,4701,-9.467,7.265,3847465,12338,95908,64.98,p
118.03,4726,-9.503,7.269,3847823,12339,95947,64.79,p
118.34,4724,-9.503,7.276,3848110,12340,95987,64.67,p
118.59,4716,-9.539,7.278,3848381,12341,96026,65.01,p
118.88,4723,-9.575,7.284,3848681,12342,96066,64.96,p
119.3,4724,-9.611,7.29,3849079,12343,96105,64.83,p
119.55,4727,-9.611,7.294,3849308,12344,96145,65.12,p
119.78,4721,-9.648,7.297,3849588,12345,96184,65.12,p
120.15,4716,-9.684,7.305,3849956,12346,96224,64.81,p
120.44,4725,-9.684,7.309,3850218,12347,96263,64.63,p
120.68,4720,-9.721,7.311,3850476,12348,96303,64.69,p
120.99,5003,-9.742,7.317,3850774,12349,96324,64.79,p
121.26,5004,-9.742,7.321,3851074,12350,96324,63.41,i
121.69,5000,-9.772,7.382,3851428,12351,96324,61.56,i
121.91,5001,-9.774,7.426,3851670,12352,96324,58.38,i
122.27,5003,-9.776,7.443,3852048,12353,96324,55.94,i
122.56,5003,-9.778,7.449,3852328,12354,96324,54.06,i
122.79,5004,-9.778,7.452,3852576,12355,96324,52.19,i
123.15,5006,-9.781,7.453,3852948,12356,96324,50.32,i
123.52,5004,-9.785,7.453,3853259,12357,96324,48.69,i
123.81,5006,-9.789,7.453,3853564,12358,96324,47.14,i
124.01,5003,-9.789,7.454,3853810,12359,96324,45.55,i
124.34,5004,-9.793,7.455,3854093,12360,96324,44.0,i
124.6,5005,-9.798,7.455,3854390,12361,96324,42.69,i
125.02,5006,-9.798,7.456,3854825,12362,96324,41.61,i
125.21,5004,-9.802,7.456,3855071,12363,96324,40.4,i
125.6,5006,-9.807,7.457,3855307,12364,96324,39.28,i
125.85,5004,-9.807,7.457,3855651,12365,96324,38.32,i
126.21,5005,-9.812,7.458,3855994,12366,96324,37.54,i
126.5,5005,-9.816,7.458,3856273,12367,96324,36.26,i
126.82,5007,-9.82,7.459,3856612,12368,96324,35.46,i
127.1,5005,-9.822,7.46,3856891,12369,96324,34.45,i
127.39,5006,-9.824,7.461,3857177,12370,96324,33.4,i
127.66,5004,-9.824,7.461,3857470,12371,96324,32.57,i
127.92,5006,-9.828,7.462,3857715,12372,96324,31.78,i
128.18,5007,-9.828,7.463,3857985,12373,96324,30.94,i
128.62,5005,-9.83,7.465,3858397,12374,96324,30.07,i
128.85,5005,-9.833,7.466,3858647,12375,96324,29.39,i
129.19,5004,-9.836,7.467,3858939,12376,96324,28.57,i
129.49,5006,-9.836,7.469,3859256,12377,96324,27.81,i
129.67,5005,-9.838,7.47,3859487,12378,96324,27.08,i
130.03,5005,-9.84,7.472,3859815,12379,96324,26.65,i
130.29,5006,-9.841,7.473,3860135,12380,96324,25.89,i
130.62,5005,-9.841,7.476,3860405,12381,96324,25.18,i
130.89,5002,-9.843,7.477,3860683,12382,96324,24.68,i
131.26,5006,-9.845,7.48,3861036,12383,96324,24.02,i
131.57,5004,-9.845,7.482,3861320,12384,96324,23.45,i
131.91,5007,-9.846,7.484,3861677,12385,96324,22.84,i
132.11,5004,-9.848,7.487,3861907,12386,96324,22.3,i
132.57,5006,-9.849,7.49,3862326,12387,96324,21.77,i
132.79,5006,-9.849,7.491,3862615,12388,96324,21.39,i
133.12,5005,-9.849,7.493,3862897,12389,96324,20.92,i
133.4,5004,-9.851,7.497,3863146,12390,96324,20.29,i
133.65,5006,-9.852,7.498,3863444,12391,96324,19.53,i
133.93,5007,-9.852,7.5,3863724,12392,96324,19.34,i
134.31,5005,-9.852,7.503,3864108,12393,96324,18.94,i
134.67,5007,-9.853,7.506,3864397,12394,96324,18.56,i
134.84,5004,-9.854,7.507,3864611,12395,96324,18.09,i
135.06,5007,-9.854,7.509,3864898,12396,96324,17.63,i
135.51,5008,-9.856,7.513,3865272,12397,96324,17.52,i
135.73,5007,-9.856,7.515,3865517,12398,96324,17.04,i
136.0,5004,-9.857,7.515,3865797,12399,96324,16.71,i
136.4,5005,-9.857,7.519,3866170,12400,96324,16.16,i
136.72,5007,-9.858,7.521,3866456,12401,96324,16.09,i
136.96,5005,-9.858,7.523,3866708,12402,96324,15.62,i
137.3,5005,-9.86,7.524,3867016,12403,96324,15.49,i
137.58,5008,-9.86,7.527,3867356,12404,96324,15.15,i
137.83,5008,-9.86,7.527,3867645,12405,96324,14.82,i
138.21,5006,-9.86,7.53,3867968,12406,96324,14.5,i
138.43,5007,-9.861,7.532,3868237,12407,96324,14.22,i
138.76,5008,-9.862,7.534,3868566,12408,96324,14.0,i
139.11,5003,-9.862,7.535,3868867,12409,96324,13.81,i
139.52,5006,-9.862,7.537,3869147,12410,96324,13.41,i
139.76,5006,-9.863,7.538,3869431,12411,96324,12.98,i
140.03,5005,-9.864,7.54,3869836,12412,96324,12.86,i
140.32,5007,-9.864,7.542,3870087,12413,96324,12.6,i
140.62,5008,-9.864,7.544,3870385,12414,96324,12.54,i
140.9,5006,-9.864,7.544,3870670,12415,96324,12.13,i
141.21,5005,-9.865,7.546,3870961,12416,96324,12.02,i
141.39,5007,-9.865,7.547,3871228,12417,96324,11.85,i
141.76,5006,-9.865,7.549,3871552,12418,96324,11.53,i
142.01,5005,-9.866,7.55,3871816,12419,96324,11.5,i
142.35,5007,-9.866,7.552,3872109,12420,96324,11.22,i
142.71,5007,-9.867,7.553,3872411,12421,96324,11.06,i
143.01,5005,-9.867,7.554,3872772,12422,96324,10.92,i
143.26,5009,-9.867,7.555,3873036,12423,96324,10.54,i
143.56,5008,-9.867,7.556,3873338,12424,96324,10.45,i
143.96,5005,-9.868,7.558,3873727,12425,96324,10.33,i
144.22,5007,-9.868,7.559,3874034,12426,96324,10.24,i
144.46,5008,-9.868,7.56,3874292,12427,96324,10.06,i
144.76,5009,-9.869,7.561,3874548,12428,96324,9.93,i
145.03,5008,-9.869,7.561,3874806,12429,96324,9.87,i
145.38,5008,-9.869,7.562,3875174,12430,96324,9.73,i
145.72,5007,-9.869,7.563,3875453,12431,96324,9.39,i
146.04,5009,-9.87,7.565,3875766,12432,96324,9.39,i
146.31,5008,-9.87,7.566,3876080,12433,96324,9.19,i
146.59,5007,-9.87,7.566,3876387,12434,96324,9.08,i
146.87,5005,-9.87,7.567,3876618,12435,96324,8.92,i
147.16,5009,-9.87,7.568,3876927,12436,96324,8.86,i
147.57,5006,-9.871,7.569,3877382,12437,96324,8.72,i
147.76,5007,-9.871,7.57,3877565,12438,96324,8.63,i
148.02,5007,-9.871,7.57,3877822,12439,96324,8.42,i
148.34,5008,-9.871,7.572,3878147,12440,96324,8.45,i
148.66,5008,-9.871,7.572,3878412,12441,96324,8.29,i
148.95,5007,-9.872,7.573,3878724,12442,96324,8.14,i
149.28,5007,-9.872,7.574,3879049,12443,96324,8.14,i
149.69,5008,-9.872,7.574,3879431,12444,96324,7.91,i
149.92,5007,-9.872,7.575,3879680,12445,96324,7.86,i
150.12,5008,-9.872,7.576,3879935,12446,96324,7.98,i
150.48,5006,-9.872,7.577,3880237,12447,96324,7.63,i
150.87,5009,-9.873,7.577,3880644,12448,96324,7.57,i
151.18,5007,-9.873,7.578,3880948,12449,96324,7.59,i
151.37,5008,-9.873,7.578,3881177,12450,96324,7.51,i
151.63,5008,-9.873,7.579,3881453,12451,96324,7.29,i
151.95,5008,-9.874,7.58,3881723,12452,96324,7.35,i
152.42,5008,-9.874,7.58,3882168,12453,96324,7.14,i
152.58,5008,-9.874,7.581,3882336,12454,96324,6.97,i
152.97,5007,-9.874,7.581,3882756,12455,96324,7.0,i
153.27,5009,-9.874,7.582,3883029,12456,96324,6.87,i
153.49,5008,-9.874,7.582,3883283,12457,96324,6.8,i
153.74,5008,-9.874,7.583,3883544,12458,96324,6.6,i
154.08,5010,-9.874,7.583,3883874,12459,96324,6.61,i
154.46,5009,-9.875,7.584,3884244,12460,96324,6.48,i
154.73,5009,-9.875,7.584,3884551,12461,96324,6.54,i
155.0,5006,-9.875,7.585,3884760,12462,96324,6.44,i
155.26,5009,-9.875,7.585,3885036,12463,96324,6.37,i
155.57,5010,-9.875,7.586,3885372,12464,96324,6.52,i
155.85,5008,-9.875,7.586,3885690,12465,96324,6.3,i
156.11,5007,-9.875,7.587,3885924,12466,96324,6.12,i
156.52,5010,-9.875,7.588,3886304,12467,96324,5.92,i
156.84,5008,-9.875,7.588,3886625,12468,96324,6.06,i
157.12,5007,-9.876,7.588,3886858,12469,96324,6.06,i
157.44,5008,-9.876,7.589,3887148,12470,96324,5.94,i
157.62,5009,-9.876,7.589,3887450,12471,96324,5.9,i
158.02,5009,-9.876,7.59,3887785,12472,96324,5.97,i
158.31,5012,-9.876,7.59,3888067,12473,96324,5.88,i
158.61,5009,-9.876,7.591,3888376,12474,96324,5.82,i
158.86,5006,-9.876,7.591,3888633,12475,96324,5.61,i
159.23,5007,-9.876,7.591,3889036,12476,96324,5.56,i
159.49,5008,-9.876,7.592,3889287,12477,96324,5.68,i
159.88,5010,-9.876,7.593,3889640,12478,96324,5.4,i
160.16,5010,-9.877,7.593,3889929,12479,96324,5.6,i
160.39,5009,-9.877,7.593,3890189,12480,96324,5.46,i
160.74,5010,-9.877,7.594,3890475,12481,96324,5.32,i
160.95,5009,-9.877,7.594,3890750,12482,96324,5.29,i
161.31,5009,-9.877,7.595,3891137,12483,96324,5.33,i
161.57,5008,-9.877,7.595,3891364,12484,96324,5.43,i
162.0,5006,-9.877,7.595,3891778,12485,96324,5.23,i
162.22,5007,-9.877,7.595,3892049,12486,96324,5.09,i
162.41,5006,-9.877,7.596,3892259,12487,96324,5.01,i
162.87,5009,-9.877,7.596,3892658,12488,96324,4.99,i
163.13,5008,-9.878,7.597,3892962,12489,96324,5.01,i
163.36,5007,-9.878,7.597,3893173,12490,96324,5.1,i
163.78,5007,-9.878,7.597,3893546,12491,96324,4.98,i
164.05,5008,-9.878,7.597,3893847,12492,96324,4.79,i
164.36,5009,-9.878,7.598,3894120,12493,96324,4.72,i
164.62,5010,-9.878,7.598,3894400,12494,96324,4.87,i
164.83,5010,-9.878,7.598,3894665,12495,96324,4.95,i
165.22,5009,-9.878,7.599,3895020,12496,96324,4.74,i
165.53,5011,-9.878,7.599,3895316,12497,96324,4.74,i
165.78,5010,-9.878,7.599,3895592,12498,96324,4.68,i
166.16,5011,-9.878,7.6,3895975,12499,96324,4.61,i
166.4,5007,-9.878,7.6,3896188,12500,96324,4.68,i
166.68,5007,-9.878,7.6,3896477,12501,96324,4.61,i
167.08,5011,-9.878,7.601,3896909,12502,96324,4.69,i
167.35,5009,-9.878,7.601,3897147,12503,96324,4.58,i
167.63,5010,-9.878,7.601,3897439,12504,96324,4.5,i
167.88,5006,-9.878,7.601,3897666,12505,96324,4.55,i
168.2,5008,-9.878,7.601,3897985,12506,96324,4.38,i
168.62,5010,-9.879,7.602,3898420,12507,96324,4.36,i
168.82,5008,-9.879,7.602,3898559,12508,96324,4.58,i
169.14,5006,-9.879,7.602,3898878,12509,96324,4.41,i
169.43,5010,-9.879,7.603,3899180,12510,96324,4.44,i
169.73,5009,-9.879,7.603,3899513,12511,96324,4.47,i
169.92,5009,-9.879,7.603,3899762,12512,96324,4.39,i
170.3,5010,-9.879,7.603,3900067,12513,96324,4.36,i
170.63,5009,-9.879,7.603,3900382,12514,96324,4.21,i
170.95,5006,-9.879,7.603,3900784,12515,96324,4.25,i
171.21,5011,-9.879,7.604,3901009,12516,96324,4.25,i
171.57,5012,-9.879,7.604,3901344,12517,96324,4.27,i
171.79,5008,-9.879,7.604,3901588,12518,96324,4.28,i
172.18,5011,-9.879,7.604,3901990,12519,96324,4.16,i
172.45,5010,-9.879,7.605,3902277,12520,96324,4.1,i
172.73,5011,-9.879,7.605,3902508,12521,96324,3.97,i
172.98,5010,-9.879,7.605,3902764,12522,96324,4.12,i
173.23,5010,-9.879,7.605,3903056,12523,96324,4.06,i
173.65,5010,-9.879,7.606,3903417,12524,96324,4.14,i
173.94,5009,-9.879,7.606,3903705,12525,96324,3.8,i
174.16,5010,-9.88,7.606,3903984,12526,96324,3.97,i
174.56,5009,-9.88,7.606,3904302,12527,96324,3.89,i
174.8,5010,-9.88,7.607,3904565,12528,96324,3.89,i
175.07,5011,-9.88,7.607,3904858,12529,96324,3.84,i
175.47,5011,-9.88,7.607,3905267,12530,96324,3.79,i
175.78,5010,-9.88,7.607,3905558,12531,96324,3.86,i
176.01,5010,-9.88,7.607,3905768,12532,96324,3.84,i
176.3,5009,-9.88,7.607,3906086,12533,96324,3.8,i
176.62,5010,-9.88,7.608,3906393,12534,96324,3.75,i
176.94,5010,-9.88,7.608,3906672,12535,96324,3.83,i
177.17,5007,-9.88,7.608,3906987,12536,96324,3.84,i
177.5,5008,-9.88,7.608,3907335,12537,96324,3.66,i
177.74,5010,-9.88,7.608,3907568,12538,96324,3.8,i
178.19,5009,-9.88,7.608,3907934,12539,96324,3.74,i
178.47,5009,-9.88,7.609,3908249,12540,96324,3.61,i
178.75,5008,-9.88,7.609,3908578,12541,96324,3.5,i
178.98,5008,-9.88,7.609,3908838,12542,96324,3.53,i
179.41,5009,-9.88,7.609,3909206,12543,96324,3.61,i
179.66,5010,-9.88,7.609,3909475,12544,96324,3.39,i
179.92,5007,-9.881,7.609,3909729,12545,96324,3.56,i
180.33,5010,-9.88,7.609,3910076,12546,96324,3.42,i
180.54,5010,-9.88,7.61,3910378,12547,96324,3.66,i
180.82,5008,-9.88,7.61,3910594,12548,96324,3.41,i
181.12,5010,-9.88,7.61,3910950,12549,96324,3.56,i
181.45,5011,-9.881,7.61,3911193,12550,96324,3.7,i
181.76,5010,-9.881,7.611,3911558,12551,96324,3.58,i
182.06,5008,-9.881,7.611,3911813,12552,96324,3.5,i
182.35,5010,-9.881,7.611,3912128,12553,96324,3.46,i
182.62,5010,-9.881,7.611,3912401,12554,96324,3.26,i
182.97,5009,-9.881,7.611,3912773,12555,96324,3.35,i
183.2,5009,-9.881,7.612,3912994,12556,96324,3.33,i
183.54,5008,-9.881,7.612,3913308,12557,96324,3.5,i
183.92,5009,-9.881,7.612,3913712,12558,96324,3.53,i
184.16,5010,-9.881,7.612,3913955,12559,96324,3.46,i
184.45,5011,-9.881,7.612,3914218,12560,96324,3.3,i
184.69,5009,-9.881,7.612,3914507,12561,96324,3.35,i
185.01,5008,-9.881,7.613,3914788,12562,96324,3.5,i
185.36,5011,-9.881,7.613,3915162,12563,96324,3.4,i
185.76,5010,-9.881,7.613,3915508,12564,96324,3.29,i
185.91,5009,-9.881,7.613,3915702,12565,96324,3.36,i
186.17,5010,-9.881,7.613,3915986,12566,96324,3.34,i
186.51,5008,-9.881,7.613,3916295,12567,96324,3.18,i
186.76,5011,-9.881,7.613,3916578,12568,96324,3.18,i
187.2,5011,-9.881,7.613,3916984,12569,96324,3.28,i
187.44,5009,-9.881,7.613,3917268,12570,96324,3.34,i
187.73,5010,-9.881,7.613,3917510,12571,96324,3.25,i
188.03,5010,-9.881,7.613,3917810,12572,96324,3.4,i
188.42,5011,-9.881,7.614,3918236,12573,96324,3.04,i
188.71,5010,-9.881,7.614,3918448,12574,96324,3.22,i
188.91,5009,-9.881,7.614,3918703,12575,96324,3.18,i
189.35,5011,-9.882,7.614,3919107,12576,96324,3.25,i
189.61,5011,-9.882,7.614,3919379,12577,96324,3.04,i
189.97,5009,-9.882,7.614,3919713,12578,96324,3.26,i
190.26,5010,-9.882,7.614,3920029,12579,96324,3.25,i
190.4,5010,-9.882,7.614,3920195,12580,96324,3.03,i
190.83,5010,-9.882,7.614,3920645,12581,96324,3.03,i
191.1,5009,-9.882,7.614,3920898,12582,96324,3.03,i
191.41,5009,-9.882,7.615,3921191,12583,96324,3.24,i
191.7,5007,-9.882,7.615,3921470,12584,96324,3.2,i
191.89,5009,-9.882,7.615,3921718,12585,96324,3.01,i
192.26,5010,-9.882,7.615,3922012,12586,96324,3.03,i
192.47,5009,-9.882,7.615,3922289,12587,96324,3.09,i
192.83,5009,-9.882,7.615,3922646,12588,96324,2.91,i
193.26,5010,-9.882,7.616,3923019,12589,96324,3.03,i
193.57,5009,-9.882,7.616,3923324,12590,96324,3.12,i
193.85,5010,-9.882,7.616,3923667,12591,96324,2.84,i
194.06,5009,-9.882,7.616,3923913,12592,96324,3.01,i
194.36,5009,-9.882,7.617,3924143,12593,96324,3.07,i
194.69,5010,-9.882,7.617,3924403,12594,96324,2.92,i
194.89,5010,-9.882,7.617,3924731,12595,96324,2.93,i
195.34,5008,-9.882,7.617,3925065,12596,96324,3.01,i
195.6,5011,-9.882,7.618,3925370,12597,96324,2.97,i
195.9,5008,-9.882,7.618,3925628,12598,96324,2.96,i
196.12,5009,-9.882,7.618,3925915,12599,96324,2.82,i
196.52,5009,-9.883,7.618,3926303,12600,96324,2.92,i
196.77,5011,-9.883,7.618,3926586,12601,96324,2.95,i
197.09,5011,-9.883,7.618,3926857,12602,96324,2.81,i
197.4,5010,-9.883,7.618,3927192,12603,96324,2.84,i
197.65,5010,-9.883,7.618,3927463,12604,96324,2.81,i
197.88,5010,-9.884,7.618,3927703,12605,96324,2.77,i
198.23,5010,-9.884,7.618,3928068,12606,96324,2.81,i
198.56,5009,-9.884,7.618,3928298,12607,96324,2.96,i
198.86,5009,-9.885,7.618,3928642,12608,96324,2.95,i
199.14,5010,-9.885,7.618,3928938,12609,96324,3.07,i
199.49,5008,-9.885,7.619,3929258,12610,96324,3.07,i
199.8,5009,-9.885,7.619,3929538,12611,96324,3.01,i
200.05,5011,-9.885,7.619,3929857,12612,96324,2.85,i
200.33,5012,-9.885,7.619,3930102,12613,96324,2.93,i
200.78,5009,-9.885,7.619,3930488,12614,96324,3.03,i
200.88,5009,-9.885,7.619,3930706,12615,96324,2.9,i
201.3,5011,-9.885,7.619,3931050,12616,96324,2.7,i
201.58,5008,-9.885,7.619,3931359,12617,96324,2.9,i
201.81,5011,-9.885,7.619,3931624,12618,96324,2.7,i
202.25,5011,-9.885,7.619,3932002,12619,96324,2.7,i
