time,adc,distance,mass,millis,samples,steps,force,state
0.0,4986,-9.968,1.964,610097,1841,66058,2.37,i
0.21,4995,-9.967,1.964,610274,1842,66098,2.7,p
0.61,4978,-10.0,1.964,610627,1843,66137,4.39,p
0.83,4982,-10.017,1.964,610867,1844,66177,5.72,p
1.1,4961,-10.017,1.964,611160,1845,66216,7.02,p
1.53,4951,-10.068,1.964,611575,1846,66256,8.2,p
1.64,4953,-10.068,1.964,611722,1847,66295,9.47,p
2.04,4936,-10.101,1.964,612115,1848,66335,10.46,p
2.32,4939,-10.101,1.964,612344,1849,66374,11.61,p
2.63,4924,-10.135,1.964,612665,1850,66414,13.09,p
2.91,4903,-10.168,1.964,612945,1851,66453,14.49,p
3.29,4907,-10.202,1.964,613335,1852,66493,15.5,p
3.55,4881,-10.202,1.964,613596,1853,66532,16.54,p
3.82,4888,-10.236,1.964,613917,1854,66572,17.66,p
4.03,4866,-10.256,1.964,614129,1855,66611,19.07,p
4.46,4845,-10.29,1.964,614509,1856,66651,20.3,p
4.76,4845,-10.29,1.964,614767,1857,66690,21.61,p
5.01,4828,-10.324,1.964,615069,1858,66730,22.77,p
5.33,4802,-10.344,1.964,615315,1859,66769,24.05,p
5.61,4791,-10.377,1.965,615620,1860,66809,24.95,p
5.86,4752,-10.377,1.965,615896,1861,66848,26.38,p
6.11,4774,-10.41,1.965,616215,1862,66888,27.21,p
6.52,4754,-10.431,1.965,616571,1863,66927,28.31,p
6.82,4698,-10.465,1.966,616864,1864,66967,29.34,p
7.18,4729,-10.499,1.966,617186,1865,67006,30.49,p
7.45,4728,-10.519,1.966,617488,1866,67046,31.38,p
7.79,4700,-10.519,1.967,617847,1867,67085,32.5,p
8.02,4723,-10.554,1.967,618095,1868,67125,33.21,p
8.29,4701,-10.554,1.967,618355,1869,67164,34.03,p
8.65,4725,-10.587,1.968,618703,1870,67204,35.0,p
8.91,4724,-10.622,1.968,618978,1871,67244,36.39,p
9.14,4724,-10.622,1.969,619207,1872,67283,37.04,p
9.52,4712,-10.656,1.969,619548,1873,67323,37.77,p
9.81,4718,-10.69,1.97,619861,1874,67362,38.81,p
10.14,4724,-10.725,1.971,620204,1875,67402,39.25,p
10.43,4726,-10.725,1.971,620499,1876,67441,40.21,p
10.69,4693,-10.76,1.972,620789,1877,67481,41.09,p
10.95,4718,-10.78,1.973,621032,1878,67520,41.81,p
11.32,4724,-10.816,1.975,621413,1879,67560,42.19,p
11.63,4721,-10.816,1.976,621704,1880,67599,42.54,p
11.91,4716,-10.85,1.977,621952,1881,67639,43.48,p
12.21,4700,-10.885,1.978,622222,1882,67678,43.97,p
12.47,4723,-10.885,1.979,622504,1883,67718,44.67,p
12.7,4716,-10.919,1.98,622810,1884,67757,45.24,p
13.1,4713,-10.954,1.982,623146,1885,67797,45.95,p
13.42,4707,-10.954,1.982,623488,1886,67836,46.57,p
13.79,4720,-10.988,1.985,623765,1887,67876,47.3,p
14.01,4723,-11.023,1.986,624057,1888,67915,47.58,p
14.21,4716,-11.023,1.986,624334,1889,67955,48.09,p
14.61,4696,-11.057,1.989,624653,1890,67994,48.48,p
14.88,4717,-11.091,1.991,624949,1891,68034,49.01,p
15.21,4713,-11.091,1.993,625234,1892,68073,49.5,p
15.4,4724,-11.125,1.995,625516,1893,68113,49.67,p
15.82,4699,-11.159,1.997,625856,1894,68152,50.23,p
16.09,4692,-11.18,1.999,626161,1895,68192,50.63,p
16.4,4720,-11.215,2.001,626447,1896,68231,50.9,p
16.75,4720,-11.215,2.004,626850,1897,68271,51.44,p
17.0,4697,-11.25,2.007,627054,1898,68310,51.87,p
17.31,4705,-11.286,2.008,627347,1899,68350,52.38,p
17.69,4723,-11.286,2.011,627750,1900,68389,52.94,p
17.95,4718,-11.321,2.014,627968,1901,68429,53.05,p
18.2,4720,-11.357,2.016,628224,1902,68468,53.57,p
18.51,4699,-11.377,2.018,628628,1903,68508,54.19,p
18.79,4723,-11.377,2.021,628837,1904,68547,54.25,p
19.12,4718,-11.412,2.025,629134,1905,68587,54.62,p
19.37,4715,-11.447,2.025,629443,1906,68626,54.56,p
19.83,4718,-11.482,2.03,629829,1907,68666,55.3,p
19.95,4694,-11.482,2.031,630007,1908,68705,55.21,p
20.29,4716,-11.517,2.035,630417,1909,68745,55.36,p
20.58,4714,-11.517,2.038,630622,1910,68784,55.82,p
20.93,4694,-11.552,2.041,631003,1911,68824,56.13,p
21.21,4719,-11.587,2.044,631245,1912,68863,56.38,p
21.58,4713,-11.622,2.048,631634,1913,68903,56.64,p
21.86,4713,-11.622,2.051,631912,1914,68942,57.08,p
22.18,4707,-11.657,2.054,632197,1915,68982,57.23,p
22.49,4715,-11.692,2.057,632499,1916,69021,57.37,p
22.82,4721,-11.713,2.062,632796,1917,69061,57.58,p
23.03,4719,-11.713,2.063,633092,1918,69100,58.11,p
23.37,4695,-11.749,2.068,633425,1919,69140,58.48,p
23.61,4707,-11.749,2.069,633677,1920,69179,58.62,p
23.94,4713,-11.785,2.073,633928,1921,69219,58.73,p
24.18,4720,-11.822,2.076,634267,1922,69258,58.99,p
24.46,4711,-11.822,2.08,634519,1923,69298,59.23,p
24.91,4707,-11.858,2.085,634954,1924,69337,59.15,p
25.2,4718,-11.894,2.089,635194,1925,69377,59.46,p
25.45,4719,-11.93,2.09,635496,1926,69416,59.9,p
25.67,4717,-11.951,2.092,635757,1927,69456,59.89,p
26.12,4719,-11.987,2.099,636136,1928,69496,60.42,p
26.41,4712,-11.987,2.102,636405,1929,69535,60.39,p
26.68,4719,-12.023,2.106,636678,1930,69575,60.61,p
27.28,4690,-12.058,2.112,637085,1931,69614,60.82,p
27.52,4704,-12.094,2.114,637449,1932,69654,60.94,p
27.81,4709,-12.094,2.118,637733,1933,69693,60.88,p
27.92,4720,-12.13,2.118,637960,1934,69733,60.93,p
28.43,4709,-12.166,2.127,638391,1935,69772,61.16,p
28.81,4714,-12.201,2.13,638645,1936,69812,61.54,p
29.14,4699,-12.222,2.135,638948,1937,69851,61.71,p
29.41,4717,-12.244,2.14,639356,1939,69930,61.68,p
30.01,4717,-12.28,2.146,639854,1940,69970,61.71,p
30.31,4716,-12.316,2.149,640216,1942,70049,62.28,p
30.92,4703,-12.352,2.159,640714,1943,70088,62.01,p
31.11,4703,-12.352,2.161,641106,1944,70128,62.32,p
31.21,4706,-12.388,2.161,641299,1945,70167,62.49,p
31.5,4715,-12.424,2.169,641548,1946,70207,62.88,p
31.78,4719,-12.446,2.17,641842,1947,70246,62.97,p
32.05,4711,-12.446,2.174,642118,1948,70286,63.02,p
32.24,4719,-12.482,2.178,642325,1949,70325,63.22,p
32.66,4707,-12.504,2.183,642697,1950,70365,63.2,p
32.95,4714,-12.54,2.187,643014,1951,70404,63.36,p
33.33,4705,-12.54,2.192,643313,1952,70444,63.54,p
33.54,4700,-12.576,2.194,643521,1953,70483,63.46,p
33.78,4713,-12.576,2.196,643825,1954,70523,63.38,p
34.23,4724,-12.612,2.204,644260,1955,70562,63.74,p
34.5,4706,-12.648,2.208,644545,1956,70602,63.8,p
34.77,4698,-12.683,2.212,644836,1957,70641,63.66,p
35.08,4699,-12.683,2.216,645165,1958,70681,63.74,p
35.31,4707,-12.719,2.22,645389,1959,70720,64.28,p
35.59,4715,-12.756,2.224,645647,1960,70760,64.29,p
36.01,4686,-12.756,2.228,646042,1961,70799,64.32,p
36.27,4702,-12.792,2.233,646330,1962,70839,64.26,p
36.54,4699,-12.829,2.236,646557,1963,70878,64.36,p
36.94,4710,-12.866,2.242,646953,1964,70918,63.96,p
37.23,4697,-12.866,2.247,647278,1965,70957,64.61,p
37.46,4694,-12.902,2.249,647497,1966,70997,64.58,p
37.69,4710,-12.902,2.253,647735,1967,71036,64.63,p
38.06,4707,-12.938,2.259,648131,1968,71076,64.78,p
38.31,4714,-12.973,2.263,648384,1969,71115,65.0,p
38.62,4716,-12.973,2.267,648647,1970,71155,64.59,p
38.98,4701,-13.009,2.271,648945,1971,71194,65.02,p
39.25,4712,-13.045,2.275,649297,1972,71234,64.84,p
39.62,4713,-13.081,2.281,649557,1973,71273,64.94,p
39.88,4688,-13.081,2.285,649953,1974,71313,65.01,p
40.11,4714,-13.117,2.289,650203,1975,71352,65.17,p
40.4,4685,-13.117,2.293,650457,1976,71392,64.96,p
40.86,4701,-13.153,2.297,650825,1977,71431,65.03,p
40.96,4704,-13.189,2.3,651027,1978,71471,65.23,p
41.36,4694,-13.225,2.306,651397,1979,71511,65.49,p
41.67,4716,-13.225,2.31,651704,1980,71550,65.06,p
41.91,4713,-13.261,2.314,651973,1981,71590,65.29,p
42.25,4714,-13.298,2.321,652295,1982,71629,65.75,p
42.47,4711,-13.298,2.322,652554,1983,71669,65.69,p
42.96,4717,-13.335,2.329,652942,1984,71708,65.61,p
43.09,4704,-13.371,2.332,653139,1985,71748,65.47,p
43.38,4713,-13.394,2.336,653445,1986,71787,65.9,p
43.73,4706,-13.394,2.342,653753,1987,71827,65.99,p
43.94,4708,-13.43,2.345,654036,1988,71866,65.73,p
44.37,4713,-13.466,2.352,654386,1989,71906,65.94,p
44.66,4716,-13.466,2.356,654715,1990,71945,65.84,p
45.03,4705,-13.502,2.36,654997,1991,71985,65.96,p
45.21,4707,-13.538,2.363,655314,1992,72024,65.9,p
45.62,4716,-13.538,2.369,655669,1993,72064,65.69,p
45.94,4714,-13.575,2.376,655927,1994,72103,66.15,p
46.2,4704,-13.611,2.377,656249,1995,72143,65.96,p
46.55,4715,-13.647,2.383,656554,1996,72182,66.02,p
46.84,4716,-13.647,2.387,656840,1997,72222,65.86,p
47.15,4707,-13.683,2.443,657171,1998,72261,66.32,p
47.27,4705,-13.683,2.475,657334,1999,72301,66.24,p
47.7,4685,-13.719,2.498,657728,2000,72340,66.49,p
47.98,4713,-13.755,2.507,658006,2001,72380,66.11,p
48.2,4701,-13.755,2.51,658253,2002,72419,66.02,p
48.61,4698,-13.791,2.513,658663,2003,72459,66.13,p
48.87,4711,-13.828,2.513,658946,2004,72498,66.33,p
49.18,4695,-13.865,2.514,659224,2005,72538,66.52,p
49.43,4705,-13.865,2.514,659492,2006,72577,66.48,p
49.73,4716,-13.902,2.515,659747,2007,72617,66.28,p
50.09,4705,-13.938,2.515,660098,2008,72656,66.17,p
50.32,4713,-13.938,2.516,660364,2009,72696,66.22,p
50.7,4715,-13.975,2.516,660747,2010,72735,66.37,p
50.95,4713,-14.011,2.518,661026,2011,72775,66.23,p
51.23,4719,-14.032,2.518,661291,2012,72814,66.39,p
51.52,4709,-14.032,2.518,661579,2013,72854,66.48,p
51.81,4704,-14.069,2.519,661854,2014,72893,66.49,p
52.15,4702,-14.091,2.52,662216,2015,72933,66.39,p
52.48,4708,-14.127,2.521,662447,2016,72972,66.65,p
52.68,4703,-14.149,2.522,662766,2017,73012,66.61,p
53.1,4708,-14.186,2.524,663078,2018,73051,66.68,p
53.35,4714,-14.186,2.525,663376,2019,73091,66.44,p
53.58,4701,-14.221,2.525,663661,2020,73130,66.46,p
53.85,4714,-14.221,2.527,663939,2021,73170,66.7,p
54.2,4712,-14.257,2.528,664267,2022,73209,66.67,p
54.69,4697,-14.279,2.532,664696,2023,73249,66.4,p
55.05,4715,-14.315,2.534,664914,2024,73289,66.44,p
55.41,4706,-14.352,2.536,665282,2025,73328,66.82,p
55.59,4706,-14.389,2.538,665571,2026,73368,66.87,p
55.94,4710,-14.389,2.54,665766,2027,73407,66.71,p
56.07,4702,-14.426,2.542,666057,2028,73447,66.63,p
56.32,4715,-14.426,2.545,666345,2029,73486,66.68,p
56.69,4705,-14.462,2.55,666726,2030,73526,66.52,p
56.94,4704,-14.498,2.551,667019,2031,73565,66.9,p
57.27,4715,-14.498,2.554,667356,2032,73605,67.12,p
57.5,4707,-14.534,2.559,667547,2033,73644,66.92,p
57.79,4711,-14.57,2.562,667892,2034,73684,66.93,p
58.19,4709,-14.591,2.565,668221,2035,73723,66.98,p
58.48,4701,-14.627,2.572,668549,2036,73763,66.89,p
58.77,4714,-14.627,2.574,668817,2037,73802,66.96,p
59.03,4702,-14.663,2.578,669077,2038,73842,66.74,p
59.35,4683,-14.699,2.583,669409,2039,73881,67.12,p
59.62,4708,-14.699,2.586,669661,2040,73921,66.95,p
59.9,4703,-14.736,2.634,669956,2041,73960,67.01,p
60.17,4715,-14.736,2.68,670266,2042,74000,67.0,p
60.53,4712,-14.771,2.699,670635,2043,74039,66.98,p
60.83,4688,-14.808,2.706,670877,2044,74079,66.95,p
61.04,4704,-14.808,2.709,671152,2045,74118,66.73,p
61.49,4714,-14.845,2.71,671478,2046,74158,67.0,p
61.75,4707,-14.882,2.711,671793,2047,74197,67.23,p
62.03,4708,-14.919,2.711,672076,2048,74237,67.04,p
62.36,4707,-14.919,2.712,672408,2049,74276,67.14,p
62.61,4712,-14.955,2.712,672661,2050,74316,67.15,p
62.95,4712,-14.992,2.714,673015,2051,74355,67.06,p
63.22,4696,-14.992,2.714,673274,2052,74395,67.27,p
63.76,4682,-15.027,2.715,673762,2053,74434,66.95,p
63.86,4716,-15.063,2.715,673934,2054,74474,67.04,p
64.15,4707,-15.063,2.716,674185,2055,74513,67.34,p
64.48,4695,-15.1,2.717,674505,2056,74553,66.92,p
64.75,4707,-15.136,2.718,674764,2057,74592,66.92,p
65.0,4711,-15.136,2.718,675071,2058,74632,66.82,p
65.47,4707,-15.172,2.719,675377,2059,74671,67.27,p
65.84,4711,-15.208,2.72,675874,2060,74711,67.32,p
65.91,4705,-15.208,2.72,676001,2061,74750,67.16,p
66.36,4713,-15.244,2.723,676337,2062,74790,67.11,p
66.55,4707,-15.28,2.725,676636,2063,74829,66.82,p
66.88,4712,-15.28,2.726,676930,2064,74869,67.2,p
67.19,4695,-15.316,2.728,677207,2065,74909,67.34,p
67.47,4713,-15.353,2.73,677517,2066,74948,67.44,p
67.74,4695,-15.353,2.732,677789,2067,74988,67.12,p
68.15,4700,-15.39,2.768,678221,2068,75027,67.12,p
68.28,4712,-15.427,2.768,678352,2069,75067,67.0,p
68.63,4704,-15.427,2.828,678663,2070,75106,67.34,p
68.98,4710,-15.463,2.837,679081,2071,75146,67.05,p
69.26,4710,-15.5,2.841,679287,2072,75185,67.27,p
69.51,4708,-15.5,2.842,679583,2073,75225,67.29,p
69.97,4707,-15.536,2.844,680007,2074,75264,67.41,p
70.1,4695,-15.572,2.844,680162,2075,75304,67.22,p
70.53,4696,-15.608,2.845,680557,2076,75343,67.23,p
70.72,4710,-15.608,2.845,680853,2077,75383,67.42,p
71.02,4686,-15.645,2.846,681084,2078,75422,67.41,p
71.32,4709,-15.645,2.846,681382,2079,75462,67.38,p
71.63,4713,-15.681,2.846,681656,2080,75501,67.6,p
71.89,4711,-15.718,2.847,681958,2081,75541,67.41,p
72.27,4705,-15.755,2.847,682336,2082,75580,67.0,p
72.56,4707,-15.755,2.848,682625,2083,75620,67.45,p
72.88,4706,-15.791,2.848,682932,2084,75659,67.55,p
73.18,4710,-15.828,2.849,683225,2085,75699,67.47,p
73.46,4687,-15.828,2.851,683529,2086,75738,67.38,p
73.75,4713,-15.865,2.851,683786,2087,75778,67.38,p
74.04,4707,-15.902,2.852,684080,2088,75817,67.01,p
74.39,4699,-15.902,2.854,684472,2089,75857,67.06,p
74.68,4706,-15.939,2.854,684732,2090,75896,67.49,p
75.0,4700,-15.975,2.857,685030,2091,75936,67.26,p
75.23,4712,-15.975,2.858,685334,2092,75975,67.25,p
75.49,4696,-16.011,2.86,685567,2093,76015,67.34,p
75.93,4702,-16.047,2.862,686021,2094,76054,67.16,p
76.23,4712,-16.083,2.864,686284,2095,76094,67.27,p
76.47,4707,-16.083,2.866,686519,2096,76133,67.29,p
76.85,4704,-16.119,2.868,686846,2097,76173,67.43,p
77.14,4713,-16.141,2.872,687155,2098,76212,67.39,p
77.35,4696,-16.141,2.873,687413,2099,76252,67.28,p
77.6,4703,-16.177,2.886,687677,2100,76291,67.26,p
78.04,4710,-16.213,2.965,688096,2101,76331,67.22,p
78.29,4695,-16.249,2.985,688365,2102,76371,66.94,p
78.61,4717,-16.249,2.993,688607,2103,76410,67.26,p
78.89,4706,-16.285,2.996,688967,2104,76450,66.87,p
79.18,4712,-16.306,2.999,689259,2105,76489,66.98,p
79.42,4714,-16.306,3.001,689495,2106,76529,67.05,p
79.86,4708,-16.344,3.001,689882,2107,76568,67.16,p
80.08,4712,-16.381,3.002,690156,2108,76608,67.22,p
80.38,4692,-16.418,3.002,690386,2109,76647,67.31,p
80.64,4711,-16.418,3.003,690720,2110,76687,67.1,p
80.93,4712,-16.454,3.01,690977,2111,76726,67.39,p
81.22,4704,-16.491,3.02,691273,2112,76766,67.21,p
81.68,4705,-16.527,3.04,691693,2113,76805,67.38,p
81.85,4694,-16.527,3.045,691885,2114,76845,67.1,p
82.11,4713,-16.527,3.049,692168,2115,76884,67.11,p
82.51,4711,-16.6,3.053,692528,2116,76924,67.29,p
82.74,4701,-16.6,3.053,692785,2117,76963,67.11,p
83.15,4707,-16.636,3.055,693142,2118,77003,67.36,p
83.34,4716,-16.636,3.056,693409,2119,77042,67.36,p
83.74,4710,-16.672,3.056,693734,2120,77082,67.38,p
83.99,4710,-16.708,3.057,694076,2121,77121,67.31,p
84.32,4708,-16.708,3.067,694369,2122,77161,67.22,p
84.58,4702,-16.744,3.08,694594,2123,77200,67.42,p
84.86,4710,-16.779,3.087,694917,2124,77240,67.07,p
85.15,4683,-16.779,3.091,695207,2125,77279,67.34,p
85.5,4709,-16.816,3.092,695476,2126,77319,67.6,p
85.73,4695,-16.853,3.093,695775,2127,77358,67.34,p
86.1,4682,-16.889,3.093,696137,2128,77398,67.78,p
86.4,4710,-16.889,3.094,696392,2129,77437,67.71,p
86.67,4705,-16.926,3.094,696717,2130,77477,67.76,p
86.96,4710,-16.962,3.095,696996,2131,77516,67.59,p
87.34,4704,-16.962,3.096,697406,2132,77556,67.36,p
87.6,4688,-16.998,3.096,697663,2133,77595,67.7,p
87.88,4710,-17.034,3.097,697905,2134,77635,67.41,p
88.09,4700,-17.034,3.097,698199,2135,77675,67.38,p
88.6,4698,-17.07,3.098,698606,2136,77714,67.44,p
88.85,4709,-17.107,3.099,698876,2137,77754,67.49,p
89.12,4697,-17.107,3.1,699183,2138,77793,67.53,p
89.4,4710,-17.143,3.1,699489,2139,77833,67.58,p
89.69,4713,-17.179,3.101,699754,2140,77872,67.34,p
89.95,4700,-17.179,3.102,700025,2141,77912,67.29,p
90.27,4708,-17.215,3.103,700297,2142,77951,67.67,p
90.59,4705,-17.237,3.104,700622,2143,77991,67.38,p
90.79,4715,-17.237,3.106,700883,2144,78030,67.72,p
91.16,4709,-17.274,3.108,701226,2145,78070,67.64,p
91.42,4692,-17.31,3.109,701476,2146,78109,67.49,p
91.76,4708,-17.346,3.151,701834,2147,78149,67.56,p
92.07,4700,-17.368,3.179,702086,2148,78188,67.44,p
92.32,4712,-17.368,3.199,702380,2149,78228,67.23,p
92.69,4701,-17.405,3.208,702743,2150,78267,67.36,p
93.0,4705,-17.442,3.211,703034,2151,78307,67.38,p
93.27,4706,-17.479,3.212,703335,2152,78346,67.47,p
93.7,4707,-17.479,3.212,703732,2153,78386,67.64,p
93.97,4708,-17.515,3.213,704004,2154,78425,67.29,p
94.27,4708,-17.551,3.213,704294,2155,78465,67.5,p
94.53,4715,-17.551,3.214,704602,2156,78504,67.36,p
94.75,4709,-17.587,3.214,704825,2157,78544,67.12,p
95.03,4710,-17.587,3.215,705082,2158,78583,67.55,p
95.39,4701,-17.623,3.216,705398,2159,78623,67.64,p
95.62,4702,-17.66,3.216,705704,2160,78662,67.43,p
96.05,4710,-17.697,3.217,706097,2161,78702,67.47,p
96.36,4703,-17.733,3.218,706373,2162,78741,67.59,p
96.56,4705,-17.733,3.219,706663,2163,78781,67.7,p
96.92,4711,-17.769,3.22,707040,2164,78820,67.81,p
97.26,4705,-17.769,3.22,707275,2165,78860,67.83,p
97.51,4707,-17.805,3.221,707576,2166,78899,67.55,p
97.77,4690,-17.842,3.223,707845,2167,78939,67.65,p
98.09,4708,-17.842,3.223,708130,2168,78979,67.45,p
98.42,4713,-17.878,3.226,708496,2169,79018,67.54,p
98.68,4708,-17.915,3.227,708754,2170,79058,67.56,p
98.98,4702,-17.915,3.257,709011,2171,79097,67.6,p
99.28,4701,-17.952,3.296,709338,2172,79137,67.29,p
99.6,4709,-17.974,3.309,709617,2173,79176,67.54,p
99.86,4709,-18.011,3.319,709891,2174,79216,67.55,p
100.23,4683,-18.047,3.324,710303,2175,79255,67.14,p
100.55,4711,-18.047,3.325,710566,2176,79295,67.53,p
100.75,4702,-18.083,3.325,710826,2177,79334,67.47,p
101.04,4713,-18.083,3.326,711111,2178,79374,67.32,p
101.37,4710,-18.119,3.327,711466,2179,79413,67.47,p
101.68,4685,-18.156,3.327,711714,2180,79453,67.27,p
101.92,4696,-18.156,3.328,711991,2181,79492,67.39,p
102.27,4704,-18.192,3.328,712334,2182,79532,67.43,p
102.52,4712,-18.228,3.329,712594,2183,79571,67.25,p
102.85,4711,-18.228,3.329,712927,2184,79611,67.2,p
103.19,4692,-18.264,3.331,713206,2185,79650,67.5,p
103.53,4699,-18.3,3.331,713596,2186,79690,67.43,p
103.78,4711,-18.336,3.332,713827,2187,79729,67.47,p
104.08,4697,-18.336,3.333,714127,2188,79769,67.37,p
104.36,4697,-18.373,3.334,714397,2189,79808,67.44,p
104.69,4704,-18.41,3.335,714715,2190,79848,67.53,p
105.08,4693,-18.41,3.336,715089,2191,79887,67.47,p
105.37,4696,-18.447,3.338,715379,2192,79927,67.28,p
105.57,4690,-18.483,3.339,715637,2193,79966,67.47,p
105.9,4710,-18.483,3.34,715970,2194,80006,67.37,p
106.12,4707,-18.52,3.342,716204,2195,80045,67.39,p
106.49,4699,-18.556,3.344,716595,2196,80085,67.49,p
106.84,4710,-18.592,3.347,716868,2197,80124,67.09,p
107.07,4705,-18.592,3.349,717172,2198,80164,67.41,p
107.36,4711,-18.628,3.351,717445,2199,80203,67.34,p
107.74,4708,-18.628,3.353,717817,2200,80243,67.14,p
108.05,4700,-18.664,3.358,718057,2201,80282,67.37,p
108.31,4708,-18.7,3.359,718383,2202,80322,67.32,p
108.63,4711,-18.7,3.362,718691,2203,80362,67.26,p
108.88,4709,-18.736,3.365,718942,2204,80401,67.16,p
109.24,4707,-18.772,3.37,719223,2205,80441,67.39,p
109.51,4703,-18.794,3.374,719621,2206,80480,67.44,p
109.78,4709,-18.794,3.375,719838,2207,80520,67.47,p
110.2,4709,-18.83,3.381,720199,2208,80559,67.29,p
110.44,4705,-18.867,3.384,720515,2209,80599,67.18,p
110.73,4713,-18.903,3.389,720787,2210,80638,67.52,p
110.95,4694,-18.903,3.393,721007,2211,80678,67.38,p
111.43,4691,-18.94,3.399,721427,2212,80717,67.16,p
111.55,4707,-18.977,3.4,721603,2213,80757,67.17,p
111.99,4706,-18.977,3.407,722007,2214,80796,67.26,p
112.23,4707,-19.013,3.409,722255,2215,80836,67.48,p
112.46,4703,-19.049,3.414,722523,2216,80875,67.53,p
112.79,4700,-19.049,3.42,722837,2217,80915,67.44,p
113.11,4714,-19.085,3.424,723205,2218,80954,67.39,p
113.43,4705,-19.122,3.428,723468,2219,80994,67.47,p
113.76,4699,-19.143,3.433,723764,2220,81033,67.22,p
114.02,4712,-19.143,3.437,724092,2221,81073,67.21,p
114.23,4704,-19.179,3.437,724323,2222,81112,67.44,p
114.72,4698,-19.215,3.449,724811,2223,81152,67.43,p
114.91,4697,-19.237,3.45,724907,2224,81191,67.29,p
115.2,4709,-19.273,3.455,725275,2225,81231,67.49,p
115.49,4710,-19.295,3.459,725547,2226,81270,67.45,p
115.81,4695,-19.295,3.464,725829,2227,81310,67.47,p
116.07,4697,-19.331,3.469,726151,2228,81349,67.26,p
116.49,4711,-19.368,3.475,726487,2229,81389,67.47,p
116.75,4697,-19.389,3.48,726799,2230,81428,67.61,p
116.99,4694,-19.389,3.483,727054,2231,81468,67.21,p
117.36,4712,-19.426,3.49,727408,2232,81507,67.22,p
117.64,4698,-19.464,3.492,727679,2233,81547,67.29,p
117.87,4710,-19.464,3.496,727965,2234,81587,67.12,p
118.17,4700,-19.5,3.501,728217,2235,81626,67.2,p
118.49,4710,-19.536,3.507,728578,2236,81666,67.37,p
118.72,4690,-19.536,3.511,728816,2237,81705,67.16,p
119.14,4699,-19.573,3.517,729165,2238,81745,67.17,p
119.36,4707,-19.609,3.52,729477,2239,81784,67.49,p
119.78,4700,-19.646,3.527,729827,2240,81824,67.25,p
120.01,4712,-19.646,3.529,730069,2241,81863,67.23,p
120.24,4702,-19.683,3.533,730308,2242,81903,67.28,p
120.72,4685,-19.719,3.541,730734,2243,81942,67.2,p
120.96,4974,-19.719,3.545,730967,2244,81973,67.06,p
121.21,4975,-19.756,3.55,731239,2245,81973,66.19,i
121.52,4978,-19.762,3.554,731537,2246,81973,63.82,i
121.78,4975,-19.762,3.557,731885,2247,81973,61.61,i
122.1,4976,-19.764,3.565,732145,2248,81973,59.85,i
122.35,4978,-19.764,3.566,732425,2249,81973,58.51,i
122.72,4978,-19.767,3.574,732751,2250,81973,55.87,i
123.0,4979,-19.77,3.578,733030,2251,81973,54.07,i
123.38,4975,-19.774,3.583,733400,2252,81973,52.22,i
123.59,4975,-19.774,3.587,733626,2253,81973,50.58,i
124.0,4977,-19.777,3.595,734027,2254,81973,48.98,i
124.25,4977,-19.781,3.598,734294,2255,81973,47.69,i
124.6,4979,-19.781,3.604,734655,2256,81973,46.24,i
124.84,4977,-19.784,3.607,734907,2257,81973,44.97,i
125.1,4978,-19.784,3.611,735144,2258,81973,43.82,i
125.59,4976,-19.789,3.618,735577,2259,81973,42.53,i
125.72,4979,-19.789,3.62,735767,2260,81973,41.48,i
125.91,4978,-19.792,3.624,736020,2261,81973,40.46,i
126.28,4979,-19.794,3.629,736361,2262,81973,39.46,i
126.59,4980,-19.794,3.633,736644,2263,81973,38.38,i
126.84,4978,-19.797,3.638,736918,2264,81973,37.46,i
127.19,4978,-19.801,3.643,737258,2265,81973,36.51,i
127.59,4979,-19.804,3.648,737635,2266,81973,35.41,i
127.87,4977,-19.804,3.653,737828,2267,81973,34.53,i
128.08,4980,-19.807,3.655,738147,2268,81973,33.7,i
128.38,4977,-19.808,3.659,738447,2269,81973,33.03,i
128.73,4976,-19.812,3.664,738808,2270,81973,32.22,i
129.08,4978,-19.812,3.671,739089,2271,81973,31.43,i
129.26,4980,-19.815,3.674,739347,2272,81973,30.65,i
129.69,4980,-19.818,3.679,739725,2273,81973,30.11,i
129.96,4978,-19.82,3.681,740008,2274,81973,29.29,i
130.23,4979,-19.82,3.685,740265,2275,81973,28.8,i
130.5,4980,-19.822,3.689,740526,2276,81973,27.98,i
130.81,4979,-19.824,3.692,740896,2277,81973,27.21,i
131.07,4977,-19.824,3.696,741191,2278,81973,27.09,i
131.4,4979,-19.826,3.701,741441,2279,81973,26.21,i
131.77,4980,-19.828,3.705,741832,2280,81973,25.62,i
131.97,4977,-19.828,3.708,742056,2281,81973,25.18,i
132.29,4980,-19.83,3.711,742321,2282,81973,24.62,i
132.67,4980,-19.831,3.714,742674,2283,81973,23.91,i
132.86,4980,-19.833,3.717,742977,2284,81973,23.5,i
133.3,4979,-19.834,3.72,743343,2285,81973,22.8,i
133.54,4979,-19.834,3.723,743593,2286,81973,22.39,i
133.75,4980,-19.835,3.726,743853,2287,81973,21.84,i
134.15,4979,-19.836,3.729,744204,2288,81973,21.53,i
134.44,4980,-19.836,3.733,744484,2289,81973,20.99,i
134.7,4979,-19.838,3.735,744777,2290,81973,20.48,i
134.99,4979,-19.839,3.737,745061,2291,81973,19.91,i
135.29,4978,-19.839,3.74,745395,2292,81973,19.71,i
135.71,4980,-19.84,3.743,745766,2293,81973,19.19,i
135.96,4980,-19.84,3.745,746017,2294,81973,18.76,i
136.23,4977,-19.841,3.748,746259,2295,81973,18.54,i
136.46,4979,-19.841,3.749,746543,2296,81973,18.18,i
136.82,4979,-19.842,3.752,746836,2297,81973,17.7,i
137.06,4981,-19.843,3.755,747135,2298,81973,17.41,i
137.44,4980,-19.843,3.757,747496,2299,81973,17.07,i
137.74,4980,-19.843,3.759,747803,2300,81973,16.75,i
138.05,4979,-19.844,3.76,748095,2301,81973,16.42,i
138.29,4981,-19.845,3.762,748362,2302,81973,16.08,i
138.68,4981,-19.846,3.765,748745,2303,81973,15.65,i
138.95,4980,-19.846,3.766,748994,2304,81973,15.5,i
139.18,4980,-19.846,3.768,749300,2305,81973,15.22,i
139.61,4980,-19.847,3.77,749596,2306,81973,14.95,i
139.82,4979,-19.847,3.771,749876,2307,81973,14.73,i
140.3,4981,-19.848,3.774,750286,2308,81973,14.53,i
140.35,4982,-19.848,3.775,750463,2309,81973,14.31,i
140.78,4981,-19.849,3.777,750866,2310,81973,14.0,i
141.04,4981,-19.849,3.778,751098,2311,81973,13.7,i
141.36,4979,-19.85,3.78,751379,2312,81973,13.35,i
141.63,4981,-19.85,3.78,751684,2313,81973,13.23,i
141.89,4980,-19.85,3.782,751978,2314,81973,12.99,i
142.3,4982,-19.851,3.784,752335,2315,81973,12.82,i
142.55,4982,-19.851,3.785,752568,2316,81973,12.69,i
142.81,4981,-19.851,3.786,752884,2317,81973,12.41,i
143.1,4982,-19.852,3.787,753137,2318,81973,12.18,i
143.58,4978,-19.852,3.79,753593,2319,81973,11.97,i
143.75,4982,-19.852,3.79,753760,2320,81973,11.82,i
144.04,4980,-19.853,3.792,754066,2321,81973,11.56,i
144.32,4979,-19.853,3.793,754366,2322,81973,11.42,i
144.7,4979,-19.853,3.794,754769,2323,81973,11.31,i
144.89,4981,-19.854,3.794,754975,2324,81973,11.15,i
145.32,4981,-19.854,3.796,755346,2325,81973,10.89,i
145.54,4983,-19.854,3.797,755666,2326,81973,10.68,i
145.86,4980,-19.855,3.797,755935,2327,81973,10.72,i
146.09,4982,-19.855,3.798,756165,2328,81973,10.6,i
146.5,4978,-19.855,3.8,756572,2329,81973,10.34,i
146.78,4982,-19.855,3.801,756846,2330,81973,10.21,i
147.01,4980,-19.856,3.802,757059,2331,81973,10.05,i
147.4,4981,-19.856,3.802,757428,2332,81973,9.96,i
147.64,4981,-19.856,3.804,757727,2333,81973,9.71,i
148.05,4983,-19.856,3.805,758066,2334,81973,9.57,i
148.29,4980,-19.856,3.805,758364,2335,81973,9.47,i
148.49,4981,-19.857,3.806,758564,2336,81973,9.51,i
148.79,4981,-19.857,3.807,758841,2337,81973,9.24,i
149.23,4981,-19.857,3.808,759291,2338,81973,9.13,i
149.6,4979,-19.858,3.809,759596,2339,81973,8.96,i
149.75,4980,-19.858,3.81,759765,2340,81973,8.89,i
150.16,4979,-19.858,3.811,760185,2341,81973,8.76,i
150.3,4984,-19.858,3.811,760346,2342,81973,8.81,i
150.65,4981,-19.858,3.812,760737,2343,81973,8.73,i
150.91,4982,-19.858,3.812,760969,2344,81973,8.69,i
151.38,4982,-19.858,3.814,761436,2345,81973,8.46,i
151.5,4982,-19.859,3.814,761575,2346,81973,8.32,i
151.9,4983,-19.859,3.815,761948,2347,81973,8.2,i
152.12,4982,-19.859,3.815,762188,2348,81973,8.24,i
152.5,4981,-19.859,3.816,762562,2349,81973,8.1,i
152.77,4982,-19.86,3.817,762806,2350,81973,7.99,i
153.14,4981,-19.86,3.818,763156,2351,81973,8.01,i
153.42,4979,-19.86,3.818,763427,2352,81973,7.74,i
153.68,4982,-19.86,3.818,763756,2353,81973,7.77,i
153.93,4982,-19.86,3.819,764055,2354,81973,7.75,i
154.26,4981,-19.86,3.819,764318,2355,81973,7.7,i
154.49,4982,-19.861,3.82,764575,2356,81973,7.57,i
154.84,4981,-19.861,3.82,764966,2357,81973,7.53,i
155.09,4983,-19.861,3.821,765172,2358,81973,7.42,i
155.43,4981,-19.861,3.822,765447,2359,81973,7.25,i
155.72,4984,-19.861,3.822,765758,2360,81973,7.2,i
156.13,4983,-19.861,3.823,766147,2361,81973,7.2,i
156.35,4982,-19.861,3.823,766367,2362,81973,7.3,i
156.62,4983,-19.862,3.824,766727,2363,81973,7.13,i
156.89,4983,-19.862,3.824,766957,2364,81973,7.07,i
157.27,4982,-19.862,3.825,767288,2365,81973,6.93,i
157.59,4982,-19.862,3.825,767645,2366,81973,6.8,i
157.88,4983,-19.862,3.826,767879,2367,81973,6.66,i
158.18,4982,-19.862,3.826,768239,2368,81973,6.59,i
158.39,4980,-19.862,3.827,768473,2369,81973,6.75,i
158.71,4982,-19.863,3.827,768762,2370,81973,6.55,i
159.11,4982,-19.863,3.828,769186,2371,81973,6.49,i
159.38,4979,-19.863,3.828,769432,2372,81973,6.32,i
159.59,4982,-19.863,3.828,769676,2373,81973,6.49,i
159.96,4981,-19.863,3.829,769980,2374,81973,6.31,i
160.28,4982,-19.863,3.83,770275,2375,81973,6.36,i
160.55,4982,-19.863,3.83,770637,2376,81973,6.34,i
160.85,4983,-19.863,3.83,770898,2377,81973,6.04,i
161.16,4982,-19.863,3.831,771205,2378,81973,6.16,i
161.36,4984,-19.864,3.831,771464,2379,81973,6.12,i
161.74,4984,-19.864,3.832,771788,2380,81973,6.0,i
161.98,4981,-19.864,3.832,772063,2381,81973,6.04,i
162.42,4984,-19.864,3.833,772414,2382,81973,5.99,i
162.62,4982,-19.864,3.833,772688,2383,81973,5.82,i
162.86,4981,-19.864,3.833,772958,2384,81973,5.86,i
163.21,4983,-19.864,3.834,773257,2385,81973,5.82,i
163.61,4984,-19.864,3.834,773651,2386,81973,5.75,i
163.87,4983,-19.864,3.834,773928,2387,81973,5.79,i
164.15,4982,-19.864,3.835,774198,2388,81973,5.73,i
164.47,4982,-19.864,3.835,774545,2389,81973,5.5,i
164.73,4983,-19.865,3.836,774825,2390,81973,5.59,i
165.06,4981,-19.865,3.836,775082,2391,81973,5.44,i
165.43,4981,-19.865,3.836,775438,2392,81973,5.5,i
165.62,4982,-19.865,3.837,775693,2393,81973,5.39,i
165.89,4981,-19.865,3.837,776001,2394,81973,5.31,i
166.22,4984,-19.865,3.837,776312,2395,81973,5.27,i
166.62,4984,-19.865,3.837,776654,2396,81973,5.22,i
166.95,4982,-19.865,3.838,776978,2397,81973,5.13,i
167.2,4984,-19.865,3.838,777262,2398,81973,5.18,i
167.62,4980,-19.865,3.839,777634,2399,81973,5.12,i
167.8,4982,-19.866,3.839,777792,2400,81973,5.02,i
168.05,4982,-19.866,3.839,778123,2401,81973,5.07,i
168.42,4984,-19.866,3.84,778482,2402,81973,5.13,i
168.64,4983,-19.866,3.84,778729,2403,81973,5.02,i
169.06,4984,-19.866,3.84,779152,2404,81973,5.12,i
169.37,4982,-19.866,3.84,779378,2405,81973,4.9,i
169.61,4982,-19.866,3.841,779688,2406,81973,4.91,i
169.92,4984,-19.866,3.841,779975,2407,81973,4.8,i
170.18,4984,-19.866,3.841,780244,2408,81973,4.78,i
170.45,4985,-19.866,3.841,780519,2409,81973,4.83,i
170.91,4985,-19.866,3.842,780947,2410,81973,4.85,i
171.08,4984,-19.866,3.842,781104,2411,81973,4.77,i
171.3,4982,-19.867,3.842,781374,2412,81973,4.85,i
171.69,4983,-19.866,3.843,781746,2413,81973,4.76,i
171.99,4983,-19.866,3.843,782006,2414,81973,4.8,i
172.28,4982,-19.867,3.843,782330,2415,81973,4.79,i
172.57,4982,-19.867,3.844,782567,2416,81973,4.54,i
172.86,4984,-19.867,3.844,782931,2417,81973,4.65,i
173.28,4982,-19.867,3.844,783335,2418,81973,4.66,i
173.41,4983,-19.867,3.844,783472,2419,81973,4.76,i
173.74,4984,-19.867,3.845,783855,2420,81973,4.62,i
174.02,4985,-19.867,3.845,784078,2421,81973,4.5,i
174.41,4984,-19.867,3.845,784426,2422,81973,4.5,i
174.66,4983,-19.867,3.845,784740,2423,81973,4.46,i
174.92,4983,-19.867,3.845,785023,2424,81973,4.44,i
175.32,4983,-19.867,3.845,785348,2425,81973,4.36,i
175.53,4984,-19.868,3.845,785600,2426,81973,4.33,i
175.9,4983,-19.868,3.846,785908,2427,81973,4.41,i
176.18,4982,-19.867,3.846,786204,2428,81973,4.33,i
176.41,4983,-19.868,3.846,786496,2429,81973,4.35,i
176.73,4981,-19.868,3.847,786793,2430,81973,4.34,i
177.04,4980,-19.868,3.847,787111,2431,81973,4.25,i
177.4,4982,-19.868,3.847,787453,2432,81973,4.1,i
177.82,4982,-19.868,3.847,787780,2433,81973,3.99,i
177.86,4983,-19.868,3.847,787981,2434,81973,4.19,i
178.32,4984,-19.868,3.848,788368,2435,81973,4.17,i
178.66,4984,-19.868,3.848,788649,2436,81973,4.1,i
178.96,4984,-19.868,3.848,788982,2437,81973,4.21,i
179.22,4984,-19.868,3.848,789244,2438,81973,4.03,i
179.43,4985,-19.868,3.849,789544,2439,81973,3.94,i
179.68,4982,-19.868,3.849,789780,2440,81973,3.99,i
180.1,4984,-19.868,3.849,790171,2441,81973,3.97,i
180.39,4983,-19.868,3.849,790428,2442,81973,4.25,i
180.71,4982,-19.868,3.85,790796,2443,81973,4.18,i
180.97,4984,-19.869,3.85,791026,2444,81973,3.92,i
181.3,4982,-19.869,3.85,791290,2445,81973,3.99,i
181.62,4982,-19.869,3.851,791695,2446,81973,3.91,i
181.85,4984,-19.869,3.851,791936,2447,81973,3.9,i
182.23,4984,-19.869,3.851,792306,2448,81973,3.85,i
182.49,4984,-19.869,3.851,792537,2449,81973,3.83,i
182.72,4984,-19.869,3.851,792796,2450,81973,3.74,i
183.1,4984,-19.869,3.851,793168,2451,81973,3.73,i
183.42,4982,-19.869,3.851,793446,2452,81973,3.85,i
183.65,4982,-19.869,3.851,793698,2453,81973,3.85,i
183.95,4984,-19.869,3.851,793984,2454,81973,3.77,i
184.35,4982,-19.869,3.852,794387,2455,81973,3.85,i
184.6,4984,-19.869,3.852,794681,2456,81973,3.67,i
184.81,4983,-19.869,3.852,794933,2457,81973,3.64,i
185.12,4984,-19.869,3.852,795191,2458,81973,3.53,i
185.47,4985,-19.869,3.852,795558,2459,81973,3.64,i
185.76,4983,-19.869,3.852,795804,2460,81973,3.7,i
186.15,4984,-19.87,3.852,796169,2461,81973,3.64,i
186.34,4984,-19.87,3.852,796440,2462,81973,3.62,i
186.65,4983,-19.87,3.852,796738,2463,81973,3.66,i
186.99,4983,-19.87,3.852,797079,2464,81973,3.62,i
187.22,4985,-19.87,3.853,797288,2465,81973,3.58,i
187.5,4981,-19.87,3.853,797617,2466,81973,3.55,i
187.93,4983,-19.87,3.853,797984,2467,81973,3.41,i
188.18,4984,-19.87,3.854,798227,2468,81973,3.56,i
188.49,4981,-19.87,3.854,798508,2469,81973,3.53,i
188.71,4984,-19.87,3.854,798803,2470,81973,3.55,i
189.14,4984,-19.871,3.854,799199,2471,81973,3.61,i
189.33,4983,-19.871,3.854,799417,2472,81973,3.66,i
189.76,4984,-19.871,3.855,799844,2473,81973,3.61,i
189.99,4984,-19.871,3.855,800058,2474,81973,3.52,i
190.23,4985,-19.871,3.855,800307,2475,81973,3.57,i
190.69,4984,-19.871,3.855,800733,2476,81973,3.46,i
190.81,4985,-19.871,3.855,800894,2477,81973,3.61,i
191.27,4983,-19.871,3.856,801326,2478,81973,3.44,i
191.49,4983,-19.871,3.856,801560,2479,81973,3.28,i
191.81,4984,-19.871,3.856,801815,2480,81973,3.48,i
192.1,4983,-19.871,3.856,802153,2481,81973,3.46,i
192.38,4983,-19.871,3.856,802441,2482,81973,3.52,i
192.81,4984,-19.871,3.857,802809,2483,81973,3.39,i
193.06,4985,-19.871,3.857,803146,2484,81973,3.37,i
193.35,4984,-19.871,3.857,803420,2485,81973,3.4,i
193.67,4983,-19.871,3.857,803672,2486,81973,3.45,i
193.98,4984,-19.871,3.857,804082,2487,81973,3.26,i
194.19,4982,-19.871,3.857,804278,2488,81973,3.24,i
194.57,4985,-19.871,3.857,804598,2489,81973,3.28,i
194.81,4984,-19.871,3.857,804835,2490,81973,3.28,i
195.07,4985,-19.871,3.857,805138,2491,81973,3.24,i
195.46,4984,-19.871,3.857,805523,2492,81973,3.36,i
195.76,4984,-19.871,3.857,805794,2493,81973,3.17,i
196.02,4983,-19.872,3.857,806095,2494,81973,3.13,i
196.24,4982,-19.872,3.857,806302,2495,81973,3.34,i
196.59,4984,-19.872,3.857,806659,2496,81973,3.18,i
196.87,4985,-19.872,3.857,806948,2497,81973,3.18,i
197.17,4983,-19.872,3.857,807226,2498,81973,3.18,i
197.46,4984,-19.872,3.857,807507,2499,81973,3.04,i
197.77,4983,-19.872,3.858,807812,2500,81973,3.31,i
198.15,4982,-19.872,3.858,808194,2501,81973,3.12,i
198.35,4985,-19.872,3.858,808448,2502,81973,3.07,i
198.74,4982,-19.872,3.858,808789,2503,81973,3.13,i
199.02,4983,-19.872,3.858,809095,2504,81973,3.19,i
199.35,4984,-19.872,3.858,809327,2505,81973,3.18,i
199.63,4984,-19.872,3.858,809682,2506,81973,3.06,i
199.88,4984,-19.872,3.859,809949,2507,81973,3.12,i
200.3,4983,-19.872,3.859,810330,2508,81973,3.1,i
200.65,4983,-19.872,3.859,810692,2509,81973,3.14,i
200.77,4984,-19.872,3.859,810815,2510,81973,3.01,i
201.12,4985,-19.873,3.859,811211,2511,81973,3.24,i
201.52,4983,-19.873,3.86,811594,2512,81973,3.08,i
201.73,4985,-19.873,3.86,811799,2513,81973,3.13,i
202.05,4985,-19.873,3.86,812058,2514,81973,3.12,i
202.41,4983,-19.873,3.861,812445,2515,81973,3.13,i
202.68,4985,-19.873,3.861,812725,2516,81973,3.08,i
202.92,4982,-19.873,3.861,813005,2517,81973,3.03,i
203.22,4984,-19.873,3.861,813257,2518,81973,3.06,i
203.49,4985,-19.873,3.861,813518,2519,81973,2.93,i
203.69,4985,-19.873,3.861,813812,2520,81973,3.02,i
204.11,4985,-19.873,3.861,814165,2521,81973,3.07,i
204.45,4986,-19.873,3.862,814448,2522,81973,2.8,i
204.69,4982,-19.873,3.862,814764,2523,81973,2.91,i
205.11,4984,-19.873,3.862,815107,2524,81973,2.75,i
205.42,4984,-19.873,3.862,815477,2525,81973,2.95,i
205.8,4984,-19.873,3.862,815803,2526,81973,2.93,i
205.93,4982,-19.873,3.862,815992,2527,81973,2.59,i
206.15,4984,-19.873,3.862,816238,2528,81973,2.92,i
206.61,4984,-19.873,3.863,816601,2529,81973,2.71,i
206.82,4983,-19.874,3.863,816865,2530,81973,2.73,i
207.06,4982,-19.873,3.863,817120,2531,81973,2.84,i
207.36,4986,-19.874,3.863,817434,2532,81973,2.75,i
207.74,4985,-19.874,3.863,817836,2533,81973,2.82,i
208.02,4985,-19.874,3.863,818106,2534,81973,2.8,i
208.36,4984,-19.874,3.863,818393,2535,81973,2.86,i
208.65,4984,-19.874,3.863,818650,2536,81973,2.68,i
208.92,4985,-19.874,3.863,818965,2537,81973,2.88,i
209.15,4984,-19.874,3.863,819229,2538,81973,2.77,i
209.44,4985,-19.874,3.863,819545,2539,81973,2.76,i
209.84,4984,-19.874,3.863,819928,2540,81973,2.82,i
210.19,4981,-19.874,3.863,820207,2541,81973,2.81,i
210.37,4984,-19.874,3.863,820483,2542,81973,2.75,i
210.84,4985,-19.874,3.863,820866,2543,81973,2.66,i
211.0,4983,-19.874,3.863,821017,2544,81973,2.76,i
211.38,4985,-19.875,3.863,821436,2545,81973,2.82,i
211.61,4986,-19.875,3.863,821679,2546,81973,2.74,i
211.92,4985,-19.875,3.863,821958,2547,81973,2.79,i
212.24,4984,-19.875,3.863,822290,2548,81973,2.86,i
212.58,4981,-19.875,3.863,822565,2549,81973,2.8,i
212.82,4985,-19.875,3.863,822908,2550,81973,2.8,i
213.13,4985,-19.875,3.863,823157,2551,81973,2.8,i
213.41,4984,-19.875,3.863,823465,2552,81973,2.74,i
213.7,4984,-19.875,3.863,823766,2553,81973,2.84,i
214.07,4984,-19.875,3.863,824124,2554,81973,2.7,i
214.36,4984,-19.875,3.863,824407,2555,81973,2.68,i
214.65,4984,-19.875,3.863,824668,2556,81973,2.66,i
214.88,4983,-19.875,3.863,824955,2557,81973,2.91,i
215.21,4984,-19.875,3.863,825283,2558,81973,2.6,i
215.54,4984,-19.875,3.863,825594,2559,81973,2.82,i
215.82,4985,-19.875,3.864,825869,2560,81973,2.65,i
216.1,4983,-19.875,3.864,826133,2561,81973,2.74,i
216.46,4984,-19.875,3.864,826537,2562,81973,2.77,i
216.72,4984,-19.875,3.864,826776,2563,81973,2.66,i
216.99,4985,-19.875,3.864,827057,2564,81973,2.58,i
217.29,4984,-19.875,3.865,827334,2565,81973,2.66,i
217.64,4984,-19.875,3.865,827704,2566,81973,2.63,i
217.89,4985,-19.875,3.865,827929,2567,81973,2.7,i
218.19,4984,-19.875,3.865,828283,2568,81973,2.66,i
218.46,4984,-19.875,3.866,828530,2569,81973,2.55,i
218.82,4983,-19.875,3.866,828847,2570,81973,2.7,i
219.09,4986,-19.875,3.866,829128,2571,81973,2.41,i
219.36,4985,-19.875,3.866,829457,2572,81973,2.75,i
219.69,4985,-19.876,3.866,829786,2573,81973,2.59,i
220.08,4984,-19.876,3.866,830128,2574,81973,2.62,i
220.27,4986,-19.876,3.866,830362,2575,81973,2.68,i
220.58,4983,-19.876,3.867,830660,2576,81973,2.63,i
220.98,4985,-19.876,3.867,831017,2577,81973,2.55,i
221.21,4985,-19.876,3.867,831298,2578,81973,2.55,i
221.5,4985,-19.876,3.867,831542,2579,81973,2.38,i
221.76,4986,-19.876,3.867,831839,2580,81973,2.42,i
222.23,4984,-19.876,3.867,832293,2581,81973,2.76,i
222.54,4985,-19.876,3.867,832582,2582,81973,2.55,i
222.77,4986,-19.876,3.867,832832,2583,81973,2.48,i
223.01,4986,-19.876,3.867,833116,2584,81973,2.63,i
223.33,4985,-19.877,3.868,833336,2585,81973,2.58,i
223.65,4987,-19.877,3.868,833649,2586,81973,2.64,i
223.86,4985,-19.877,3.868,833936,2587,81973,2.64,i
224.29,4983,-19.877,3.868,834350,2588,81973,2.57,i
224.59,4985,-19.877,3.868,834645,2589,81973,2.49,i
224.83,4986,-19.877,3.868,834868,2590,81973,2.48,i
225.17,4984,-19.877,3.868,835178,2591,81973,2.57,i
225.49,4986,-19.877,3.868,835536,2592,81973,2.55,i
225.69,4985,-19.877,3.868,835758,2593,81973,2.48,i
226.16,4983,-19.877,3.868,836236,2594,81973,2.62,i
226.35,4985,-19.877,3.868,836344,2595,81973,2.42,i
226.63,4986,-19.877,3.868,836697,2596,81973,2.49,i
227.0,4984,-19.877,3.868,837031,2597,81973,2.52,i
227.26,4985,-19.877,3.868,837337,2598,81973,2.58,i
227.6,4986,-19.877,3.868,837578,2599,81973,2.49,i
227.92,4984,-19.877,3.868,837961,2600,81973,2.26,i
228.15,4984,-19.877,3.868,838198,2601,81973,2.29,i
228.39,4984,-19.877,3.868,838464,2602,81973,2.21,i
228.78,4985,-19.877,3.868,838866,2603,81973,2.47,i
228.98,4987,-19.877,3.868,839066,2604,81973,2.49,i
229.33,4986,-19.877,3.868,839436,2605,81973,2.32,i
229.67,4985,-19.877,3.868,839723,2606,81973,2.49,i
229.87,4986,-19.877,3.868,839982,2607,81973,2.49,i
230.3,4984,-19.878,3.868,840348,2608,81973,2.44,i
230.54,4985,-19.877,3.868,840617,2609,81973,2.55,i
230.81,4984,-19.878,3.868,840873,2610,81973,2.29,i
231.12,4985,-19.878,3.868,841179,2611,81973,2.43,i
231.36,4984,-19.878,3.868,841454,2612,81973,2.57,i
231.76,4986,-19.878,3.868,841789,2613,81973,2.4,i
231.99,4984,-19.878,3.868,842058,2614,81973,2.49,i
232.42,4986,-19.878,3.868,842450,2615,81973,2.36,i
232.69,4982,-19.878,3.868,842710,2616,81973,2.4,i
232.9,4985,-19.878,3.868,842945,2617,81973,2.31,i
233.28,4983,-19.878,3.868,843355,2618,81973,2.46,i
233.51,4984,-19.878,3.868,843550,2619,81973,2.52,i
233.88,4985,-19.878,3.868,843950,2620,81973,2.41,i
234.14,4984,-19.878,3.868,844177,2621,81973,2.41,i
234.36,4986,-19.878,3.868,844457,2622,81973,2.35,i
234.68,4985,-19.878,3.868,844772,2623,81973,2.57,i
235.05,4986,-19.878,3.868,845139,2624,81973,2.31,i
235.33,4986,-19.878,3.868,845397,2625,81973,2.41,i
235.7,4984,-19.878,3.868,845756,2626,81973,2.42,i
235.94,4985,-19.878,3.868,845996,2627,81973,2.47,i
236.22,4982,-19.878,3.868,846288,2628,81973,2.38,i
236.53,4984,-19.878,3.868,846618,2629,81973,2.35,i
236.75,4984,-19.878,3.868,846869,2630,81973,2.29,i
237.13,4985,-19.878,3.868,847170,2631,81973,2.38,i
237.34,4984,-19.878,3.868,847454,2632,81973,2.32,i
237.77,4985,-19.878,3.868,847836,2633,81973,2.36,i
238.04,4987,-19.878,3.868,848081,2634,81973,2.26,i
238.41,4984,-19.878,3.868,848433,2635,81973,2.32,i
238.73,4987,-19.878,3.869,848797,2636,81973,2.48,i
238.99,4984,-19.878,3.869,849063,2637,81973,2.36,i
239.3,4985,-19.878,3.869,849318,2638,81973,2.51,i
239.49,4984,-19.878,3.869,849579,2639,81973,2.33,i
239.9,4986,-19.878,3.87,849939,2640,81973,2.41,i
240.13,4986,-19.878,3.87,850233,2641,81973,2.44,i
240.45,4987,-19.878,3.87,850477,2642,81973,2.31,i
240.71,4985,-19.878,3.87,850770,2643,81973,2.35,i
241.15,4987,-19.878,3.871,851227,2644,81973,2.35,i
241.44,4987,-19.878,3.871,851496,2645,81973,2.48,i
241.71,4986,-19.878,3.871,851745,2646,81973,2.59,i
241.87,4983,-19.878,3.871,852019,2647,81973,2.35,i
