time,adc,distance,mass,millis,samples,steps,force,state
0.0,5009,-19.823,3.816,3477453,11106,64494,2.77,i
0.05,5006,-19.823,3.816,3477576,11107,64534,3.2,p
0.41,4993,-19.823,3.816,3477932,11108,64573,4.62,p
0.9,4989,-19.886,3.817,3478415,11109,64613,6.08,p
1.12,4965,-19.886,3.817,3478567,11110,64652,7.24,p
1.45,4966,-19.919,3.817,3478769,11111,64692,8.41,p
1.63,4951,-19.919,3.817,3479065,11112,64731,8.61,p
2.09,4940,-19.937,3.817,3479446,11113,64771,9.17,p
2.41,4937,-19.965,3.817,3479795,11114,64811,10.67,p
2.55,4935,-19.965,3.817,3480056,11115,64850,11.94,p
2.78,4922,-19.998,3.817,3480267,11116,64890,12.93,p
3.11,4888,-19.998,3.817,3480616,11117,64929,14.35,p
3.4,4904,-20.032,3.817,3480876,11118,64969,16.1,p
3.67,4880,-20.066,3.817,3481192,11119,65008,17.2,p
4.08,4857,-20.101,3.817,3481614,11120,65048,18.21,p
4.46,4861,-20.135,3.817,3481926,11121,65087,19.77,p
4.57,4820,-20.135,3.817,3482074,11122,65127,20.78,p
4.99,4839,-20.169,3.817,3482485,11123,65166,21.62,p
5.25,4817,-20.169,3.817,3482744,11124,65206,23.17,p
5.55,4782,-20.203,3.817,3483029,11125,65245,23.81,p
5.79,4783,-20.238,3.817,3483340,11126,65285,24.68,p
6.16,4769,-20.238,3.817,3483635,11127,65325,25.95,p
6.51,4715,-20.272,3.817,3483953,11128,65364,27.16,p
6.76,4735,-20.305,3.817,3484288,11129,65404,28.21,p
7.09,4742,-20.305,3.818,3484546,11130,65443,29.24,p
7.28,4742,-20.339,3.818,3484774,11131,65483,29.84,p
7.66,4740,-20.374,3.818,3485154,11132,65522,30.87,p
7.91,4730,-20.374,3.819,3485443,11133,65562,31.7,p
8.27,4741,-20.408,3.819,3485710,11134,65601,32.74,p
8.55,4737,-20.443,3.819,3486004,11135,65641,33.7,p
8.79,4740,-20.443,3.82,3486338,11136,65680,34.58,p
9.27,4740,-20.477,3.821,3486766,11137,65720,34.69,p
9.42,4716,-20.511,3.821,3486887,11138,65759,35.95,p
9.67,4722,-20.511,3.821,3487193,11139,65799,36.6,p
10.11,4737,-20.546,3.823,3487594,11140,65839,37.02,p
10.37,4712,-20.581,3.824,3487876,11141,65878,37.74,p
10.65,4727,-20.616,3.825,3488129,11142,65918,38.62,p
10.86,4716,-20.616,3.825,3488420,11143,65957,39.36,p
11.32,4735,-20.651,3.826,3488840,11144,65997,39.59,p
11.66,4737,-20.686,3.829,3489146,11145,66036,40.54,p
11.81,4732,-20.686,3.829,3489297,11146,66076,40.82,p
12.15,4737,-20.721,3.831,3489636,11147,66115,41.73,p
12.43,4726,-20.755,3.832,3489915,11148,66155,42.1,p
12.73,4739,-20.776,3.833,3490255,11149,66194,42.81,p
13.06,4726,-20.776,3.835,3490516,11150,66234,43.31,p
13.3,4711,-20.81,3.836,3490859,11151,66273,43.95,p
13.62,4737,-20.81,3.837,3491154,11152,66313,44.13,p
13.96,4734,-20.845,3.841,3491440,11153,66352,44.68,p
14.28,4713,-20.879,3.842,3491725,11154,66392,45.22,p
14.52,4722,-20.914,3.843,3492006,11155,66432,45.8,p
14.92,4734,-20.948,3.846,3492435,11156,66471,46.23,p
15.17,4735,-20.948,3.847,3492685,11157,66511,46.51,p
15.42,4737,-20.982,3.85,3492942,11158,66550,46.72,p
15.73,4708,-20.982,3.851,3493273,11159,66590,47.36,p
15.98,4727,-21.017,3.854,3493516,11160,66629,47.65,p
16.37,4740,-21.052,3.856,3493897,11161,66669,47.89,p
16.63,4737,-21.052,3.859,3494132,11162,66708,48.31,p
16.88,4735,-21.087,3.862,3494414,11163,66748,48.87,p
17.22,4719,-21.123,3.864,3494715,11164,66787,49.13,p
17.53,4736,-21.123,3.866,3495047,11165,66827,49.66,p
17.82,4737,-21.158,3.869,3495315,11166,66866,49.95,p
18.16,4708,-21.193,3.871,3495667,11167,66906,50.43,p
18.37,4734,-21.193,3.873,3495908,11168,66946,50.46,p
18.83,4732,-21.228,3.878,3496356,11169,66985,50.72,p
19.09,4728,-21.263,3.879,3496576,11170,67025,51.1,p
19.43,4727,-21.297,3.884,3496902,11171,67064,51.31,p
19.7,4733,-21.297,3.886,3497234,11172,67104,51.61,p
19.98,4736,-21.332,3.889,3497495,11173,67143,52.03,p
20.31,4736,-21.367,3.891,3497819,11174,67183,52.08,p
20.69,4731,-21.402,3.896,3498124,11175,67222,52.21,p
20.83,4726,-21.402,3.897,3498316,11176,67262,52.27,p
21.16,4729,-21.437,3.9,3498678,11177,67301,52.82,p
21.47,4736,-21.437,3.904,3498945,11178,67341,53.55,p
21.8,4733,-21.472,3.907,3499265,11179,67380,53.66,p
22.13,4732,-21.508,3.911,3499616,11180,67420,53.53,p
22.37,4734,-21.508,3.915,3499917,11181,67459,53.92,p
22.64,4725,-21.543,3.916,3500164,11182,67499,54.1,p
22.96,4730,-21.564,3.92,3500423,11183,67539,54.12,p
23.25,4734,-21.585,3.923,3500739,11184,67578,54.37,p
23.57,4729,-21.621,3.928,3501086,11185,67618,54.72,p
23.9,4732,-21.621,3.931,3501380,11186,67657,54.97,p
24.2,4734,-21.658,3.934,3501675,11187,67697,55.01,p
24.42,4732,-21.693,3.938,3501944,11188,67736,55.16,p
24.79,4736,-21.729,3.941,3502341,11189,67776,55.55,p
25.04,4728,-21.729,3.945,3502546,11190,67815,55.58,p
25.35,4735,-21.764,3.948,3502837,11191,67855,55.9,p
25.58,4734,-21.764,3.952,3503103,11192,67894,56.13,p
26.03,4730,-21.8,3.958,3503514,11193,67934,56.05,p
26.34,4732,-21.836,3.96,3503795,11194,67973,56.22,p
26.63,4732,-21.872,3.963,3504163,11195,68013,56.35,p
26.97,4721,-21.872,3.969,3504456,11196,68053,56.67,p
27.09,4731,-21.908,3.971,3504606,11197,68092,56.46,p
27.42,4706,-21.908,3.974,3504915,11198,68132,56.78,p
27.82,4728,-21.944,3.978,3505293,11199,68171,57.12,p
28.07,4732,-21.98,3.983,3505594,11200,68211,57.49,p
28.39,4708,-22.016,3.986,3505889,11201,68250,57.37,p
28.72,4734,-22.016,3.99,3506203,11202,68290,57.43,p
29.01,4723,-22.051,3.994,3506472,11203,68329,57.83,p
29.33,4729,-22.088,3.997,3506780,11204,68369,57.63,p
29.59,4731,-22.109,4.001,3507113,11205,68408,57.64,p
29.82,4714,-22.109,4.005,3507365,11206,68448,58.14,p
30.13,4720,-22.146,4.008,3507620,11207,68487,58.02,p
30.5,4726,-22.183,4.013,3508013,11208,68527,58.15,p
30.8,4706,-22.183,4.017,3508308,11209,68566,58.48,p
31.12,4734,-22.219,4.022,3508585,11210,68606,58.66,p
31.35,4719,-22.255,4.025,3508877,11211,68646,58.54,p
31.68,4731,-22.255,4.029,3509165,11212,68685,58.86,p
31.89,4726,-22.291,4.033,3509415,11213,68725,59.15,p
32.41,4730,-22.326,4.042,3509868,11214,68764,59.01,p
32.56,4737,-22.326,4.043,3510065,11215,68804,58.57,p
32.86,4728,-22.362,4.046,3510347,11216,68843,59.12,p
33.15,4731,-22.398,4.05,3510714,11217,68883,58.92,p
33.45,4733,-22.434,4.056,3510935,11218,68922,59.41,p
33.77,4716,-22.434,4.06,3511236,11219,68962,59.24,p
34.08,4732,-22.47,4.064,3511591,11220,69001,59.5,p
34.32,4726,-22.47,4.065,3511874,11221,69041,59.48,p
34.66,4721,-22.506,4.072,3512144,11222,69080,59.54,p
34.99,4723,-22.542,4.076,3512437,11223,69120,59.79,p
35.22,4718,-22.564,4.079,3512755,11224,69160,59.53,p
35.54,4734,-22.601,4.083,3513064,11225,69199,59.97,p
35.86,4731,-22.601,4.09,3513340,11226,69239,59.94,p
36.27,4724,-22.638,4.094,3513739,11227,69278,59.84,p
36.46,4724,-22.675,4.095,3513984,11228,69318,59.91,p
36.86,4728,-22.711,4.102,3514392,11229,69357,59.81,p
37.22,4729,-22.711,4.106,3514704,11230,69397,59.96,p
37.36,4729,-22.748,4.11,3514851,11231,69436,60.02,p
37.69,4729,-22.748,4.114,3515252,11232,69476,60.25,p
38.0,4728,-22.784,4.12,3515458,11233,69515,59.97,p
38.26,4721,-22.82,4.124,3515764,11234,69555,60.46,p
38.52,4727,-22.82,4.128,3516062,11235,69594,60.44,p
38.84,4716,-22.856,4.132,3516410,11236,69634,60.57,p
39.06,4709,-22.892,4.135,3516643,11237,69673,60.18,p
39.5,4725,-22.929,4.141,3516972,11238,69713,60.35,p
39.78,4729,-22.929,4.149,3517247,11239,69753,60.69,p
40.01,4726,-22.964,4.194,3517537,11240,69792,60.62,p
40.45,4729,-22.986,4.253,3517940,11241,69832,60.51,p
40.67,4731,-22.986,4.262,3518189,11242,69871,60.4,p
41.06,4721,-23.021,4.266,3518584,11243,69911,60.55,p
41.38,4730,-23.057,4.268,3518877,11244,69950,60.68,p
41.59,4724,-23.094,4.268,3519036,11245,69990,60.82,p
41.94,4727,-23.094,4.268,3519401,11246,70029,60.78,p
42.28,4726,-23.13,4.269,3519753,11247,70069,60.79,p
42.49,4705,-23.167,4.269,3520058,11248,70108,61.04,p
42.85,4733,-23.167,4.27,3520323,11249,70148,60.91,p
43.12,4727,-23.204,4.27,3520601,11250,70187,60.8,p
43.38,4728,-23.24,4.271,3520887,11251,70227,60.8,p
43.68,4729,-23.24,4.271,3521136,11252,70267,61.0,p
44.07,4730,-23.276,4.272,3521557,11253,70306,61.09,p
44.3,4730,-23.312,4.272,3521836,11254,70346,61.13,p
44.59,4725,-23.312,4.273,3522092,11255,70385,61.04,p
44.95,4702,-23.348,4.274,3522384,11256,70425,61.22,p
45.17,4724,-23.385,4.275,3522707,11257,70464,61.5,p
45.43,4722,-23.385,4.284,3522964,11258,70504,61.01,p
45.88,4721,-23.421,4.336,3523333,11259,70543,61.12,p
46.12,4720,-23.457,4.347,3523647,11260,70583,61.28,p
46.42,4720,-23.493,4.352,3523895,11261,70622,61.23,p
46.71,4729,-23.493,4.353,3524178,11262,70662,61.44,p
47.07,4726,-23.529,4.354,3524535,11263,70701,61.27,p
47.37,4701,-23.565,4.355,3524895,11264,70741,61.1,p
47.65,4721,-23.565,4.355,3525114,11265,70780,61.5,p
47.87,4719,-23.601,4.356,3525395,11266,70820,61.35,p
48.22,4728,-23.638,4.357,3525725,11267,70860,61.16,p
48.54,4729,-23.638,4.357,3526031,11268,70899,61.24,p
48.83,4702,-23.675,4.358,3526336,11269,70939,61.44,p
49.11,4729,-23.712,4.358,3526608,11270,70978,61.35,p
49.43,4734,-23.712,4.358,3526867,11271,71018,61.21,p
49.66,4731,-23.748,4.359,3527184,11272,71057,61.51,p
50.06,4716,-23.784,4.36,3527554,11273,71097,61.26,p
50.32,4726,-23.784,4.361,3527836,11274,71136,61.17,p
50.62,4728,-23.82,4.361,3528101,11275,71176,61.71,p
50.87,4726,-23.841,4.361,3528374,11276,71215,61.39,p
51.23,4719,-23.878,4.363,3528786,11277,71255,61.6,p
51.47,4730,-23.878,4.364,3528977,11278,71294,61.53,p
51.9,4726,-23.914,4.365,3529364,11279,71334,61.53,p
52.18,4725,-23.95,4.367,3529647,11280,71373,61.5,p
52.47,4710,-23.95,4.368,3529972,11281,71413,61.27,p
52.78,4724,-23.986,4.37,3530269,11282,71453,61.26,p
53.11,4729,-24.023,4.372,3530573,11283,71492,61.73,p
53.33,4729,-24.059,4.373,3530851,11284,71532,61.75,p
53.63,4719,-24.059,4.375,3531078,11285,71571,61.66,p
53.86,4730,-24.095,4.378,3531385,11286,71611,61.49,p
54.26,4721,-24.132,4.38,3531767,11287,71650,62.19,p
54.51,4726,-24.132,4.383,3532050,11288,71690,61.81,p
54.89,4710,-24.169,4.387,3532334,11289,71729,61.78,p
55.18,4723,-24.206,4.388,3532676,11290,71769,61.73,p
55.49,4727,-24.206,4.393,3532888,11291,71808,61.73,p
55.75,4726,-24.243,4.443,3533240,11292,71848,61.79,p
56.04,4723,-24.243,4.485,3533489,11293,71887,61.82,p
56.31,4728,-24.279,4.498,3533803,11294,71927,61.79,p
56.55,4719,-24.315,4.507,3534069,11295,71966,61.76,p
56.89,4724,-24.352,4.51,3534408,11296,72006,61.6,p
57.13,4723,-24.352,4.511,3534666,11297,72046,61.76,p
57.5,4723,-24.373,4.512,3535038,11298,72085,61.87,p
57.76,4729,-24.41,4.513,3535266,11299,72125,61.56,p
58.2,4723,-24.446,4.513,3535705,11300,72164,61.76,p
58.54,4701,-24.482,4.514,3536005,11301,72204,61.6,p
58.69,4730,-24.482,4.514,3536181,11302,72243,61.53,p
58.96,4721,-24.518,4.515,3536470,11303,72283,61.61,p
59.29,4718,-24.518,4.516,3536761,11304,72322,61.75,p
59.55,4717,-24.554,4.516,3537095,11305,72362,62.11,p
60.01,4709,-24.591,4.543,3537530,11306,72401,61.9,p
60.25,4716,-24.591,4.562,3537759,11307,72441,61.82,p
60.54,4714,-24.628,4.57,3538036,11308,72480,62.0,p
60.72,4715,-24.665,4.576,3538294,11309,72520,61.72,p
61.14,4729,-24.665,4.586,3538703,11310,72559,62.06,p
61.38,4723,-24.701,4.589,3538895,11311,72599,62.12,p
61.75,4719,-24.738,4.591,3539271,11312,72639,62.0,p
62.0,4721,-24.738,4.593,3539517,11313,72678,61.84,p
62.28,4728,-24.775,4.593,3539794,11314,72718,62.11,p
62.55,4711,-24.811,4.594,3540067,11315,72757,62.06,p
62.87,4721,-24.811,4.594,3540367,11316,72797,61.76,p
63.24,4730,-24.847,4.594,3540785,11317,72836,61.98,p
63.53,4712,-24.883,4.595,3541005,11318,72876,62.06,p
63.81,4725,-24.883,4.595,3541307,11319,72915,62.0,p
64.08,4727,-24.919,4.595,3541573,11320,72955,61.75,p
64.5,4722,-24.956,4.596,3541985,11321,72994,62.19,p
64.76,4727,-24.992,4.596,3542263,11322,73034,62.23,p
64.99,4730,-24.992,4.597,3542532,11323,73073,62.01,p
65.3,4725,-25.028,4.598,3542786,11324,73113,61.73,p
65.59,4725,-25.028,4.598,3543071,11325,73152,62.06,p
65.96,4735,-25.064,4.599,3543445,11326,73192,62.21,p
66.21,4723,-25.101,4.6,3543694,11327,73232,61.97,p
66.58,4717,-25.137,4.601,3544044,11328,73271,62.09,p
66.84,4723,-25.137,4.602,3544316,11329,73311,61.95,p
67.14,4726,-25.174,4.603,3544621,11330,73350,62.09,p
67.5,4726,-25.21,4.605,3544926,11331,73390,62.12,p
67.76,4717,-25.232,4.606,3545285,11332,73429,62.12,p
68.06,4714,-25.232,4.608,3545566,11333,73469,62.31,p
68.25,4715,-25.268,4.608,3545818,11334,73508,62.48,p
68.79,4709,-25.304,4.625,3546246,11335,73548,62.17,p
68.93,4720,-25.304,4.641,3546453,11336,73587,62.21,p
69.24,4707,-25.34,4.683,3546745,11337,73627,62.5,p
69.51,4714,-25.376,4.703,3547028,11338,73666,62.15,p
69.72,4700,-25.376,4.712,3547295,11339,73706,62.25,p
70.11,4724,-25.412,4.714,3547630,11340,73745,62.08,p
70.37,4727,-25.448,4.715,3547920,11341,73785,61.77,p
70.75,4723,-25.484,4.716,3548276,11342,73825,62.25,p
71.01,4730,-25.484,4.716,3548536,11343,73864,62.14,p
71.29,4727,-25.52,4.717,3548784,11344,73904,62.66,p
71.66,4714,-25.556,4.718,3549137,11345,73943,62.47,p
72.0,4727,-25.556,4.718,3549434,11346,73983,61.89,p
72.23,4726,-25.592,4.719,3549747,11347,74022,62.23,p
72.56,4730,-25.629,4.719,3550016,11348,74062,62.34,p
72.84,4726,-25.629,4.72,3550318,11349,74101,62.59,p
73.16,4699,-25.665,4.721,3550649,11350,74141,62.48,p
73.5,4728,-25.702,4.721,3550926,11351,74180,62.53,p
73.72,4726,-25.724,4.722,3551246,11352,74220,62.6,p
74.07,4713,-25.724,4.723,3551634,11353,74259,62.23,p
74.43,4726,-25.761,4.725,3551874,11354,74299,62.23,p
74.73,4727,-25.797,4.725,3552217,11355,74338,62.43,p
75.01,4720,-25.834,4.727,3552484,11356,74378,62.34,p
75.33,4709,-25.834,4.729,3552808,11357,74418,62.21,p
75.63,4714,-25.87,4.73,3553123,11358,74457,62.12,p
75.86,4728,-25.87,4.731,3553393,11359,74497,62.28,p
76.13,4723,-25.906,4.733,3553669,11360,74536,62.31,p
76.39,4724,-25.942,4.735,3553897,11361,74576,62.3,p
76.76,4724,-25.979,4.737,3554255,11362,74615,62.39,p
77.01,4715,-25.979,4.739,3554521,11363,74655,62.31,p
77.4,4723,-26.022,4.743,3554838,11364,74694,62.26,p
77.66,4722,-26.022,4.744,3555176,11365,74734,62.39,p
77.97,4714,-26.059,4.748,3555473,11366,74773,62.33,p
78.25,4717,-26.095,4.749,3555775,11367,74813,62.74,p
78.6,4710,-26.095,4.754,3556031,11368,74852,62.78,p
78.9,4717,-26.131,4.757,3556354,11369,74892,62.61,p
79.16,4720,-26.167,4.76,3556672,11370,74932,62.63,p
79.54,4721,-26.19,4.765,3557026,11371,74971,62.45,p
79.83,4727,-26.227,4.769,3557353,11372,75011,62.6,p
80.08,4728,-26.227,4.773,3557594,11373,75050,62.69,p
80.35,4715,-26.264,4.776,3557864,11374,75090,62.85,p
80.65,4726,-26.285,4.78,3558170,11375,75129,62.96,p
80.93,4700,-26.285,4.783,3558417,11376,75169,62.61,p
81.35,4720,-26.322,4.788,3558841,11377,75208,62.91,p
81.57,4726,-26.358,4.794,3559093,11378,75248,62.74,p
81.86,4717,-26.358,4.798,3559365,11379,75287,62.92,p
82.11,4727,-26.394,4.799,3559605,11380,75327,62.71,p
82.47,4712,-26.431,4.806,3559985,11381,75366,62.56,p
82.8,4720,-26.467,4.81,3560292,11382,75406,62.3,p
83.09,4727,-26.467,4.815,3560567,11383,75445,62.69,p
83.34,4698,-26.503,4.819,3560854,11384,75485,62.38,p
83.59,4724,-26.503,4.822,3561104,11385,75525,62.69,p
83.98,4726,-26.539,4.829,3561541,11386,75564,62.56,p
84.3,4718,-26.575,4.833,3561786,11387,75604,62.92,p
84.55,4720,-26.575,4.838,3562052,11388,75643,62.48,p
84.82,4699,-26.611,4.857,3562307,11389,75683,62.58,p
85.12,4725,-26.648,4.922,3562613,11390,75722,62.54,p
85.45,4722,-26.685,4.952,3562927,11391,75762,62.64,p
85.64,4723,-26.685,4.961,3563200,11392,75801,62.58,p
86.07,4728,-26.722,4.968,3563584,11393,75841,62.59,p
86.4,4727,-26.759,4.969,3563876,11394,75880,62.58,p
86.7,4719,-26.759,4.97,3564173,11395,75920,62.54,p
86.98,4725,-26.795,4.971,3564469,11396,75959,62.6,p
87.26,4708,-26.831,4.971,3564750,11397,75999,62.71,p
87.55,4726,-26.831,4.972,3565057,11398,76038,62.82,p
87.8,4719,-26.867,4.972,3565305,11399,76078,62.64,p
88.21,4713,-26.903,4.973,3565697,11400,76118,62.89,p
88.47,4714,-26.903,4.973,3565956,11401,76157,62.72,p
88.81,4726,-26.939,4.974,3566242,11402,76197,62.55,p
89.08,4716,-26.975,4.974,3566585,11403,76236,62.47,p
89.37,4726,-26.975,4.975,3566846,11404,76276,62.5,p
89.67,4699,-27.011,4.976,3567166,11405,76315,62.87,p
89.94,4718,-27.047,4.977,3567436,11406,76355,62.83,p
90.27,4716,-27.047,4.977,3567746,11407,76394,62.89,p
90.54,4723,-27.083,4.978,3568038,11408,76434,62.48,p
90.86,4724,-27.12,4.979,3568363,11409,76473,62.52,p
91.12,4711,-27.12,4.98,3568632,11410,76513,62.53,p
91.48,4722,-27.157,4.982,3568976,11411,76552,62.34,p
91.87,4717,-27.194,4.984,3569328,11412,76592,62.7,p
91.97,4722,-27.194,4.985,3569515,11413,76632,62.99,p
92.44,4727,-27.231,4.987,3569907,11414,76671,62.43,p
92.74,4724,-27.267,4.989,3570237,11415,76711,62.59,p
92.99,4723,-27.304,4.991,3570513,11416,76750,62.42,p
93.23,4728,-27.304,4.992,3570725,11417,76790,62.28,p
93.64,4716,-27.34,4.996,3571116,11418,76829,62.59,p
93.86,4723,-27.376,4.999,3571358,11419,76869,62.69,p
94.24,4725,-27.376,5.001,3571644,11420,76908,62.54,p
94.5,4719,-27.413,5.004,3572003,11421,76948,62.44,p
94.73,4726,-27.413,5.007,3572227,11422,76987,62.66,p
95.08,4710,-27.448,5.037,3572600,11423,77027,62.52,p
95.38,4725,-27.485,5.088,3572846,11424,77066,62.81,p
95.71,4727,-27.521,5.112,3573241,11425,77106,62.34,p
95.99,4704,-27.521,5.13,3573462,11426,77145,62.61,p
96.23,4714,-27.557,5.134,3573755,11427,77185,62.71,p
96.49,4698,-27.557,5.137,3574021,11428,77225,62.54,p
96.89,4715,-27.593,5.143,3574417,11429,77264,62.59,p
97.18,4724,-27.629,5.149,3574705,11430,77304,62.58,p
97.45,4713,-27.666,5.151,3574931,11431,77343,62.59,p
97.81,4725,-27.666,5.155,3575314,11432,77383,62.85,p
98.13,4724,-27.703,5.159,3575624,11433,77422,62.83,p
98.28,4726,-27.739,5.159,3575884,11434,77462,62.7,p
98.67,4713,-27.739,5.16,3576201,11435,77501,62.77,p
99.0,4718,-27.776,5.16,3576479,11436,77541,62.49,p
99.26,4726,-27.812,5.161,3576765,11437,77580,62.48,p
99.62,4725,-27.849,5.161,3577147,11438,77620,62.69,p
99.84,4710,-27.849,5.161,3577353,11439,77659,62.89,p
100.12,4725,-27.885,5.162,3577632,11440,77699,62.45,p
100.54,4726,-27.921,5.162,3578018,11441,77739,62.41,p
100.76,4727,-27.921,5.163,3578292,11442,77778,62.69,p
101.07,4727,-27.958,5.163,3578543,11443,77818,63.07,p
101.33,4708,-27.958,5.164,3578844,11444,77857,62.74,p
101.76,4722,-27.994,5.165,3579233,11445,77897,62.56,p
102.02,4726,-28.031,5.166,3579511,11446,77936,62.65,p
102.33,4719,-28.067,5.166,3579799,11447,77976,62.98,p
102.57,4716,-28.067,5.167,3580086,11448,78015,62.74,p
102.86,4710,-28.103,5.168,3580331,11449,78055,62.7,p
103.23,4721,-28.139,5.17,3580706,11450,78094,62.92,p
103.47,4723,-28.139,5.17,3580966,11451,78134,62.69,p
103.79,4704,-28.176,5.173,3581277,11452,78173,62.86,p
104.03,4712,-28.176,5.173,3581575,11453,78213,62.75,p
104.37,4714,-28.213,5.225,3581837,11454,78252,62.83,p
104.63,4726,-28.25,5.247,3582147,11455,78292,62.39,p
104.97,4723,-28.285,5.266,3582496,11456,78332,62.49,p
105.27,4712,-28.285,5.269,3582747,11457,78371,62.67,p
105.65,4719,-28.322,5.273,3583115,11458,78411,62.49,p
105.9,4726,-28.358,5.273,3583384,11459,78450,62.63,p
106.24,4700,-28.38,5.274,3583708,11460,78490,62.87,p
106.47,4714,-28.38,5.277,3584026,11461,78529,62.92,p
106.76,4712,-28.416,5.289,3584252,11462,78569,63.08,p
107.06,4728,-28.453,5.3,3584547,11463,78608,62.97,p
107.4,4727,-28.453,5.306,3584842,11464,78648,62.77,p
107.73,4717,-28.489,5.309,3585177,11465,78687,62.8,p
107.95,4727,-28.525,5.311,3585449,11466,78727,62.74,p
108.31,4727,-28.561,5.311,3585806,11467,78766,62.63,p
108.58,4721,-28.561,5.311,3586091,11468,78806,62.93,p
108.88,4726,-28.597,5.321,3586391,11469,78846,63.27,p
109.3,4726,-28.633,5.335,3586749,11470,78885,62.92,p
109.55,4720,-28.655,5.339,3587054,11471,78925,62.55,p
109.81,4723,-28.655,5.348,3587287,11472,78964,62.81,p
110.02,4720,-28.692,5.352,3587583,11473,79004,62.86,p
110.46,4724,-28.729,5.359,3587951,11474,79043,62.93,p
110.7,4727,-28.729,5.362,3588252,11475,79083,62.77,p
111.03,4721,-28.766,5.367,3588475,11476,79122,62.63,p
111.29,4728,-28.788,5.373,3588788,11477,79162,62.74,p
111.65,4718,-28.825,5.378,3589170,11478,79201,62.91,p
111.96,4710,-28.861,5.381,3589464,11479,79241,62.75,p
112.26,4727,-28.861,5.383,3589755,11480,79280,62.97,p
112.49,4720,-28.897,5.384,3590045,11481,79320,62.55,p
112.76,4727,-28.897,5.384,3590246,11482,79360,63.07,p
113.09,4724,-28.934,5.385,3590625,11483,79399,63.15,p
113.49,4712,-28.955,5.385,3590994,11484,79439,62.6,p
113.75,4718,-28.992,5.386,3591284,11485,79478,62.49,p
114.02,4718,-29.028,5.386,3591545,11486,79518,62.66,p
114.31,4724,-29.028,5.386,3591845,11487,79557,62.78,p
114.68,4727,-29.064,5.387,3592107,11488,79597,62.72,p
114.86,4725,-29.1,5.387,3592378,11489,79636,62.69,p
115.13,4725,-29.122,5.387,3592645,11490,79676,62.87,p
115.57,4716,-29.122,5.391,3593064,11491,79715,63.09,p
115.85,4721,-29.158,5.417,3593333,11492,79755,63.05,p
116.13,4726,-29.194,5.441,3593637,11493,79794,62.85,p
116.37,4719,-29.217,5.449,3593902,11494,79834,62.99,p
116.77,4729,-29.217,5.456,3594255,11495,79873,62.77,p
117.04,4707,-29.254,5.459,3594545,11496,79913,62.77,p
117.29,4723,-29.291,5.46,3594794,11497,79953,62.78,p
117.63,4727,-29.291,5.461,3595127,11498,79992,63.11,p
117.92,4713,-29.327,5.461,3595411,11499,80032,62.98,p
118.21,4726,-29.363,5.462,3595716,11500,80071,62.78,p
118.45,4719,-29.363,5.462,3595987,11501,80111,62.94,p
118.9,4705,-29.399,5.466,3596386,11502,80150,62.87,p
119.23,4724,-29.435,5.49,3596657,11503,80190,62.93,p
119.35,4713,-29.457,5.495,3596856,11504,80229,62.97,p
119.79,4720,-29.493,5.502,3597304,11505,80269,62.92,p
120.13,4728,-29.53,5.507,3597598,11506,80308,63.0,p
120.31,4716,-29.53,5.508,3597761,11507,80348,62.89,p
120.54,4727,-29.551,5.508,3598061,11508,80387,63.05,p
120.95,4995,-29.588,5.509,3598476,11509,80409,62.98,p
121.26,4994,-29.588,5.51,3598793,11510,80409,62.23,i
121.56,4994,-29.604,5.51,3599055,11511,80409,59.18,i
121.8,4995,-29.606,5.51,3599324,11512,80409,56.86,i
122.07,4996,-29.608,5.511,3599587,11513,80409,54.9,i
122.34,4994,-29.608,5.511,3599869,11514,80409,52.78,i
122.78,4994,-29.611,5.512,3600263,11515,80409,50.8,i
123.03,4993,-29.614,5.512,3600537,11516,80409,49.22,i
123.39,4996,-29.614,5.513,3600896,11517,80409,47.44,i
123.63,4996,-29.619,5.513,3601137,11518,80409,46.05,i
124.0,4996,-29.622,5.514,3601415,11519,80409,44.69,i
124.21,4996,-29.622,5.514,3601716,11520,80409,43.12,i
124.56,4995,-29.625,5.516,3601998,11521,80409,42.1,i
124.89,4994,-29.63,5.517,3602327,11522,80409,40.91,i
125.18,4994,-29.634,5.518,3602667,11523,80409,39.59,i
125.49,4997,-29.634,5.519,3602956,11524,80409,38.59,i
125.7,4996,-29.639,5.52,3603243,11525,80409,37.64,i
126.01,4997,-29.642,5.521,3603507,11526,80409,36.77,i
126.25,4998,-29.642,5.523,3603762,11527,80409,35.62,i
126.64,4998,-29.646,5.524,3604155,11528,80409,34.78,i
126.87,4996,-29.65,5.526,3604413,11529,80409,33.9,i
127.19,4998,-29.65,5.528,3604700,11530,80409,33.01,i
127.63,4996,-29.653,5.531,3605052,11531,80409,32.09,i
127.88,4998,-29.656,5.533,3605355,11532,80409,31.32,i
128.15,4995,-29.656,5.537,3605644,11533,80409,30.4,i
128.41,4998,-29.658,5.537,3605924,11534,80409,29.66,i
128.68,4995,-29.661,5.54,3606166,11535,80409,28.8,i
129.02,4997,-29.661,5.543,3606590,11536,80409,27.94,i
129.32,4994,-29.663,5.547,3606789,11537,80409,27.49,i
129.74,4998,-29.665,5.551,3607224,11538,80409,26.61,i
129.85,4998,-29.665,5.551,3607383,11539,80409,26.11,i
130.27,4997,-29.667,5.555,3607744,11540,80409,25.41,i
130.49,5001,-29.669,5.558,3608025,11541,80409,24.71,i
130.78,4997,-29.669,5.561,3608351,11542,80409,24.23,i
131.15,5000,-29.67,5.564,3608635,11543,80409,23.72,i
131.5,4998,-29.671,5.569,3608916,11544,80409,23.01,i
131.76,4996,-29.672,5.572,3609260,11545,80409,22.59,i
132.04,4996,-29.673,5.574,3609522,11546,80409,21.97,i
132.28,4998,-29.674,5.575,3609811,11547,80409,21.33,i
132.68,4998,-29.674,5.58,3610176,11548,80409,20.9,i
132.97,4998,-29.676,5.582,3610406,11549,80409,20.4,i
133.24,4998,-29.677,5.585,3610725,11550,80409,20.13,i
133.48,4999,-29.677,5.587,3611049,11551,80409,19.62,i
133.79,4997,-29.678,5.59,3611298,11552,80409,19.05,i
134.1,4998,-29.678,5.592,3611584,11553,80409,18.8,i
134.33,4999,-29.679,5.595,3611875,11554,80409,18.2,i
134.74,4996,-29.679,5.599,3612248,11555,80409,18.01,i
135.04,4999,-29.68,5.601,3612495,11556,80409,17.66,i
135.33,4998,-29.681,5.604,3612815,11557,80409,17.05,i
135.63,4998,-29.681,5.606,3613094,11558,80409,16.71,i
136.06,4997,-29.682,5.61,3613484,11559,80409,16.33,i
136.33,4999,-29.682,5.612,3613822,11560,80409,16.16,i
136.69,4996,-29.683,5.614,3614126,11561,80409,15.89,i
136.79,4999,-29.683,5.615,3614310,11562,80409,15.44,i
137.21,4999,-29.684,5.617,3614666,11563,80409,15.23,i
137.43,4998,-29.685,5.619,3614907,11564,80409,14.88,i
137.81,4999,-29.685,5.622,3615277,11565,80409,14.68,i
138.09,4997,-29.685,5.623,3615573,11566,80409,14.38,i
138.37,4999,-29.686,5.624,3615841,11567,80409,14.2,i
138.68,4999,-29.687,5.627,3616183,11568,80409,13.79,i
138.97,4997,-29.687,5.629,3616446,11569,80409,13.42,i
139.29,4997,-29.687,5.63,3616756,11570,80409,13.19,i
139.55,4999,-29.688,5.632,3617026,11571,80409,13.01,i
139.81,4999,-29.688,5.633,3617325,11572,80409,12.7,i
140.18,5000,-29.689,5.635,3617655,11573,80409,12.53,i
140.45,4998,-29.689,5.637,3617974,11574,80409,12.43,i
140.76,4999,-29.689,5.637,3618253,11575,80409,12.32,i
141.05,4998,-29.69,5.64,3618536,11576,80409,12.02,i
141.25,4999,-29.69,5.641,3618805,11577,80409,11.56,i
141.75,4999,-29.691,5.642,3619205,11578,80409,11.53,i
141.87,4998,-29.691,5.643,3619401,11579,80409,11.33,i
142.33,4995,-29.691,5.645,3619786,11580,80409,11.03,i
142.55,5000,-29.691,5.646,3620027,11581,80409,11.04,i
142.85,4999,-29.691,5.648,3620302,11582,80409,10.86,i
143.15,4998,-29.692,5.649,3620592,11583,80409,10.62,i
143.42,4999,-29.692,5.65,3620924,11584,80409,10.56,i
143.72,4997,-29.692,5.651,3621241,11585,80409,10.33,i
144.09,5000,-29.693,5.652,3621574,11586,80409,10.15,i
144.32,4999,-29.693,5.653,3621865,11587,80409,9.99,i
144.68,5000,-29.693,5.654,3622192,11588,80409,10.04,i
145.0,4998,-29.694,5.655,3622448,11589,80409,9.79,i
145.37,4998,-29.694,5.656,3622855,11590,80409,9.68,i
145.56,4999,-29.694,5.657,3623067,11591,80409,9.35,i
145.82,5000,-29.694,5.658,3623304,11592,80409,9.33,i
146.1,5000,-29.695,5.659,3623612,11593,80409,9.23,i
146.56,5000,-29.695,5.66,3624015,11594,80409,9.19,i
146.75,4996,-29.695,5.661,3624257,11595,80409,8.98,i
146.98,5000,-29.695,5.661,3624513,11596,80409,8.91,i
147.4,5000,-29.695,5.663,3624910,11597,80409,8.75,i
147.73,5000,-29.695,5.663,3625202,11598,80409,8.67,i
147.91,4999,-29.696,5.664,3625467,11599,80409,8.47,i
148.32,4998,-29.696,5.665,3625831,11600,80409,8.3,i
148.59,5000,-29.696,5.666,3626101,11601,80409,8.2,i
148.92,5001,-29.696,5.667,3626386,11602,80409,8.17,i
149.19,4998,-29.696,5.667,3626686,11603,80409,8.06,i
149.5,5001,-29.697,5.668,3626976,11604,80409,7.92,i
149.76,4996,-29.697,5.669,3627274,11605,80409,7.79,i
150.1,4999,-29.697,5.67,3627573,11606,80409,7.87,i
150.33,4996,-29.697,5.67,3627841,11607,80409,7.55,i
150.74,4997,-29.697,5.671,3628224,11608,80409,7.55,i
151.0,4999,-29.697,5.671,3628515,11609,80409,7.55,i
151.4,4998,-29.698,5.673,3628780,11610,80409,7.32,i
151.58,4999,-29.698,5.673,3629081,11611,80409,7.36,i
151.87,4999,-29.698,5.674,3629406,11612,80409,7.22,i
152.17,4998,-29.698,5.674,3629666,11613,80409,7.09,i
152.44,5001,-29.698,5.675,3629917,11614,80409,6.96,i
152.75,5000,-29.698,5.675,3630227,11615,80409,7.14,i
153.1,5001,-29.698,5.676,3630539,11616,80409,7.07,i
153.33,4997,-29.698,5.676,3630807,11617,80409,6.94,i
153.8,4998,-29.699,5.677,3631268,11618,80409,6.6,i
153.88,4999,-29.699,5.677,3631416,11619,80409,6.61,i
154.34,4999,-29.699,5.678,3631764,11620,80409,6.58,i
154.59,5001,-29.699,5.679,3632095,11621,80409,6.5,i
154.9,4999,-29.699,5.679,3632332,11622,80409,6.42,i
155.23,5000,-29.699,5.68,3632756,11623,80409,6.34,i
155.46,5002,-29.699,5.681,3632985,11624,80409,6.28,i
155.72,5001,-29.699,5.681,3633225,11625,80409,6.31,i
156.02,5002,-29.699,5.681,3633516,11626,80409,6.17,i
156.44,4998,-29.7,5.682,3633936,11627,80409,6.25,i
156.76,5000,-29.7,5.682,3634232,11628,80409,6.17,i
157.0,5001,-29.7,5.683,3634552,11629,80409,5.94,i
157.25,5000,-29.7,5.683,3634785,11630,80409,5.98,i
157.52,5000,-29.7,5.684,3635047,11631,80409,6.12,i
157.79,5001,-29.7,5.684,3635339,11632,80409,5.88,i
158.23,5000,-29.7,5.685,3635727,11633,80409,5.75,i
158.52,5001,-29.7,5.685,3636065,11634,80409,5.66,i
158.84,5001,-29.7,5.686,3636347,11635,80409,5.7,i
159.17,4999,-29.701,5.686,3636629,11636,80409,5.72,i
159.41,5001,-29.701,5.686,3636928,11637,80409,5.7,i
159.76,4999,-29.701,5.687,3637213,11638,80409,5.59,i
160.04,4998,-29.701,5.687,3637557,11639,80409,5.51,i
160.29,5001,-29.701,5.687,3637765,11640,80409,5.45,i
160.53,5000,-29.701,5.688,3638055,11641,80409,5.51,i
160.92,5000,-29.701,5.688,3638416,11642,80409,5.35,i
161.2,4998,-29.701,5.689,3638736,11643,80409,5.37,i
161.46,4999,-29.701,5.689,3638948,11644,80409,5.32,i
161.8,5000,-29.701,5.689,3639303,11645,80409,5.2,i
162.06,5000,-29.701,5.69,3639616,11646,80409,5.33,i
162.37,4999,-29.701,5.69,3639885,11647,80409,5.18,i
162.6,5001,-29.701,5.69,3640134,11648,80409,5.15,i
163.06,5002,-29.702,5.691,3640499,11649,80409,5.04,i
163.23,5001,-29.702,5.691,3640799,11650,80409,5.01,i
163.64,4999,-29.702,5.691,3641136,11651,80409,5.09,i
163.93,5000,-29.702,5.692,3641405,11652,80409,4.95,i
164.22,4999,-29.702,5.692,3641717,11653,80409,4.99,i
164.43,4999,-29.702,5.692,3641937,11654,80409,5.0,i
164.84,4999,-29.702,5.693,3642336,11655,80409,4.91,i
165.07,5002,-29.702,5.693,3642615,11656,80409,4.79,i
165.41,5000,-29.702,5.693,3642827,11657,80409,4.72,i
165.66,5001,-29.702,5.693,3643187,11658,80409,4.83,i
166.03,5000,-29.702,5.694,3643536,11659,80409,4.71,i
166.32,5002,-29.702,5.694,3643814,11660,80409,4.49,i
166.6,4997,-29.702,5.694,3644067,11661,80409,4.63,i
166.87,5000,-29.702,5.694,3644366,11662,80409,4.65,i
167.11,5001,-29.702,5.695,3644646,11663,80409,4.54,i
167.61,4999,-29.702,5.695,3645094,11664,80409,4.43,i
167.85,5002,-29.702,5.695,3645361,11665,80409,4.36,i
168.09,4998,-29.702,5.695,3645595,11666,80409,4.55,i
168.41,5001,-29.703,5.696,3645877,11667,80409,4.51,i
168.64,4999,-29.703,5.696,3646160,11668,80409,4.46,i
169.02,5001,-29.703,5.696,3646543,11669,80409,4.43,i
169.26,5002,-29.703,5.696,3646736,11670,80409,4.52,i
169.6,5003,-29.703,5.697,3647127,11671,80409,4.33,i
169.89,5003,-29.703,5.697,3647377,11672,80409,4.38,i
170.14,5002,-29.703,5.697,3647645,11673,80409,4.34,i
170.55,5002,-29.703,5.698,3648063,11674,80409,4.47,i
170.83,5001,-29.703,5.698,3648330,11675,80409,4.41,i
171.12,5001,-29.703,5.698,3648626,11676,80409,4.24,i
171.35,5002,-29.703,5.698,3648882,11677,80409,4.23,i
171.73,5002,-29.703,5.698,3649250,11678,80409,4.1,i
171.99,5000,-29.703,5.699,3649478,11679,80409,4.45,i
172.28,5000,-29.703,5.699,3649757,11680,80409,4.4,i
172.68,5001,-29.703,5.699,3650157,11681,80409,4.22,i
172.9,4999,-29.703,5.699,3650412,11682,80409,4.06,i
173.15,5005,-29.703,5.7,3650697,11683,80409,4.05,i
173.49,5001,-29.704,5.7,3651015,11684,80409,3.97,i
173.8,5001,-29.703,5.7,3651285,11685,80409,4.14,i
174.03,5001,-29.703,5.7,3651545,11686,80409,3.89,i
174.42,4999,-29.704,5.7,3651942,11687,80409,3.97,i
174.64,5001,-29.703,5.7,3652153,11688,80409,4.01,i
175.09,5001,-29.704,5.701,3652559,11689,80409,3.96,i
175.3,5000,-29.704,5.701,3652815,11690,80409,3.86,i
175.54,5001,-29.704,5.701,3653052,11691,80409,3.8,i
175.93,4999,-29.704,5.701,3653446,11692,80409,3.83,i
176.28,5002,-29.704,5.701,3653725,11693,80409,3.92,i
176.54,5001,-29.704,5.701,3654021,11694,80409,3.81,i
176.81,5002,-29.704,5.701,3654294,11695,80409,3.91,i
177.16,5000,-29.704,5.702,3654665,11696,80409,3.77,i
177.45,5001,-29.704,5.702,3654937,11697,80409,3.95,i
177.7,5002,-29.704,5.702,3655185,11698,80409,3.91,i
177.99,5000,-29.704,5.703,3655454,11699,80409,3.79,i
178.4,4999,-29.704,5.703,3655859,11700,80409,3.73,i
178.72,5001,-29.704,5.703,3656131,11701,80409,3.8,i
178.94,5002,-29.704,5.703,3656471,11702,80409,3.8,i
179.32,4999,-29.704,5.704,3656765,11703,80409,3.69,i
179.53,5000,-29.704,5.704,3657065,11704,80409,3.67,i
179.82,5001,-29.704,5.704,3657309,11705,80409,3.58,i
180.11,5002,-29.704,5.704,3657566,11706,80409,3.63,i
180.35,5002,-29.704,5.704,3657870,11707,80409,3.74,i
180.67,4998,-29.704,5.705,3658187,11708,80409,3.63,i
181.13,5001,-29.705,5.705,3658613,11709,80409,3.74,i
181.38,5002,-29.705,5.705,3658854,11710,80409,3.48,i
181.58,5002,-29.705,5.705,3659077,11711,80409,3.57,i
181.85,5000,-29.705,5.705,3659374,11712,80409,3.53,i
182.22,5003,-29.705,5.705,3659750,11713,80409,3.69,i
182.58,5001,-29.705,5.705,3659996,11714,80409,3.62,i
182.85,5003,-29.705,5.705,3660345,11715,80409,3.61,i
183.22,5002,-29.705,5.705,3660696,11716,80409,3.57,i
183.37,5000,-29.705,5.706,3660857,11717,80409,3.34,i
183.74,5001,-29.705,5.706,3661239,11718,80409,3.45,i
184.06,5001,-29.705,5.706,3661570,11719,80409,3.26,i
184.24,5001,-29.705,5.706,3661804,11720,80409,3.53,i
184.65,5002,-29.705,5.706,3662146,11721,80409,3.56,i
184.89,4999,-29.705,5.706,3662378,11722,80409,3.45,i
185.32,5002,-29.705,5.706,3662804,11723,80409,3.51,i
185.6,5001,-29.706,5.706,3663048,11724,80409,3.36,i
185.9,5002,-29.706,5.706,3663377,11725,80409,3.33,i
186.12,5000,-29.706,5.706,3663634,11726,80409,3.28,i
186.56,5001,-29.706,5.706,3664082,11727,80409,3.36,i
186.71,5001,-29.706,5.706,3664215,11728,80409,3.31,i
187.04,5003,-29.706,5.707,3664577,11729,80409,3.34,i
187.29,5001,-29.706,5.707,3664806,11730,80409,3.28,i
187.61,5001,-29.706,5.707,3665155,11731,80409,3.26,i
187.9,5002,-29.706,5.708,3665395,11732,80409,3.34,i
188.23,5002,-29.706,5.708,3665755,11733,80409,3.29,i
188.52,5001,-29.706,5.708,3665995,11734,80409,3.15,i
188.82,5001,-29.706,5.708,3666285,11735,80409,3.07,i
189.09,5002,-29.706,5.708,3666567,11736,80409,3.18,i
189.32,5001,-29.706,5.708,3666896,11737,80409,2.96,i
189.71,5002,-29.706,5.709,3667208,11738,80409,3.15,i
189.99,5002,-29.706,5.709,3667494,11739,80409,3.22,i
190.39,5001,-29.706,5.709,3667884,11740,80409,3.09,i
190.62,5001,-29.706,5.71,3668177,11741,80409,3.08,i
190.93,5001,-29.706,5.71,3668418,11742,80409,3.03,i
191.26,5001,-29.706,5.71,3668724,11743,80409,3.15,i
191.53,5001,-29.706,5.71,3669019,11744,80409,3.15,i
191.77,5002,-29.706,5.71,3669278,11745,80409,3.07,i
192.17,5003,-29.706,5.71,3669674,11746,80409,3.07,i
192.48,5002,-29.706,5.71,3669977,11747,80409,2.95,i
192.74,4999,-29.706,5.71,3670225,11748,80409,2.92,i
193.01,5002,-29.706,5.71,3670568,11749,80409,2.93,i
193.28,5002,-29.706,5.71,3670823,11750,80409,2.95,i
193.65,5002,-29.706,5.71,3671176,11751,80409,3.06,i
193.89,5001,-29.706,5.71,3671425,11752,80409,3.01,i
194.27,5002,-29.706,5.71,3671778,11753,80409,2.85,i
194.52,5000,-29.706,5.71,3672034,11754,80409,2.91,i
194.95,5003,-29.706,5.71,3672461,11755,80409,2.84,i
195.11,5001,-29.706,5.71,3672607,11756,80409,3.03,i
195.42,5000,-29.706,5.71,3672905,11757,80409,2.85,i
195.65,5002,-29.706,5.71,3673180,11758,80409,2.74,i
196.13,5000,-29.706,5.71,3673615,11759,80409,2.79,i
196.42,5001,-29.706,5.71,3673876,11760,80409,2.84,i
196.63,5002,-29.706,5.71,3674153,11761,80409,2.88,i
197.06,5001,-29.706,5.71,3674566,11762,80409,2.81,i
197.22,5001,-29.706,5.711,3674703,11763,80409,2.97,i
197.52,5001,-29.706,5.711,3675038,11764,80409,2.86,i
197.81,5001,-29.706,5.711,3675302,11765,80409,2.82,i
198.26,5003,-29.706,5.711,3675701,11766,80409,2.82,i
198.48,5001,-29.706,5.711,3675995,11767,80409,2.86,i
198.75,5001,-29.706,5.711,3676271,11768,80409,3.01,i
198.98,5002,-29.706,5.711,3676495,11769,80409,2.7,i
199.36,5002,-29.706,5.711,3676877,11770,80409,2.8,i
199.59,5000,-29.707,5.711,3677124,11771,80409,2.7,i
199.94,5000,-29.706,5.711,3677477,11772,80409,2.71,i
200.29,5004,-29.706,5.711,3677745,11773,80409,2.79,i
200.46,5002,-29.706,5.711,3678005,11774,80409,2.76,i
200.82,4999,-29.706,5.712,3678334,11775,80409,2.73,i
201.14,5002,-29.706,5.712,3678643,11776,80409,2.69,i
201.4,5003,-29.707,5.712,3678912,11777,80409,2.69,i
201.78,5001,-29.706,5.712,3679290,11778,80409,2.65,i
202.11,5001,-29.707,5.713,3679594,11779,80409,2.71,i
