time,adc,distance,mass,millis,samples,steps,force,state
0.0,5001,-29.769,5.738,929891,2935,21120,3.37,i
0.09,5006,-29.769,5.738,929943,2936,21128,3.5,p
0.46,5005,-29.772,5.738,930272,2937,21136,3.81,p
0.68,5001,-29.772,5.738,930553,2938,21144,4.19,p
1.2,5002,-29.779,5.738,931016,2939,21152,4.63,p
1.43,5006,-29.786,5.738,931265,2940,21160,4.93,p
1.7,4996,-29.793,5.738,931493,2941,21167,5.05,p
1.89,5010,-29.797,5.738,931766,2942,21175,5.56,p
2.26,5001,-29.797,5.738,932110,2943,21183,5.7,p
2.64,5007,-29.804,5.738,932439,2944,21191,5.88,p
2.89,5009,-29.81,5.738,932736,2945,21199,5.87,p
3.15,5003,-29.814,5.738,932975,2946,21206,6.27,p
3.56,5007,-29.821,5.738,933359,2947,21214,6.23,p
3.78,5001,-29.821,5.738,933626,2948,21222,6.6,p
4.02,5004,-29.828,5.738,933851,2949,21230,6.54,p
4.39,5000,-29.835,5.738,934231,2950,21238,6.83,p
4.84,4999,-29.842,5.738,934624,2951,21245,7.0,p
4.93,5004,-29.842,5.738,934763,2952,21253,7.29,p
5.6,5003,-29.848,5.738,935206,2953,21261,7.35,p
5.8,5007,-29.848,5.738,935543,2954,21269,7.46,p
6.13,5004,-29.856,5.738,935732,2955,21277,7.41,p
6.35,5005,-29.863,5.738,936055,2956,21284,7.9,p
6.61,4998,-29.863,5.738,936312,2957,21292,8.15,p
7.0,5002,-29.87,5.738,936575,2958,21300,8.31,p
7.3,5003,-29.877,5.738,936968,2959,21308,8.21,p
7.43,5005,-29.877,5.738,937243,2960,21316,8.42,p
7.68,5007,-29.883,5.738,937496,2961,21323,8.61,p
7.93,5013,-29.89,5.738,937766,2962,21331,8.58,p
8.28,5007,-29.89,5.738,938084,2963,21339,8.84,p
8.64,5003,-29.897,5.738,938479,2964,21347,9.17,p
8.87,5002,-29.904,5.739,938693,2965,21355,9.14,p
9.23,5010,-29.904,5.739,939103,2966,21362,9.29,p
9.45,5007,-29.911,5.739,939304,2967,21370,9.45,p
9.82,5001,-29.918,5.739,939667,2968,21378,9.46,p
10.07,5007,-29.922,5.739,939882,2969,21386,9.55,p
10.35,5003,-29.922,5.739,940178,2970,21394,9.69,p
10.74,5007,-29.929,5.74,940513,2971,21401,9.94,p
10.99,5004,-29.936,5.74,940796,2972,21409,9.96,p
11.23,5005,-29.936,5.74,941064,2973,21417,10.17,p
11.58,4997,-29.942,5.741,941383,2974,21425,10.31,p
11.92,5005,-29.95,5.741,941769,2975,21433,10.27,p
12.21,4999,-29.957,5.741,942015,2976,21440,10.72,p
12.42,5003,-29.957,5.741,942274,2977,21448,10.46,p
12.82,5001,-29.963,5.741,942649,2978,21456,10.72,p
13.07,5008,-29.963,5.741,942921,2979,21464,10.92,p
13.45,5003,-29.97,5.742,943294,2980,21472,10.95,p
13.68,5005,-29.978,5.742,943485,2981,21480,11.16,p
13.98,5000,-29.984,5.742,943768,2982,21487,11.0,p
14.37,5004,-29.988,5.742,944168,2983,21495,11.25,p
14.61,5001,-29.988,5.743,944437,2984,21503,11.5,p
14.96,5007,-29.999,5.743,944746,2985,21511,11.66,p
15.22,5004,-29.999,5.743,945044,2986,21519,11.63,p
15.43,5009,-30.006,5.743,945268,2987,21526,11.53,p
15.85,5006,-30.014,5.744,945662,2988,21534,11.58,p
16.08,5006,-30.014,5.744,945920,2989,21542,11.8,p
16.31,5000,-30.02,5.745,946199,2990,21550,11.99,p
16.71,5000,-30.02,5.745,946574,2991,21558,12.07,p
17.02,5001,-30.028,5.745,946852,2992,21565,12.21,p
17.26,5003,-30.035,5.746,947115,2993,21573,12.18,p
17.59,5005,-30.041,5.746,947465,2994,21581,12.19,p
17.94,4999,-30.041,5.746,947746,2995,21589,12.24,p
18.17,5001,-30.049,5.747,948044,2996,21597,12.32,p
18.56,5008,-30.056,5.747,948366,2997,21604,12.44,p
18.81,4998,-30.06,5.748,948662,2998,21612,12.35,p
19.13,5010,-30.065,5.748,948921,2999,21620,12.84,p
19.4,5007,-30.065,5.749,949219,3000,21628,12.77,p
19.62,5001,-30.072,5.749,949479,3001,21636,12.93,p
20.02,5009,-30.079,5.75,949825,3002,21643,12.76,p
20.27,5001,-30.079,5.75,950097,3003,21651,13.03,p
20.64,5002,-30.086,5.751,950491,3004,21659,12.99,p
20.93,5004,-30.093,5.751,950726,3005,21667,13.14,p
21.27,5004,-30.097,5.751,951128,3006,21675,13.15,p
21.55,5000,-30.105,5.752,951356,3007,21682,13.24,p
21.77,5006,-30.105,5.752,951606,3008,21690,13.46,p
22.09,5005,-30.112,5.753,951902,3009,21698,13.58,p
22.55,5007,-30.118,5.753,952340,3010,21706,13.54,p
22.71,5002,-30.118,5.754,952492,3011,21714,13.69,p
23.05,5010,-30.126,5.754,952856,3012,21721,13.69,p
23.28,5005,-30.126,5.755,953134,3013,21729,13.89,p
23.64,5007,-30.133,5.756,953533,3014,21737,13.81,p
23.88,5010,-30.14,5.756,953751,3015,21745,13.78,p
24.15,5005,-30.14,5.756,953983,3016,21753,13.96,p
24.53,5002,-30.147,5.757,954306,3017,21760,13.91,p
24.9,5010,-30.154,5.758,954673,3018,21768,14.16,p
25.12,5003,-30.161,5.758,954969,3019,21776,14.05,p
25.54,5008,-30.168,5.759,955356,3020,21784,14.01,p
25.8,5004,-30.168,5.76,955595,3021,21792,13.83,p
26.0,5004,-30.175,5.76,955826,3022,21800,14.01,p
26.42,5000,-30.175,5.761,956231,3023,21807,14.09,p
26.68,5006,-30.182,5.761,956485,3024,21815,14.34,p
26.94,5001,-30.189,5.762,956707,3025,21823,14.3,p
27.26,5009,-30.189,5.762,957118,3026,21831,14.27,p
27.5,5010,-30.196,5.763,957350,3027,21839,14.29,p
27.75,5005,-30.203,5.764,957596,3028,21846,14.49,p
28.17,5006,-30.203,5.765,957988,3029,21854,14.53,p
28.39,5003,-30.21,5.765,958271,3030,21862,14.2,p
28.81,4998,-30.217,5.766,958602,3031,21870,14.62,p
29.05,5005,-30.221,5.766,958876,3032,21878,14.88,p
29.38,5004,-30.225,5.767,959175,3033,21885,14.78,p
29.62,5003,-30.233,5.768,959444,3034,21893,14.8,p
29.89,5004,-30.233,5.769,959694,3035,21901,14.88,p
30.31,5005,-30.239,5.77,960115,3036,21909,15.01,p
30.56,5006,-30.246,5.77,960416,3037,21917,14.82,p
30.91,5003,-30.246,5.771,960697,3038,21924,14.89,p
31.22,5003,-30.253,5.772,961014,3039,21932,15.0,p
31.46,5009,-30.26,5.773,961266,3040,21940,14.75,p
31.73,5009,-30.264,5.773,961572,3041,21948,15.05,p
32.01,5003,-30.264,5.774,961829,3042,21956,15.06,p
32.41,5009,-30.272,5.775,962196,3043,21963,15.05,p
32.73,5004,-30.278,5.775,962526,3044,21971,15.12,p
32.94,5008,-30.278,5.776,962768,3045,21979,15.28,p
33.2,5005,-30.286,5.777,963030,3046,21987,15.21,p
33.46,5006,-30.293,5.777,963302,3047,21995,15.19,p
33.82,5000,-30.293,5.778,963643,3048,22002,15.15,p
34.06,5005,-30.3,5.778,963916,3049,22010,15.33,p
34.47,5003,-30.307,5.78,964255,3050,22018,15.46,p
34.72,5007,-30.307,5.78,964555,3051,22026,15.44,p
35.04,5002,-30.314,5.781,964806,3052,22034,15.34,p
35.33,5009,-30.321,5.782,965156,3053,22041,15.35,p
35.61,5009,-30.321,5.782,965453,3054,22049,15.22,p
35.83,5004,-30.328,5.783,965715,3055,22057,15.33,p
36.27,4995,-30.335,5.784,966073,3056,22065,15.54,p
36.57,5006,-30.343,5.785,966355,3057,22073,15.51,p
36.84,5002,-30.343,5.786,966636,3058,22080,15.77,p
37.25,5011,-30.35,5.786,967006,3059,22088,15.71,p
37.44,5000,-30.357,5.787,967283,3060,22096,15.77,p
37.7,5010,-30.357,5.787,967513,3061,22104,15.68,p
38.08,5004,-30.363,5.789,967863,3062,22112,15.73,p
38.3,5008,-30.371,5.79,968148,3063,22119,15.54,p
38.71,4997,-30.371,5.79,968474,3064,22127,15.4,p
38.95,5006,-30.378,5.791,968812,3065,22135,15.57,p
39.33,5002,-30.385,5.792,969130,3066,22143,15.72,p
39.63,5009,-30.392,5.792,969441,3067,22151,15.67,p
39.89,5003,-30.396,5.794,969716,3068,22159,15.77,p
40.19,5009,-30.4,5.794,969995,3069,22166,15.82,p
40.42,5009,-30.4,5.795,970248,3070,22174,15.78,p
40.72,5004,-30.408,5.795,970517,3071,22182,15.71,p
41.11,5000,-30.414,5.797,970930,3072,22190,15.9,p
41.34,5001,-30.414,5.797,971208,3073,22198,15.88,p
41.59,5005,-30.422,5.798,971443,3074,22205,15.93,p
41.92,5004,-30.422,5.799,971789,3075,22213,15.99,p
42.15,5010,-30.429,5.799,972014,3076,22221,15.71,p
42.52,5002,-30.435,5.801,972392,3077,22229,15.83,p
42.79,5008,-30.435,5.802,972624,3078,22237,15.99,p
43.1,5004,-30.443,5.802,972915,3079,22244,15.96,p
43.5,5003,-30.45,5.803,973313,3080,22252,15.89,p
43.71,5008,-30.457,5.804,973532,3081,22260,16.0,p
44.04,5001,-30.457,5.805,973899,3082,22268,15.92,p
44.29,4999,-30.464,5.806,974127,3083,22276,16.03,p
44.68,5005,-30.471,5.807,974472,3084,22283,16.08,p
44.92,5014,-30.476,5.808,974789,3085,22291,16.12,p
45.24,5007,-30.476,5.808,975065,3086,22299,16.09,p
45.61,5008,-30.483,5.809,975406,3087,22307,16.19,p
45.88,5003,-30.49,5.81,975707,3088,22315,16.09,p
46.13,4997,-30.494,5.811,975946,3089,22322,16.2,p
46.49,5003,-30.502,5.812,976333,3090,22330,16.14,p
46.68,5001,-30.502,5.812,976525,3091,22338,16.11,p
47.06,5009,-30.506,5.814,976924,3092,22346,16.11,p
47.31,5004,-30.513,5.814,977143,3093,22354,16.3,p
47.68,5004,-30.52,5.815,977532,3094,22361,15.99,p
47.9,5008,-30.52,5.816,977754,3095,22369,16.11,p
48.19,5005,-30.528,5.817,978045,3096,22377,16.17,p
48.58,4999,-30.535,5.818,978409,3097,22385,16.3,p
48.82,5004,-30.535,5.818,978668,3098,22393,16.06,p
49.1,5005,-30.542,5.819,978924,3099,22400,16.31,p
49.53,5006,-30.55,5.821,979341,3100,22408,16.33,p
49.79,5001,-30.55,5.821,979616,3101,22416,16.48,p
50.12,5006,-30.557,5.822,979911,3102,22424,16.3,p
50.36,5005,-30.564,5.822,980174,3103,22432,16.25,p
50.65,5006,-30.564,5.824,980455,3104,22439,16.31,p
50.92,5002,-30.571,5.825,980808,3105,22447,16.31,p
51.31,5004,-30.576,5.825,981165,3106,22455,16.44,p
51.65,5002,-30.583,5.827,981458,3107,22463,16.39,p
51.85,5005,-30.583,5.827,981739,3108,22471,16.39,p
52.16,5007,-30.591,5.828,981931,3109,22478,16.3,p
52.47,5006,-30.598,5.829,982294,3110,22486,16.44,p
52.82,5003,-30.602,5.83,982670,3111,22494,16.32,p
53.09,5005,-30.609,5.831,982897,3112,22502,16.19,p
53.37,5003,-30.609,5.832,983154,3113,22510,16.48,p
53.77,5002,-30.617,5.832,983546,3114,22517,16.22,p
54.02,5004,-30.624,5.833,983835,3115,22525,16.53,p
54.27,5001,-30.628,5.834,984126,3116,22533,16.41,p
54.59,5006,-30.628,5.835,984375,3117,22541,16.34,p
54.86,5003,-30.635,5.836,984662,3118,22549,16.26,p
55.3,5004,-30.642,5.837,985089,3119,22557,16.42,p
55.57,5003,-30.65,5.838,985362,3120,22564,16.39,p
55.72,5011,-30.65,5.838,985576,3121,22572,16.59,p
56.09,5001,-30.657,5.84,985945,3122,22580,16.71,p
56.37,5006,-30.657,5.84,986184,3123,22588,16.53,p
56.72,5000,-30.664,5.842,986543,3124,22596,16.64,p
57.02,5009,-30.671,5.842,986825,3125,22603,16.54,p
57.28,5012,-30.671,5.843,987139,3126,22611,16.58,p
57.65,5009,-30.678,5.845,987474,3127,22619,16.64,p
57.86,5005,-30.686,5.845,987696,3128,22627,16.6,p
58.28,5004,-30.69,5.846,988036,3129,22635,16.67,p
58.53,5000,-30.697,5.847,988349,3130,22642,16.6,p
58.81,5007,-30.697,5.848,988543,3131,22650,16.55,p
59.21,5000,-30.704,5.849,989001,3132,22658,16.69,p
59.33,5010,-30.704,5.849,989154,3133,22666,16.56,p
59.73,5009,-30.711,5.851,989530,3134,22674,16.54,p
59.93,5009,-30.718,5.851,989804,3135,22681,16.6,p
60.39,5004,-30.726,5.853,990146,3136,22689,16.71,p
60.62,5009,-30.726,5.853,990456,3137,22697,16.45,p
60.86,4996,-30.733,5.854,990708,3138,22705,16.58,p
61.16,5004,-30.74,5.855,990944,3139,22713,16.76,p
61.52,5002,-30.74,5.856,991357,3140,22720,16.61,p
61.84,5007,-30.747,5.857,991624,3141,22728,16.43,p
62.07,5006,-30.754,5.857,991916,3142,22736,16.59,p
62.37,5010,-30.754,5.859,992162,3143,22744,16.58,p
62.7,5003,-30.761,5.86,992533,3144,22752,16.5,p
62.97,5006,-30.768,5.861,992790,3145,22759,16.49,p
63.26,5008,-30.773,5.861,993069,3146,22767,16.58,p
63.53,5003,-30.773,5.862,993366,3147,22775,16.74,p
63.84,5000,-30.78,5.863,993648,3148,22783,16.47,p
64.19,5010,-30.787,5.865,994025,3149,22791,16.87,p
64.44,5007,-30.787,5.865,994272,3150,22798,16.59,p
64.77,5004,-30.798,5.866,994606,3151,22806,16.69,p
65.01,5002,-30.798,5.866,994855,3152,22814,16.43,p
65.37,5005,-30.806,5.868,995185,3153,22822,16.61,p
65.56,5007,-30.806,5.869,995447,3154,22830,16.61,p
65.93,5007,-30.813,5.869,995750,3155,22837,16.77,p
66.23,5007,-30.82,5.87,996056,3156,22845,16.77,p
66.65,5003,-30.827,5.872,996455,3157,22853,16.66,p
66.88,5007,-30.827,5.872,996740,3158,22861,16.86,p
67.13,5003,-30.834,5.872,996991,3159,22869,16.78,p
67.43,5009,-30.841,5.874,997262,3160,22876,16.81,p
67.77,5005,-30.841,5.875,997647,3161,22884,16.85,p
68.18,5001,-30.849,5.876,997967,3162,22892,16.71,p
68.45,5000,-30.856,5.877,998270,3163,22900,16.81,p
68.7,5005,-30.856,5.878,998536,3164,22908,16.48,p
68.9,5002,-30.863,5.878,998765,3165,22915,16.56,p
69.26,5007,-30.87,5.879,999102,3166,22923,16.8,p
69.67,5003,-30.877,5.881,999482,3167,22931,16.69,p
69.89,5009,-30.877,5.881,999720,3168,22939,16.76,p
70.15,5004,-30.884,5.882,999976,3169,22947,16.78,p
70.42,5007,-30.889,5.883,1000263,3170,22955,16.67,p
70.85,5003,-30.896,5.884,1000674,3171,22962,16.81,p
71.08,5005,-30.896,5.884,1000922,3172,22970,16.96,p
71.38,4999,-30.903,5.885,1001216,3173,22978,16.65,p
71.68,5008,-30.91,5.887,1001462,3174,22986,16.6,p
72.0,5001,-30.914,5.888,1001835,3175,22994,16.67,p
72.36,5010,-30.914,5.889,1002201,3176,23001,16.56,p
72.63,5005,-30.921,5.889,1002416,3177,23009,16.74,p
72.88,5005,-30.928,5.891,1002705,3178,23017,16.82,p
73.19,4999,-30.933,5.891,1003009,3179,23025,16.81,p
73.49,5006,-30.933,5.893,1003296,3180,23033,16.88,p
73.72,5002,-30.94,5.893,1003581,3181,23040,16.91,p
74.03,5007,-30.947,5.894,1003868,3182,23048,16.81,p
74.4,5004,-30.947,5.896,1004223,3183,23056,16.76,p
74.64,5007,-30.954,5.896,1004476,3184,23064,16.94,p
75.01,5005,-30.96,5.898,1004887,3185,23072,16.71,p
75.3,5004,-30.965,5.899,1005102,3186,23079,16.76,p
75.6,4998,-30.972,5.899,1005404,3187,23087,16.67,p
75.94,5002,-30.972,5.9,1005803,3188,23095,16.77,p
76.2,5006,-30.979,5.901,1006024,3189,23103,16.71,p
76.44,4999,-30.979,5.902,1006296,3190,23111,16.6,p
76.79,5007,-30.987,5.903,1006637,3191,23118,16.83,p
77.05,5011,-30.994,5.903,1006894,3192,23126,16.67,p
77.45,5007,-31.001,5.905,1007275,3193,23134,16.74,p
77.64,5005,-31.001,5.906,1007466,3194,23142,16.69,p
78.05,4999,-31.008,5.907,1007856,3195,23150,16.69,p
78.25,4999,-31.015,5.907,1008093,3196,23157,16.93,p
78.61,5000,-31.015,5.908,1008472,3197,23165,17.03,p
78.85,5006,-31.022,5.909,1008742,3198,23173,17.04,p
79.16,5002,-31.029,5.91,1008976,3199,23181,16.58,p
79.55,5005,-31.029,5.911,1009396,3200,23189,16.69,p
79.76,5009,-31.036,5.912,1009629,3201,23196,16.64,p
80.06,5004,-31.044,5.913,1009902,3202,23204,16.92,p
80.45,4999,-31.051,5.914,1010286,3203,23212,16.85,p
80.7,4999,-31.051,5.914,1010556,3204,23220,16.8,p
80.93,5007,-31.059,5.915,1010816,3205,23228,16.78,p
81.3,4999,-31.059,5.916,1011138,3206,23235,16.85,p
81.69,5004,-31.066,5.918,1011511,3207,23243,16.72,p
81.98,5009,-31.073,5.918,1011778,3208,23251,16.69,p
82.19,5006,-31.073,5.919,1012065,3209,23259,16.66,p
82.52,5004,-31.08,5.92,1012325,3210,23267,16.93,p
82.84,5005,-31.087,5.921,1012650,3211,23274,16.45,p
83.09,4999,-31.087,5.921,1012959,3212,23282,16.87,p
83.41,5005,-31.094,5.922,1013193,3213,23290,16.82,p
83.73,5000,-31.102,5.924,1013506,3214,23298,16.92,p
83.99,5008,-31.102,5.924,1013823,3215,23306,16.91,p
84.34,5003,-31.109,5.925,1014146,3216,23313,16.8,p
84.63,5008,-31.116,5.926,1014420,3217,23321,16.8,p
84.85,5007,-31.116,5.927,1014719,3218,23329,16.78,p
85.21,5007,-31.124,5.928,1015033,3219,23337,16.52,p
85.45,5000,-31.13,5.928,1015303,3220,23345,17.09,p
85.78,5005,-31.13,5.929,1015642,3221,23352,16.77,p
86.11,5001,-31.138,5.931,1015908,3222,23360,17.0,p
86.4,5004,-31.145,5.932,1016213,3223,23368,16.78,p
86.8,5002,-31.152,5.933,1016596,3224,23376,16.63,p
87.08,5008,-31.152,5.934,1016889,3225,23384,16.86,p
87.3,5008,-31.159,5.935,1017105,3226,23392,16.81,p
87.59,5004,-31.159,5.935,1017396,3227,23399,16.8,p
87.99,5000,-31.166,5.936,1017809,3228,23407,17.08,p
88.2,5006,-31.173,5.937,1018067,3229,23415,16.86,p
88.44,5009,-31.173,5.938,1018281,3230,23423,16.92,p
88.76,5003,-31.181,5.939,1018585,3231,23431,16.82,p
89.13,5007,-31.188,5.94,1018944,3232,23438,16.7,p
89.38,5003,-31.195,5.941,1019237,3233,23446,16.7,p
89.77,5007,-31.195,5.942,1019596,3234,23454,16.94,p
90.06,5007,-31.202,5.943,1019876,3235,23462,17.04,p
90.34,5002,-31.209,5.944,1020154,3236,23470,17.07,p
90.6,5013,-31.209,5.945,1020437,3237,23477,16.82,p
90.96,5001,-31.221,5.946,1020766,3238,23485,16.75,p
91.26,5006,-31.221,5.947,1021056,3239,23493,16.63,p
91.52,5009,-31.227,5.948,1021333,3240,23501,16.53,p
91.82,5012,-31.227,5.948,1021602,3241,23509,16.99,p
92.09,5009,-31.234,5.949,1021905,3242,23516,16.87,p
92.45,5004,-31.242,5.95,1022263,3243,23524,16.64,p
92.73,5006,-31.242,5.951,1022496,3244,23532,16.82,p
93.03,5006,-31.249,5.952,1022912,3245,23540,17.0,p
93.25,5006,-31.256,5.952,1023116,3246,23548,16.83,p
93.68,5003,-31.264,5.954,1023483,3247,23555,16.96,p
93.9,5009,-31.268,5.955,1023748,3248,23563,16.89,p
94.26,5002,-31.268,5.956,1024077,3249,23571,16.89,p
94.47,5010,-31.275,5.957,1024311,3250,23579,17.02,p
94.9,5006,-31.282,5.957,1024702,3251,23587,16.92,p
95.1,5005,-31.282,5.959,1024948,3252,23594,16.91,p
95.36,4997,-31.289,5.96,1025201,3253,23602,16.85,p
95.78,5006,-31.297,5.961,1025592,3254,23610,16.85,p
96.08,5001,-31.297,5.961,1025896,3255,23618,16.89,p
96.31,5009,-31.304,5.962,1026156,3256,23626,16.81,p
96.59,5004,-31.31,5.963,1026416,3257,23633,16.96,p
96.99,5009,-31.315,5.965,1026806,3258,23641,16.93,p
97.24,5004,-31.322,5.965,1027064,3259,23649,16.98,p
97.52,5007,-31.322,5.966,1027327,3260,23657,17.02,p
97.88,5000,-31.329,5.967,1027666,3261,23665,16.88,p
98.11,5006,-31.329,5.968,1027975,3262,23672,16.98,p
98.52,5000,-31.337,5.969,1028283,3263,23680,17.02,p
98.81,5009,-31.344,5.97,1028595,3264,23688,16.92,p
99.07,5001,-31.351,5.971,1028876,3265,23696,17.0,p
99.36,5007,-31.355,5.972,1029144,3266,23704,16.76,p
99.66,5005,-31.355,5.973,1029462,3267,23711,16.76,p
99.95,5006,-31.362,5.974,1029760,3268,23719,16.77,p
100.3,4996,-31.369,5.975,1030087,3269,23727,16.76,p
100.57,5009,-31.369,5.975,1030393,3270,23735,16.92,p
100.87,5001,-31.377,5.976,1030676,3271,23743,16.88,p
101.13,5003,-31.384,5.977,1030973,3272,23750,16.96,p
101.44,5005,-31.384,5.978,1031232,3273,23758,16.86,p
101.68,5008,-31.39,5.979,1031516,3274,23766,16.88,p
102.06,5008,-31.395,5.98,1031852,3275,23774,16.88,p
102.34,5004,-31.402,5.981,1032147,3276,23782,16.87,p
102.57,5010,-31.402,5.981,1032433,3277,23789,17.07,p
103.06,5011,-31.409,5.983,1032855,3278,23797,16.99,p
103.2,5002,-31.416,5.983,1033002,3279,23805,17.08,p
103.6,5006,-31.424,5.985,1033428,3280,23813,17.15,p
103.92,5003,-31.424,5.986,1033708,3281,23821,16.81,p
104.19,5005,-31.43,5.986,1034004,3282,23829,16.94,p
104.45,5001,-31.438,5.987,1034297,3283,23836,16.97,p
104.77,5004,-31.438,5.988,1034546,3284,23844,16.86,p
105.0,5006,-31.445,5.989,1034805,3285,23852,16.76,p
105.41,5001,-31.452,5.99,1035196,3286,23860,16.81,p
105.59,5004,-31.452,5.991,1035424,3287,23868,17.19,p
105.99,5005,-31.46,5.991,1035821,3288,23875,17.07,p
106.21,5010,-31.466,5.993,1036035,3289,23883,16.75,p
106.51,5001,-31.471,5.994,1036387,3290,23891,16.8,p
106.92,5003,-31.471,5.995,1036760,3291,23899,17.04,p
107.21,5005,-31.478,5.996,1036973,3292,23907,16.98,p
107.49,5008,-31.485,5.996,1037282,3293,23914,17.1,p
107.7,4995,-31.485,5.997,1037553,3294,23922,16.94,p
108.08,5006,-31.492,5.998,1037896,3295,23930,17.03,p
108.38,5002,-31.5,5.999,1038207,3296,23938,17.05,p
108.64,5010,-31.5,6.0,1038465,3297,23946,16.98,p
109.1,5012,-31.511,6.001,1038844,3298,23953,16.98,p
109.25,5008,-31.515,6.002,1039053,3299,23961,17.09,p
109.54,5006,-31.515,6.003,1039434,3300,23969,16.87,p
109.86,5006,-31.523,6.003,1039654,3301,23977,16.87,p
110.19,4998,-31.529,6.005,1040034,3302,23985,17.08,p
110.41,5006,-31.529,6.006,1040272,3303,23992,16.96,p
110.92,5007,-31.537,6.008,1040697,3304,24000,17.29,p
111.04,5010,-31.544,6.008,1040856,3305,24008,17.02,p
111.35,5004,-31.544,6.009,1041172,3306,24016,16.81,p
111.58,5001,-31.551,6.01,1041425,3307,24024,17.04,p
111.94,5005,-31.559,6.01,1041729,3308,24031,16.93,p
112.31,5008,-31.559,6.012,1042134,3309,24039,17.05,p
112.51,5001,-31.566,6.012,1042376,3310,24047,16.82,p
112.74,4999,-31.573,6.013,1042626,3311,24055,17.05,p
113.15,5007,-31.578,6.014,1042994,3312,24063,17.02,p
113.49,5004,-31.578,6.015,1043285,3313,24070,17.1,p
113.67,5007,-31.585,6.016,1043524,3314,24078,16.91,p
114.05,5003,-31.592,6.018,1043887,3315,24086,17.15,p
114.32,5003,-31.592,6.018,1044126,3316,24094,16.8,p
114.69,5007,-31.6,6.02,1044497,3317,24102,17.02,p
114.98,5001,-31.606,6.02,1044795,3318,24109,17.08,p
115.19,4998,-31.606,6.021,1045037,3319,24117,17.03,p
115.57,5003,-31.614,6.022,1045385,3320,24125,16.89,p
115.96,5005,-31.621,6.023,1045766,3321,24133,17.11,p
116.23,5007,-31.628,6.024,1046068,3322,24141,16.8,p
116.46,5004,-31.628,6.025,1046321,3323,24148,17.0,p
116.73,5010,-31.635,6.026,1046571,3324,24156,17.05,p
117.0,5006,-31.635,6.026,1046844,3325,24164,17.2,p
117.38,5008,-31.643,6.028,1047200,3326,24172,16.92,p
117.68,5011,-31.65,6.029,1047526,3327,24180,16.82,p
117.92,5008,-31.65,6.03,1047760,3328,24187,16.98,p
118.33,5008,-31.658,6.031,1048127,3329,24195,17.33,p
118.55,5008,-31.665,6.032,1048353,3330,24203,16.94,p
118.96,5003,-31.672,6.033,1048751,3331,24211,16.94,p
119.29,5007,-31.679,6.034,1049145,3332,24219,17.25,p
119.44,5004,-31.679,6.034,1049256,3333,24226,16.94,p
119.8,5005,-31.687,6.035,1049661,3334,24234,17.11,p
120.13,5011,-31.694,6.037,1049926,3335,24242,16.78,p
120.38,5007,-31.694,6.037,1050216,3336,24250,17.11,p
120.74,5001,-31.701,6.038,1050538,3337,24258,17.16,p
120.94,5009,-31.701,6.039,1050813,3338,24266,17.15,p
121.34,5013,-31.708,6.04,1051171,3339,24273,17.11,p
121.62,5008,-31.715,6.042,1051444,3340,24281,16.98,p
121.94,5005,-31.722,6.042,1051728,3341,24289,17.31,p
122.17,5005,-31.722,6.042,1051991,3342,24297,17.22,p
122.54,5013,-31.73,6.044,1052356,3343,24303,17.0,p
122.79,5013,-31.735,6.045,1052645,3344,24303,16.94,i
123.06,5011,-31.735,6.046,1052891,3345,24303,16.54,i
123.42,5014,-31.736,6.047,1053232,3346,24303,15.99,i
123.64,5015,-31.736,6.047,1053476,3347,24303,15.82,i
123.96,5013,-31.736,6.048,1053735,3348,24303,15.45,i
124.28,5014,-31.736,6.049,1054060,3349,24303,15.02,i
124.63,5013,-31.736,6.05,1054438,3350,24303,14.71,i
124.9,5014,-31.737,6.051,1054715,3351,24303,14.6,i
125.21,5012,-31.737,6.052,1055016,3352,24303,14.28,i
125.44,5015,-31.737,6.053,1055257,3353,24303,14.01,i
125.73,5014,-31.738,6.054,1055561,3354,24303,13.58,i
126.04,5015,-31.738,6.054,1055849,3355,24303,13.43,i
126.39,5012,-31.738,6.056,1056224,3356,24303,13.1,i
126.79,5014,-31.738,6.057,1056585,3357,24303,12.8,i
126.98,5013,-31.738,6.057,1056757,3358,24303,12.77,i
127.25,5013,-31.738,6.059,1057059,3359,24303,12.38,i
127.65,5015,-31.739,6.059,1057483,3360,24303,12.18,i
127.9,5010,-31.739,6.06,1057692,3361,24303,11.98,i
128.15,5012,-31.739,6.061,1057984,3362,24303,11.93,i
128.59,5013,-31.739,6.063,1058358,3363,24303,11.69,i
128.73,5013,-31.739,6.063,1058544,3364,24303,11.58,i
129.16,5012,-31.74,6.064,1058966,3365,24303,11.42,i
129.43,5014,-31.74,6.065,1059248,3366,24303,11.27,i
129.72,5013,-31.74,6.066,1059544,3367,24303,11.12,i
129.92,5011,-31.74,6.067,1059756,3368,24303,10.95,i
130.31,5011,-31.74,6.067,1060155,3369,24303,10.56,i
130.69,5013,-31.74,6.069,1060485,3370,24303,10.76,i
131.05,5012,-31.74,6.07,1060834,3371,24303,10.49,i
131.12,5011,-31.741,6.07,1060993,3372,24303,10.4,i
131.56,5012,-31.741,6.071,1061346,3373,24303,10.39,i
131.81,5015,-31.741,6.072,1061635,3374,24303,10.09,i
132.02,5014,-31.741,6.072,1061886,3375,24303,10.09,i
132.46,5013,-31.741,6.073,1062303,3376,24303,9.85,i
132.77,5012,-31.741,6.074,1062521,3377,24303,9.8,i
132.96,5011,-31.741,6.074,1062800,3378,24303,9.69,i
133.33,5012,-31.741,6.076,1063156,3379,24303,9.45,i
133.65,5013,-31.741,6.077,1063394,3380,24303,9.38,i
133.83,5013,-31.742,6.077,1063684,3381,24303,9.45,i
134.13,5013,-31.742,6.078,1063970,3382,24303,9.18,i
134.49,5014,-31.742,6.078,1064345,3383,24303,9.3,i
134.83,5011,-31.742,6.079,1064604,3384,24303,9.06,i
135.09,5014,-31.742,6.079,1064895,3385,24303,9.03,i
135.47,5013,-31.742,6.081,1065246,3386,24303,8.96,i
135.74,5013,-31.742,6.081,1065530,3387,24303,8.68,i
136.0,5013,-31.742,6.082,1065830,3388,24303,8.74,i
136.3,5013,-31.742,6.082,1066094,3389,24303,8.62,i
136.61,5012,-31.742,6.083,1066422,3390,24303,8.3,i
136.91,5014,-31.742,6.083,1066691,3391,24303,8.48,i
137.14,5013,-31.743,6.084,1066982,3392,24303,8.31,i
137.51,5011,-31.743,6.085,1067383,3393,24303,8.57,i
137.8,5011,-31.743,6.085,1067614,3394,24303,8.39,i
138.04,5013,-31.743,6.085,1067892,3395,24303,8.2,i
138.37,5012,-31.743,6.086,1068222,3396,24303,8.09,i
138.83,5013,-31.743,6.087,1068619,3397,24303,8.06,i
138.97,5012,-31.743,6.087,1068784,3398,24303,8.1,i
139.27,5014,-31.743,6.087,1069108,3399,24303,7.9,i
139.67,5014,-31.743,6.088,1069472,3400,24303,7.97,i
139.92,5015,-31.744,6.088,1069756,3401,24303,7.79,i
140.21,5013,-31.744,6.089,1070013,3402,24303,7.77,i
140.48,5014,-31.744,6.089,1070285,3403,24303,7.63,i
140.77,5013,-31.744,6.09,1070575,3404,24303,7.52,i
141.05,5015,-31.744,6.09,1070924,3405,24303,7.48,i
141.36,5012,-31.744,6.091,1071206,3406,24303,7.41,i
141.76,5015,-31.744,6.091,1071554,3407,24303,7.49,i
142.04,5013,-31.744,6.092,1071811,3408,24303,7.33,i
142.31,5012,-31.744,6.092,1072107,3409,24303,7.27,i
142.65,5010,-31.744,6.092,1072494,3410,24303,7.31,i
142.96,5013,-31.744,6.093,1072781,3411,24303,7.29,i
143.24,5013,-31.745,6.093,1073072,3412,24303,6.92,i
143.48,5012,-31.745,6.093,1073316,3413,24303,7.19,i
143.75,5013,-31.745,6.093,1073617,3414,24303,7.22,i
144.13,5012,-31.745,6.094,1073917,3415,24303,6.99,i
144.4,5012,-31.745,6.094,1074234,3416,24303,7.05,i
144.69,5016,-31.745,6.095,1074523,3417,24303,6.89,i
144.94,5011,-31.745,6.095,1074812,3418,24303,6.85,i
145.3,5013,-31.745,6.095,1075126,3419,24303,6.91,i
145.63,5013,-31.745,6.096,1075474,3420,24303,6.76,i
145.93,5013,-31.745,6.096,1075709,3421,24303,6.66,i
146.19,5012,-31.745,6.096,1075985,3422,24303,6.64,i
146.51,5015,-31.745,6.097,1076326,3423,24303,6.75,i
146.86,5012,-31.745,6.097,1076657,3424,24303,6.6,i
147.12,5012,-31.745,6.097,1076936,3425,24303,6.61,i
147.36,5012,-31.745,6.097,1077222,3426,24303,6.55,i
147.68,5015,-31.745,6.098,1077481,3427,24303,6.63,i
147.91,5011,-31.746,6.098,1077768,3428,24303,6.6,i
148.28,5014,-31.746,6.098,1078125,3429,24303,6.45,i
148.51,5012,-31.746,6.098,1078381,3430,24303,6.54,i
148.89,5013,-31.746,6.099,1078724,3431,24303,6.45,i
149.31,5013,-31.746,6.099,1079160,3432,24303,6.33,i
149.5,5013,-31.746,6.099,1079274,3433,24303,6.26,i
149.82,5013,-31.746,6.099,1079636,3434,24303,6.26,i
150.11,5012,-31.746,6.1,1079926,3435,24303,6.12,i
150.35,5014,-31.746,6.1,1080222,3436,24303,6.17,i
150.67,5013,-31.746,6.1,1080517,3437,24303,6.14,i
151.09,5013,-31.746,6.1,1080876,3438,24303,6.19,i
151.31,5014,-31.746,6.101,1081165,3439,24303,6.09,i
151.66,5011,-31.746,6.101,1081529,3440,24303,5.99,i
151.91,5015,-31.746,6.101,1081711,3441,24303,6.05,i
152.31,5012,-31.746,6.101,1082135,3442,24303,6.05,i
152.59,5013,-31.746,6.101,1082406,3443,24303,6.05,i
152.8,5013,-31.747,6.101,1082638,3444,24303,5.89,i
153.04,5014,-31.746,6.101,1082885,3445,24303,6.01,i
153.44,5013,-31.747,6.102,1083270,3446,24303,5.81,i
153.68,5011,-31.747,6.102,1083501,3447,24303,5.97,i
154.0,5012,-31.747,6.102,1083788,3448,24303,5.84,i
154.34,5012,-31.747,6.103,1084167,3449,24303,5.84,i
154.6,5014,-31.747,6.103,1084454,3450,24303,5.83,i
154.97,5014,-31.747,6.103,1084766,3451,24303,5.73,i
155.29,5012,-31.747,6.103,1085077,3452,24303,5.66,i
155.6,5012,-31.747,6.103,1085420,3453,24303,5.76,i
155.85,5013,-31.747,6.104,1085680,3454,24303,5.66,i
156.12,5014,-31.747,6.104,1085933,3455,24303,5.68,i
156.49,5011,-31.747,6.104,1086333,3456,24303,5.66,i
156.82,5012,-31.747,6.105,1086612,3457,24303,5.55,i
157.07,5013,-31.747,6.105,1086884,3458,24303,5.53,i
157.34,5013,-31.747,6.105,1087142,3459,24303,5.71,i
157.63,5013,-31.747,6.105,1087415,3460,24303,5.54,i
157.91,5012,-31.747,6.105,1087701,3461,24303,5.39,i
158.16,5015,-31.747,6.105,1087996,3462,24303,5.46,i
158.5,5012,-31.747,6.106,1088346,3463,24303,5.38,i
158.88,5010,-31.747,6.106,1088716,3464,24303,5.42,i
159.16,5012,-31.747,6.106,1088957,3465,24303,5.51,i
159.41,5013,-31.747,6.106,1089215,3466,24303,5.51,i
159.74,5013,-31.747,6.106,1089501,3467,24303,5.43,i
160.05,5012,-31.747,6.106,1089836,3468,24303,5.33,i
160.27,5013,-31.747,6.106,1090124,3469,24303,5.29,i
160.59,5012,-31.748,6.106,1090435,3470,24303,5.4,i
160.81,5014,-31.747,6.107,1090688,3471,24303,5.32,i
161.19,5011,-31.748,6.107,1090995,3472,24303,5.24,i
161.54,5012,-31.748,6.107,1091386,3473,24303,5.21,i
161.83,5013,-31.748,6.107,1091625,3474,24303,5.21,i
162.03,5012,-31.748,6.107,1091889,3475,24303,5.34,i
162.39,5012,-31.748,6.107,1092234,3476,24303,5.23,i
162.66,5013,-31.748,6.107,1092525,3477,24303,5.17,i
163.07,5014,-31.748,6.108,1092879,3478,24303,5.22,i
163.33,5011,-31.748,6.108,1093210,3479,24303,5.2,i
163.61,5013,-31.748,6.108,1093446,3480,24303,5.13,i
163.9,5012,-31.748,6.108,1093743,3481,24303,5.02,i
164.18,5014,-31.748,6.109,1093996,3482,24303,5.12,i
164.54,5013,-31.748,6.109,1094383,3483,24303,5.07,i
164.83,5014,-31.748,6.109,1094687,3484,24303,5.11,i
165.13,5013,-31.748,6.109,1094917,3485,24303,4.95,i
165.41,5014,-31.748,6.109,1095205,3486,24303,5.04,i
165.79,5015,-31.748,6.11,1095604,3487,24303,4.99,i
166.03,5014,-31.748,6.11,1095861,3488,24303,5.01,i
166.27,5010,-31.748,6.11,1096116,3489,24303,5.12,i
166.68,5011,-31.748,6.11,1096493,3490,24303,5.16,i
166.89,5012,-31.748,6.11,1096705,3491,24303,4.91,i
167.31,5015,-31.748,6.11,1097126,3492,24303,4.73,i
167.58,5012,-31.748,6.11,1097434,3493,24303,4.91,i
167.83,5016,-31.748,6.111,1097680,3494,24303,5.06,i
168.1,5011,-31.748,6.111,1097924,3495,24303,4.85,i
168.48,5012,-31.748,6.111,1098334,3496,24303,4.87,i
168.68,5012,-31.748,6.111,1098554,3497,24303,4.66,i
169.08,5013,-31.748,6.111,1098864,3498,24303,4.79,i
169.27,5014,-31.748,6.111,1099106,3499,24303,4.79,i
169.69,5014,-31.748,6.111,1099525,3500,24303,4.79,i
169.96,5012,-31.748,6.111,1099803,3501,24303,4.77,i
170.17,5014,-31.748,6.111,1100026,3502,24303,4.78,i
170.65,5013,-31.748,6.111,1100437,3503,24303,4.88,i
170.86,5014,-31.748,6.111,1100695,3504,24303,4.63,i
171.15,5012,-31.748,6.111,1100962,3505,24303,4.65,i
171.47,5012,-31.749,6.111,1101305,3506,24303,4.63,i
171.78,5010,-31.749,6.111,1101550,3507,24303,4.73,i
172.02,5014,-31.748,6.111,1101871,3508,24303,4.65,i
172.34,5013,-31.748,6.111,1102197,3509,24303,4.58,i
172.69,5013,-31.748,6.111,1102504,3510,24303,4.62,i
172.87,5009,-31.749,6.111,1102756,3511,24303,4.66,i
173.22,5012,-31.749,6.111,1103107,3512,24303,4.58,i
173.56,5013,-31.749,6.111,1103330,3513,24303,4.74,i
173.85,5012,-31.749,6.111,1103621,3514,24303,4.62,i
174.13,5012,-31.749,6.112,1103951,3515,24303,4.58,i
174.41,5013,-31.749,6.112,1104243,3516,24303,4.47,i
174.8,5012,-31.749,6.112,1104603,3517,24303,4.52,i
175.03,5013,-31.749,6.112,1104891,3518,24303,4.54,i
175.37,5012,-31.749,6.112,1105217,3519,24303,4.61,i
175.63,5012,-31.749,6.112,1105432,3520,24303,4.55,i
176.0,5014,-31.749,6.112,1105827,3521,24303,4.51,i
176.23,5012,-31.749,6.112,1106090,3522,24303,4.56,i
176.49,5013,-31.749,6.112,1106336,3523,24303,4.46,i
176.86,5013,-31.749,6.112,1106719,3524,24303,4.57,i
177.13,5014,-31.749,6.113,1106985,3525,24303,4.43,i
177.47,5013,-31.749,6.113,1107296,3526,24303,4.54,i
177.73,5009,-31.749,6.113,1107512,3527,24303,4.28,i
178.0,5014,-31.749,6.113,1107862,3528,24303,4.5,i
178.41,5014,-31.749,6.113,1108202,3529,24303,4.4,i
178.58,5013,-31.749,6.114,1108411,3530,24303,4.43,i
178.89,5012,-31.749,6.114,1108758,3531,24303,4.11,i
179.27,5013,-31.749,6.114,1109069,3532,24303,4.23,i
179.54,5014,-31.749,6.114,1109354,3533,24303,4.36,i
179.81,5013,-31.749,6.115,1109640,3534,24303,4.25,i
180.19,5012,-31.749,6.115,1109985,3535,24303,4.33,i
180.45,5013,-31.749,6.115,1110257,3536,24303,4.45,i
180.67,5010,-31.749,6.115,1110519,3537,24303,4.28,i
181.09,5011,-31.749,6.115,1110893,3538,24303,4.29,i
181.35,5014,-31.749,6.116,1111185,3539,24303,4.24,i
181.61,5015,-31.749,6.116,1111435,3540,24303,4.25,i
181.97,5014,-31.749,6.116,1111778,3541,24303,4.35,i
182.17,5010,-31.749,6.116,1112023,3542,24303,4.46,i
182.63,5012,-31.749,6.116,1112396,3543,24303,4.36,i
182.79,5014,-31.749,6.116,1112662,3544,24303,4.35,i
183.18,5012,-31.749,6.117,1113032,3545,24303,4.19,i
183.44,5012,-31.749,6.117,1113262,3546,24303,4.32,i
