time,adc,distance,mass,millis,samples,steps,force,state
0.0,5009,-31.75,6.117,1125795,3587,24303,4.11,i
0.07,5004,-31.75,6.117,1125915,3588,24311,4.11,p
0.39,5001,-31.753,6.117,1126160,3589,24319,4.74,p
0.7,5005,-31.759,6.117,1126444,3590,24327,4.88,p
0.99,5007,-31.765,6.117,1126821,3591,24335,5.27,p
1.29,5008,-31.765,6.117,1127085,3592,24343,5.55,p
1.57,5008,-31.772,6.118,1127395,3593,24350,5.66,p
1.84,5003,-31.779,6.118,1127653,3594,24358,6.19,p
2.13,5005,-31.779,6.118,1127972,3595,24366,6.33,p
2.46,5010,-31.785,6.118,1128312,3596,24374,6.36,p
2.81,5001,-31.792,6.118,1128576,3597,24382,6.69,p
3.02,5004,-31.792,6.118,1128874,3598,24389,6.78,p
3.51,5000,-31.799,6.118,1129267,3599,24397,6.88,p
3.67,5002,-31.805,6.119,1129508,3600,24405,7.1,p
4.0,5008,-31.805,6.119,1129798,3601,24413,7.33,p
4.21,5004,-31.812,6.119,1130065,3602,24421,7.85,p
4.6,5003,-31.819,6.119,1130442,3603,24428,7.73,p
4.9,5010,-31.826,6.12,1130707,3604,24436,7.87,p
5.27,5001,-31.826,6.12,1131057,3605,24444,8.01,p
5.55,5006,-31.832,6.12,1131356,3606,24452,8.01,p
5.84,5003,-31.839,6.121,1131658,3607,24460,8.34,p
6.07,5000,-31.839,6.121,1131873,3608,24467,8.39,p
6.37,5011,-31.846,6.121,1132166,3609,24475,8.37,p
6.64,5003,-31.846,6.121,1132444,3610,24483,8.7,p
7.05,5004,-31.853,6.121,1132885,3611,24491,8.76,p
7.38,5011,-31.859,6.121,1133167,3612,24499,9.2,p
7.63,5010,-31.866,6.121,1133432,3613,24506,9.28,p
7.88,5000,-31.866,6.122,1133667,3614,24514,9.2,p
8.22,5011,-31.873,6.122,1134008,3615,24522,9.44,p
8.53,5003,-31.879,6.122,1134344,3616,24530,9.33,p
8.74,5007,-31.879,6.122,1134596,3617,24538,9.53,p
9.1,5003,-31.886,6.122,1134867,3618,24545,9.9,p
9.39,5006,-31.894,6.122,1135206,3619,24553,9.73,p
9.62,4998,-31.894,6.122,1135486,3620,24561,10.01,p
9.86,5012,-31.9,6.122,1135750,3621,24569,10.33,p
10.29,5001,-31.908,6.122,1136107,3622,24577,10.35,p
10.52,5008,-31.908,6.122,1136368,3623,24584,10.31,p
11.01,5002,-31.914,6.122,1136755,3624,24592,10.61,p
11.16,5005,-31.921,6.122,1136958,3625,24600,10.68,p
11.47,5007,-31.921,6.122,1137256,3626,24608,10.81,p
11.94,5010,-31.928,6.122,1137724,3627,24616,10.93,p
12.27,5002,-31.935,6.122,1137878,3628,24623,10.95,p
12.52,5004,-31.942,6.122,1138223,3629,24631,11.22,p
12.84,5004,-31.942,6.122,1138504,3630,24639,11.43,p
13.09,5010,-31.949,6.123,1138793,3631,24647,11.55,p
13.71,5007,-31.958,6.123,1139190,3632,24655,11.47,p
13.9,5008,-31.958,6.123,1139669,3634,24670,11.74,p
14.33,5006,-31.972,6.124,1140164,3635,24678,11.67,p
14.54,5005,-31.972,6.124,1140279,3636,24686,11.83,p
14.78,5011,-31.976,6.124,1140623,3637,24694,12.09,p
15.05,5002,-31.976,6.124,1140869,3638,24701,12.15,p
15.41,4996,-31.983,6.125,1141202,3639,24709,12.11,p
15.64,5007,-31.99,6.125,1141463,3640,24717,12.41,p
16.04,5009,-31.997,6.126,1141792,3641,24725,12.44,p
16.27,5001,-31.997,6.126,1142075,3642,24733,12.57,p
16.51,5005,-32.004,6.126,1142365,3643,24740,12.41,p
16.95,5009,-32.011,6.126,1142780,3644,24748,12.85,p
17.28,5002,-32.018,6.127,1143071,3645,24756,12.59,p
17.57,4999,-32.018,6.127,1143344,3646,24764,12.73,p
17.81,5004,-32.026,6.127,1143654,3647,24772,12.91,p
18.16,5006,-32.026,6.128,1143938,3648,24779,12.95,p
18.38,5002,-32.032,6.128,1144225,3649,24787,13.19,p
18.58,5009,-32.032,6.129,1144461,3650,24795,13.25,p
19.04,5004,-32.039,6.129,1144857,3651,24803,13.52,p
19.23,5007,-32.046,6.129,1145064,3652,24811,13.26,p
19.58,4998,-32.053,6.13,1145447,3653,24818,13.43,p
19.95,5006,-32.061,6.131,1145771,3654,24826,13.56,p
20.16,5000,-32.061,6.131,1146032,3655,24834,13.46,p
20.57,5008,-32.068,6.132,1146336,3656,24842,13.56,p
20.79,5001,-32.072,6.132,1146619,3657,24850,13.74,p
21.15,5010,-32.076,6.133,1147014,3658,24857,13.85,p
21.45,5006,-32.084,6.133,1147272,3659,24865,14.22,p
21.7,5002,-32.084,6.133,1147516,3660,24873,14.08,p
22.07,5009,-32.095,6.134,1147899,3661,24881,14.09,p
22.32,5006,-32.095,6.134,1148163,3662,24889,14.17,p
22.59,4998,-32.102,6.135,1148445,3663,24896,14.23,p
23.03,5008,-32.109,6.136,1148833,3664,24904,14.35,p
23.34,5012,-32.109,6.136,1149138,3665,24912,14.17,p
23.48,5005,-32.116,6.137,1149283,3666,24920,14.47,p
23.82,5004,-32.116,6.137,1149606,3667,24928,14.5,p
24.03,5003,-32.124,6.138,1149873,3668,24935,14.35,p
24.44,5000,-32.131,6.139,1150245,3669,24943,14.55,p
24.72,5006,-32.131,6.139,1150524,3670,24951,14.55,p
25.0,5000,-32.138,6.139,1150817,3671,24959,14.47,p
25.24,5001,-32.145,6.14,1151077,3672,24967,14.49,p
25.64,5004,-32.152,6.141,1151458,3673,24975,14.78,p
25.97,5010,-32.152,6.142,1151724,3674,24982,14.67,p
26.18,5012,-32.159,6.142,1152030,3675,24990,14.72,p
26.47,5004,-32.159,6.143,1152282,3676,24998,14.61,p
26.74,5011,-32.166,6.143,1152578,3677,25006,14.99,p
27.12,5002,-32.173,6.144,1152937,3678,25014,14.9,p
27.49,5002,-32.18,6.145,1153330,3679,25021,14.88,p
27.74,5009,-32.18,6.145,1153545,3680,25029,15.12,p
28.03,5008,-32.188,6.146,1153811,3681,25037,15.12,p
28.26,5003,-32.192,6.147,1154082,3682,25045,15.23,p
28.58,5004,-32.196,6.147,1154383,3683,25053,15.18,p
28.91,5006,-32.203,6.149,1154673,3684,25060,15.01,p
29.16,5007,-32.203,6.149,1154993,3685,25068,15.28,p
29.62,5001,-32.21,6.15,1155347,3686,25076,15.22,p
29.79,5008,-32.217,6.15,1155659,3687,25084,15.1,p
30.07,5002,-32.217,6.151,1155912,3688,25092,15.57,p
30.44,5008,-32.228,6.152,1156290,3689,25099,15.15,p
30.67,5005,-32.228,6.152,1156479,3690,25107,15.27,p
30.95,5008,-32.236,6.153,1156803,3691,25115,15.49,p
31.27,5004,-32.236,6.154,1157086,3692,25123,15.34,p
31.7,5011,-32.243,6.155,1157503,3693,25131,15.44,p
32.03,5011,-32.25,6.156,1157800,3694,25138,15.61,p
32.27,5003,-32.257,6.156,1158113,3695,25146,15.66,p
32.51,5002,-32.257,6.157,1158355,3696,25154,15.54,p
32.87,5009,-32.264,6.158,1158696,3697,25162,15.62,p
33.12,5003,-32.271,6.159,1158957,3698,25170,15.49,p
33.42,5006,-32.271,6.16,1159201,3699,25177,15.61,p
33.78,5006,-32.278,6.16,1159567,3700,25185,15.81,p
34.09,5005,-32.285,6.161,1159853,3701,25193,15.52,p
34.35,4998,-32.285,6.161,1160155,3702,25201,15.78,p
34.59,5005,-32.292,6.162,1160436,3703,25209,15.61,p
35.02,5000,-32.296,6.164,1160783,3704,25216,15.85,p
35.38,5002,-32.304,6.164,1161126,3705,25224,15.96,p
35.52,5003,-32.304,6.165,1161346,3706,25232,15.77,p
35.86,5009,-32.31,6.166,1161680,3707,25240,15.85,p
36.09,5007,-32.318,6.166,1161900,3708,25248,16.01,p
36.45,5007,-32.318,6.167,1162267,3709,25255,16.06,p
36.72,4999,-32.325,6.168,1162529,3710,25263,15.95,p
37.05,5005,-32.332,6.168,1162869,3711,25271,15.96,p
37.26,5010,-32.332,6.169,1163134,3712,25279,16.2,p
37.7,5011,-32.339,6.17,1163486,3713,25287,16.15,p
38.02,5000,-32.346,6.171,1163788,3714,25294,16.09,p
38.29,5007,-32.354,6.171,1164110,3715,25302,16.21,p
38.62,5006,-32.354,6.172,1164412,3716,25310,16.08,p
38.91,5006,-32.361,6.173,1164704,3717,25318,16.15,p
39.11,5002,-32.368,6.174,1164963,3718,25326,16.05,p
39.48,5000,-32.368,6.175,1165207,3719,25333,16.11,p
39.69,5005,-32.375,6.175,1165520,3720,25341,16.27,p
39.95,5004,-32.375,6.176,1165791,3721,25349,16.3,p
40.36,5008,-32.382,6.177,1166164,3722,25357,16.34,p
40.59,5010,-32.389,6.178,1166405,3723,25365,16.33,p
40.94,5001,-32.396,6.179,1166736,3724,25372,16.09,p
41.16,5005,-32.396,6.179,1166990,3725,25380,16.25,p
41.58,5005,-32.403,6.181,1167378,3726,25388,16.43,p
41.88,5008,-32.41,6.181,1167667,3727,25396,16.39,p
42.28,5002,-32.418,6.183,1168015,3728,25404,16.33,p
42.38,5002,-32.418,6.183,1168206,3729,25411,16.32,p
42.87,5005,-32.424,6.184,1168641,3730,25419,16.17,p
42.98,5002,-32.424,6.184,1168819,3731,25427,16.33,p
43.37,5010,-32.431,6.186,1169176,3732,25435,16.32,p
43.64,5003,-32.439,6.187,1169454,3733,25443,16.47,p
43.89,5004,-32.439,6.187,1169705,3734,25450,16.49,p
44.31,5009,-32.446,6.188,1170109,3735,25458,16.43,p
44.53,5005,-32.453,6.189,1170358,3736,25466,16.34,p
44.79,5002,-32.453,6.19,1170640,3737,25474,16.38,p
45.12,5008,-32.46,6.19,1170907,3738,25482,16.49,p
45.4,5003,-32.467,6.191,1171224,3739,25489,16.21,p
45.71,5011,-32.467,6.192,1171535,3740,25497,16.5,p
46.11,5005,-32.474,6.194,1171931,3741,25505,16.52,p
46.41,5005,-32.481,6.194,1172197,3742,25513,16.65,p
46.74,4999,-32.485,6.195,1172475,3743,25521,16.56,p
47.06,5011,-32.493,6.196,1172846,3744,25528,16.45,p
47.26,5001,-32.493,6.197,1173024,3745,25536,16.64,p
47.56,5012,-32.5,6.197,1173381,3746,25544,16.92,p
47.87,4999,-32.506,6.198,1173648,3747,25552,16.7,p
48.14,5011,-32.506,6.199,1173957,3748,25560,16.89,p
48.43,5006,-32.514,6.201,1174245,3749,25567,16.86,p
48.84,5006,-32.521,6.201,1174621,3750,25575,16.5,p
49.16,4998,-32.529,6.202,1174922,3751,25583,16.61,p
49.29,5010,-32.529,6.202,1175111,3752,25591,16.85,p
49.59,5000,-32.536,6.204,1175412,3753,25599,16.77,p
49.9,5001,-32.536,6.204,1175721,3754,25606,16.67,p
50.22,5009,-32.543,6.205,1176067,3755,25614,16.66,p
50.47,5003,-32.55,6.206,1176311,3756,25622,16.96,p
50.8,5004,-32.55,6.207,1176619,3757,25630,16.93,p
51.17,5006,-32.562,6.208,1177006,3758,25638,16.85,p
51.37,5008,-32.562,6.209,1177242,3759,25645,16.71,p
51.79,5002,-32.569,6.21,1177605,3760,25653,16.88,p
51.99,5011,-32.569,6.211,1177856,3761,25661,16.8,p
52.37,5007,-32.576,6.212,1178217,3762,25669,16.88,p
52.68,5006,-32.583,6.213,1178466,3763,25677,16.66,p
53.01,5006,-32.591,6.214,1178802,3764,25684,16.78,p
53.26,5003,-32.591,6.214,1179047,3765,25692,16.87,p
53.58,5006,-32.598,6.216,1179358,3766,25700,16.78,p
53.77,5005,-32.598,6.216,1179608,3767,25708,16.66,p
54.14,5001,-32.605,6.217,1179970,3768,25716,16.72,p
54.4,5007,-32.613,6.217,1180208,3769,25724,16.8,p
54.71,5002,-32.613,6.218,1180567,3770,25731,17.15,p
55.08,5004,-32.621,6.22,1180833,3771,25739,16.99,p
55.34,5001,-32.627,6.22,1181158,3772,25747,16.86,p
55.67,5011,-32.634,6.221,1181467,3773,25755,16.89,p
55.95,5003,-32.634,6.223,1181765,3774,25763,16.74,p
56.33,5008,-32.642,6.223,1182156,3775,25770,16.83,p
56.57,5000,-32.649,6.223,1182416,3776,25778,16.93,p
56.84,5003,-32.649,6.225,1182662,3777,25786,16.89,p
57.27,5008,-32.656,6.226,1183034,3778,25794,16.78,p
57.55,5005,-32.663,6.227,1183336,3779,25802,16.78,p
57.85,5012,-32.671,6.228,1183694,3780,25809,16.75,p
58.19,5001,-32.671,6.229,1183954,3781,25817,16.85,p
58.37,5004,-32.678,6.229,1184126,3782,25825,16.94,p
58.64,5006,-32.678,6.23,1184436,3783,25833,16.6,p
58.9,5000,-32.685,6.231,1184725,3784,25841,16.64,p
59.34,5003,-32.692,6.232,1185160,3785,25848,17.02,p
59.62,5000,-32.692,6.233,1185465,3786,25856,16.97,p
59.92,5008,-32.7,6.234,1185723,3787,25864,16.88,p
60.19,5003,-32.706,6.235,1185983,3788,25872,17.0,p
60.55,5008,-32.714,6.236,1186316,3789,25880,17.2,p
60.81,5006,-32.714,6.237,1186595,3790,25887,16.91,p
61.08,5005,-32.721,6.238,1186876,3791,25895,17.02,p
61.37,5011,-32.721,6.238,1187191,3792,25903,16.85,p
61.69,5006,-32.728,6.239,1187452,3793,25911,16.76,p
62.02,5003,-32.735,6.24,1187789,3794,25919,16.85,p
62.23,5007,-32.735,6.241,1188075,3795,25926,16.94,p
62.48,5004,-32.742,6.242,1188335,3796,25934,16.94,p
62.92,5012,-32.749,6.243,1188752,3797,25942,16.99,p
63.19,5005,-32.757,6.244,1188986,3798,25950,16.89,p
63.49,5005,-32.757,6.245,1189294,3799,25958,17.0,p
63.8,4998,-32.764,6.246,1189578,3800,25965,17.08,p
64.07,5001,-32.764,6.246,1189894,3801,25973,16.91,p
64.39,5010,-32.771,6.247,1190158,3802,25981,16.8,p
64.67,5008,-32.778,6.248,1190473,3803,25989,16.93,p
65.05,5009,-32.785,6.25,1190862,3804,25997,16.96,p
65.3,5009,-32.785,6.25,1191151,3805,26004,17.04,p
65.47,5010,-32.792,6.251,1191350,3806,26012,17.08,p
66.01,5008,-32.8,6.253,1191813,3807,26020,16.85,p
66.18,5008,-32.8,6.253,1191960,3808,26028,17.02,p
66.54,5011,-32.806,6.254,1192359,3809,26036,16.87,p
66.86,5002,-32.814,6.256,1192664,3810,26043,16.86,p
67.14,4998,-32.814,6.256,1192943,3811,26051,16.87,p
67.38,5004,-32.821,6.257,1193221,3812,26059,16.93,p
67.77,5001,-32.828,6.258,1193565,3813,26067,16.89,p
68.03,5005,-32.828,6.259,1193853,3814,26075,17.11,p
68.24,5004,-32.835,6.259,1194119,3815,26082,17.02,p
68.58,5011,-32.842,6.261,1194366,3816,26090,17.02,p
68.95,4994,-32.842,6.262,1194726,3817,26098,16.94,p
69.14,5005,-32.849,6.262,1195005,3818,26106,17.02,p
69.36,5003,-32.857,6.263,1195232,3819,26114,16.99,p
69.82,5009,-32.861,6.265,1195614,3820,26121,16.83,p
70.11,5002,-32.861,6.266,1195901,3821,26129,16.98,p
70.36,5010,-32.868,6.266,1196137,3822,26137,16.98,p
70.72,5004,-32.875,6.268,1196566,3823,26145,17.14,p
70.95,5005,-32.875,6.268,1196796,3824,26153,16.99,p
71.29,4997,-32.882,6.269,1197057,3825,26160,17.0,p
71.55,5007,-32.889,6.27,1197357,3826,26168,17.19,p
71.93,5004,-32.897,6.271,1197761,3827,26176,17.08,p
72.16,5005,-32.897,6.272,1197986,3828,26184,16.94,p
72.43,5008,-32.904,6.273,1198249,3829,26192,16.98,p
72.89,5008,-32.911,6.274,1198650,3830,26199,16.93,p
73.15,5007,-32.911,6.275,1198951,3831,26207,17.18,p
73.4,5005,-32.918,6.276,1199250,3832,26215,17.15,p
73.66,5002,-32.922,6.276,1199437,3833,26223,17.0,p
74.03,5010,-32.929,6.278,1199841,3834,26231,16.98,p
74.25,5002,-32.929,6.278,1200093,3835,26238,17.14,p
74.65,5009,-32.936,6.28,1200495,3836,26246,17.15,p
74.9,5010,-32.943,6.28,1200725,3837,26254,17.03,p
75.23,5009,-32.943,6.281,1201009,3838,26262,16.98,p
75.54,5005,-32.951,6.282,1201337,3839,26270,16.96,p
75.82,5003,-32.958,6.283,1201638,3840,26277,16.88,p
76.12,4998,-32.965,6.284,1201924,3841,26285,16.87,p
76.4,5012,-32.965,6.284,1202173,3842,26293,17.02,p
76.71,5004,-32.972,6.285,1202468,3843,26301,16.89,p
77.0,5001,-32.972,6.286,1202770,3844,26309,16.85,p
77.45,5005,-32.979,6.287,1203176,3845,26316,16.91,p
77.53,5011,-32.979,6.288,1203373,3846,26324,17.1,p
77.9,5002,-32.986,6.289,1203718,3847,26332,17.07,p
78.2,5004,-32.993,6.29,1204015,3848,26340,16.91,p
78.46,5005,-33.0,6.291,1204263,3849,26348,17.05,p
78.88,5001,-33.007,6.292,1204635,3850,26355,16.86,p
79.14,5000,-33.007,6.293,1204944,3851,26363,16.81,p
79.42,5007,-33.015,6.294,1205227,3852,26371,17.32,p
79.72,5004,-33.021,6.294,1205513,3853,26379,17.19,p
80.02,5001,-33.025,6.295,1205824,3854,26387,17.07,p
80.28,5008,-33.025,6.296,1206076,3855,26394,16.91,p
80.69,5003,-33.033,6.298,1206510,3856,26402,17.08,p
80.93,5004,-33.037,6.298,1206744,3857,26410,17.02,p
81.29,5000,-33.044,6.3,1207065,3858,26418,17.05,p
81.63,5002,-33.049,6.3,1207397,3859,26426,17.2,p
81.77,5002,-33.049,6.301,1207562,3860,26433,17.04,p
82.14,5008,-33.056,6.302,1207987,3861,26441,16.96,p
82.44,5013,-33.063,6.303,1208252,3862,26449,16.87,p
82.76,5006,-33.07,6.304,1208564,3863,26457,17.03,p
83.05,5004,-33.07,6.304,1208879,3864,26465,17.11,p
83.36,5005,-33.077,6.305,1209160,3865,26472,17.04,p
83.62,4995,-33.082,6.307,1209433,3866,26480,16.89,p
83.93,5003,-33.086,6.307,1209692,3867,26488,17.08,p
84.17,5006,-33.093,6.308,1210025,3868,26496,17.11,p
84.57,5007,-33.093,6.309,1210339,3869,26504,16.89,p
84.89,5003,-33.1,6.31,1210678,3870,26512,16.96,p
85.17,5009,-33.107,6.311,1210960,3871,26519,17.04,p
85.4,5008,-33.107,6.312,1211231,3872,26527,17.07,p
85.68,5002,-33.115,6.313,1211487,3873,26535,16.92,p
85.97,5000,-33.115,6.313,1211754,3874,26543,17.0,p
86.34,5006,-33.121,6.314,1212177,3875,26551,17.16,p
86.69,5001,-33.129,6.316,1212433,3876,26558,16.99,p
86.87,5000,-33.137,6.316,1212720,3877,26566,16.99,p
87.33,5003,-33.143,6.318,1213116,3878,26574,17.04,p
87.4,5013,-33.143,6.318,1213267,3879,26582,17.04,p
87.78,5007,-33.151,6.319,1213582,3880,26590,17.22,p
88.09,5006,-33.151,6.32,1213856,3881,26597,16.91,p
88.47,4998,-33.158,6.321,1214277,3882,26605,17.11,p
88.7,5004,-33.165,6.321,1214525,3883,26613,16.93,p
89.04,5002,-33.172,6.322,1214825,3884,26621,17.11,p
89.39,5006,-33.172,6.324,1215135,3885,26629,17.13,p
89.64,5010,-33.18,6.325,1215470,3886,26636,17.04,p
89.94,5002,-33.187,6.325,1215766,3887,26644,16.98,p
90.23,5008,-33.187,6.327,1216046,3888,26652,17.09,p
90.56,5007,-33.194,6.327,1216333,3889,26660,17.13,p
90.81,5009,-33.201,6.328,1216632,3890,26668,17.0,p
91.07,4997,-33.201,6.329,1216904,3891,26675,17.24,p
91.44,5006,-33.208,6.33,1217230,3892,26683,16.96,p
91.7,5002,-33.216,6.331,1217514,3893,26691,17.04,p
92.03,5010,-33.219,6.332,1217833,3894,26699,17.05,p
92.29,5011,-33.219,6.333,1218097,3895,26707,17.21,p
92.64,5008,-33.227,6.334,1218397,3896,26714,16.87,p
92.91,5006,-33.234,6.334,1218735,3897,26722,16.94,p
93.18,5007,-33.234,6.335,1219020,3898,26730,17.24,p
93.43,4996,-33.241,6.337,1219277,3899,26738,17.3,p
93.76,5005,-33.248,6.338,1219557,3900,26746,17.02,p
94.15,5002,-33.255,6.338,1219964,3901,26753,17.04,p
94.38,5010,-33.255,6.339,1220225,3902,26761,17.09,p
94.59,5007,-33.259,6.34,1220463,3903,26769,17.02,p
94.99,5009,-33.267,6.342,1220779,3904,26777,17.4,p
95.25,5007,-33.267,6.342,1221076,3905,26785,17.18,p
95.59,5006,-33.274,6.343,1221373,3906,26792,17.05,p
95.93,4997,-33.281,6.344,1221726,3907,26800,17.0,p
96.21,5006,-33.281,6.345,1221995,3908,26808,17.08,p
96.58,4999,-33.288,6.346,1222347,3909,26816,17.35,p
96.83,5011,-33.296,6.347,1222633,3910,26824,17.14,p
97.1,5005,-33.302,6.348,1222934,3911,26831,17.08,p
97.47,5008,-33.302,6.349,1223220,3912,26839,17.19,p
97.73,5007,-33.309,6.35,1223520,3913,26847,16.97,p
97.99,5003,-33.309,6.351,1223845,3914,26855,17.0,p
98.36,4996,-33.317,6.351,1224178,3915,26863,17.22,p
98.72,5006,-33.324,6.353,1224472,3916,26870,16.99,p
98.93,5002,-33.331,6.353,1224787,3917,26878,17.27,p
99.21,5007,-33.331,6.354,1225055,3918,26886,17.13,p
99.44,5006,-33.338,6.355,1225290,3919,26894,17.18,p
99.89,5005,-33.345,6.357,1225694,3920,26902,17.31,p
100.17,5006,-33.345,6.357,1225997,3921,26909,17.07,p
100.47,5006,-33.353,6.358,1226248,3922,26917,17.09,p
100.72,5006,-33.357,6.359,1226532,3923,26925,17.29,p
100.93,5002,-33.357,6.36,1226788,3924,26933,17.19,p
101.34,5003,-33.371,6.362,1227187,3925,26941,17.27,p
101.61,5010,-33.371,6.362,1227465,3926,26948,17.1,p
101.91,5009,-33.378,6.362,1227721,3927,26956,17.29,p
102.22,5012,-33.378,6.364,1228026,3928,26964,17.13,p
102.46,5006,-33.385,6.365,1228269,3929,26972,16.99,p
102.92,5004,-33.393,6.366,1228711,3930,26980,17.13,p
103.13,5008,-33.4,6.367,1228963,3931,26987,17.11,p
103.4,5011,-33.4,6.368,1229234,3932,26995,17.04,p
103.69,5004,-33.407,6.368,1229511,3933,27003,17.2,p
104.02,5002,-33.414,6.37,1229832,3934,27011,17.26,p
104.4,5008,-33.414,6.371,1230203,3935,27019,17.29,p
104.69,5004,-33.421,6.372,1230517,3936,27026,17.03,p
105.02,5009,-33.428,6.372,1230846,3937,27034,17.13,p
105.22,5004,-33.428,6.373,1231082,3938,27042,17.16,p
105.46,5004,-33.436,6.374,1231293,3939,27050,16.96,p
105.8,4996,-33.436,6.376,1231607,3940,27058,17.14,p
106.07,5010,-33.443,6.376,1231885,3941,27065,17.16,p
106.5,5004,-33.449,6.377,1232320,3942,27073,16.96,p
106.78,5009,-33.456,6.378,1232597,3943,27081,16.89,p
107.05,5013,-33.456,6.379,1232875,3944,27089,17.07,p
107.26,5009,-33.463,6.38,1233102,3945,27097,17.15,p
107.67,5003,-33.471,6.381,1233501,3946,27104,17.07,p
107.92,5008,-33.471,6.382,1233745,3947,27112,17.18,p
108.23,4997,-33.477,6.383,1234004,3948,27120,17.29,p
108.56,5006,-33.485,6.384,1234324,3949,27128,17.3,p
108.81,5003,-33.485,6.385,1234651,3950,27136,17.25,p
109.25,5007,-33.492,6.386,1234996,3951,27143,17.07,p
109.33,5008,-33.492,6.386,1235181,3952,27151,17.04,p
109.65,5012,-33.498,6.387,1235486,3953,27159,17.04,p
109.97,5007,-33.506,6.388,1235845,3954,27167,17.35,p
110.36,5007,-33.513,6.389,1236184,3955,27175,17.27,p
110.64,4999,-33.513,6.391,1236448,3956,27182,17.22,p
110.94,5006,-33.52,6.392,1236727,3957,27190,17.07,p
111.22,5002,-33.528,6.392,1237006,3958,27198,17.14,p
111.5,5004,-33.528,6.393,1237301,3959,27206,17.19,p
111.9,5005,-33.535,6.394,1237681,3960,27214,17.26,p
112.09,5004,-33.542,6.395,1237952,3961,27221,17.16,p
112.34,5010,-33.542,6.396,1238183,3962,27229,17.29,p
112.75,5003,-33.549,6.397,1238539,3963,27237,17.31,p
113.01,5006,-33.557,6.398,1238796,3964,27245,17.09,p
113.35,5001,-33.557,6.399,1239218,3965,27253,17.26,p
113.72,4999,-33.564,6.4,1239508,3966,27260,17.16,p
113.98,5008,-33.572,6.401,1239813,3967,27268,17.02,p
114.3,5004,-33.578,6.401,1240089,3968,27276,16.91,p
114.54,5010,-33.578,6.402,1240345,3969,27284,17.14,p
114.85,5001,-33.585,6.403,1240652,3970,27292,17.14,p
115.17,5004,-33.593,6.404,1240987,3971,27299,17.26,p
115.47,5008,-33.593,6.405,1241291,3972,27307,17.13,p
115.71,4995,-33.6,6.406,1241523,3973,27315,17.02,p
115.97,5005,-33.6,6.407,1241817,3974,27323,17.21,p
116.33,5004,-33.608,6.408,1242157,3975,27331,17.05,p
116.59,5010,-33.615,6.409,1242417,3976,27338,17.3,p
116.85,5001,-33.615,6.41,1242690,3977,27346,17.03,p
117.29,5010,-33.622,6.41,1243111,3978,27354,17.16,p
117.53,5006,-33.63,6.411,1243373,3979,27362,17.31,p
117.79,5007,-33.634,6.412,1243585,3980,27370,17.22,p
118.11,4995,-33.641,6.413,1243896,3981,27377,17.03,p
118.51,5004,-33.641,6.414,1244378,3982,27385,17.19,p
118.83,5006,-33.649,6.415,1244670,3983,27393,17.24,p
119.15,5009,-33.656,6.417,1244919,3984,27401,17.16,p
119.39,5001,-33.656,6.417,1245223,3985,27409,17.19,p
119.7,5007,-33.663,6.418,1245482,3986,27416,17.05,p
120.0,5004,-33.671,6.419,1245806,3987,27424,17.31,p
120.31,5007,-33.678,6.42,1246144,3988,27432,17.33,p
120.62,4998,-33.678,6.421,1246385,3989,27440,17.18,p
120.91,5005,-33.686,6.422,1246736,3990,27448,17.29,p
121.31,5005,-33.693,6.423,1247062,3991,27455,17.38,p
121.46,5011,-33.693,6.423,1247244,3992,27463,17.49,p
121.71,5008,-33.7,6.424,1247507,3993,27471,17.2,p
122.02,5004,-33.7,6.425,1247807,3994,27479,17.09,p
122.28,5014,-33.707,6.426,1248106,3995,27486,17.09,p
122.64,5015,-33.714,6.427,1248397,3996,27486,16.96,i
122.88,5015,-33.716,6.427,1248739,3997,27486,16.63,i
123.19,5016,-33.716,6.428,1249037,3998,27486,16.3,i
123.61,5017,-33.716,6.43,1249399,3999,27486,15.66,i
123.91,5015,-33.717,6.43,1249708,4000,27486,15.41,i
124.16,5015,-33.717,6.432,1249959,4001,27486,15.23,i
124.4,5013,-33.717,6.432,1250197,4002,27486,14.89,i
124.85,5014,-33.718,6.434,1250639,4003,27486,14.55,i
124.97,5014,-33.718,6.434,1250802,4004,27486,14.27,i
125.39,5015,-33.718,6.435,1251248,4005,27486,14.03,i
125.74,5018,-33.718,6.437,1251475,4006,27486,13.74,i
126.02,5014,-33.719,6.438,1251816,4007,27486,13.48,i
126.3,5013,-33.719,6.439,1252076,4008,27486,13.15,i
126.58,5016,-33.719,6.439,1252364,4009,27486,13.13,i
126.89,5015,-33.719,6.44,1252690,4010,27486,12.81,i
127.15,5012,-33.719,6.441,1252982,4011,27486,12.44,i
127.46,5017,-33.719,6.442,1253255,4012,27486,12.38,i
127.84,5015,-33.72,6.443,1253608,4013,27486,12.24,i
128.13,5015,-33.72,6.444,1253924,4014,27486,12.04,i
128.44,5015,-33.72,6.445,1254226,4015,27486,11.89,i
128.78,5015,-33.72,6.446,1254531,4016,27486,11.6,i
128.88,5014,-33.72,6.446,1254720,4017,27486,11.43,i
129.31,5016,-33.72,6.447,1255100,4018,27486,11.1,i
129.68,5017,-33.72,6.448,1255397,4019,27486,11.26,i
129.79,5015,-33.72,6.449,1255619,4020,27486,10.97,i
130.12,5013,-33.721,6.449,1255959,4021,27486,10.83,i
130.43,5015,-33.721,6.451,1256216,4022,27486,10.84,i
130.72,5015,-33.721,6.451,1256524,4023,27486,10.57,i
131.02,5015,-33.721,6.452,1256825,4024,27486,10.38,i
131.38,5016,-33.721,6.453,1257185,4025,27486,10.33,i
131.66,5015,-33.721,6.454,1257487,4026,27486,10.1,i
132.0,5015,-33.721,6.454,1257781,4027,27486,10.17,i
132.23,5014,-33.722,6.455,1258075,4028,27486,9.95,i
132.61,5015,-33.722,6.457,1258414,4029,27486,9.84,i
132.91,5015,-33.722,6.457,1258687,4030,27486,9.66,i
133.22,5015,-33.722,6.457,1258997,4031,27486,9.47,i
133.46,5014,-33.722,6.458,1259298,4032,27486,9.36,i
133.66,5015,-33.722,6.458,1259518,4033,27486,9.28,i
134.11,5013,-33.722,6.46,1259914,4034,27486,9.34,i
134.34,5015,-33.722,6.461,1260193,4035,27486,9.34,i
134.63,5013,-33.722,6.461,1260418,4036,27486,9.03,i
134.94,5014,-33.722,6.462,1260725,4037,27486,9.06,i
135.22,5013,-33.723,6.462,1261017,4038,27486,9.18,i
135.61,5015,-33.723,6.463,1261387,4039,27486,8.9,i
135.83,5014,-33.723,6.464,1261669,4040,27486,8.63,i
136.08,5015,-33.723,6.464,1261907,4041,27486,8.73,i
136.43,5015,-33.723,6.465,1262243,4042,27486,8.56,i
136.73,5016,-33.723,6.465,1262585,4043,27486,8.52,i
136.99,5014,-33.723,6.466,1262814,4044,27486,8.42,i
137.38,5014,-33.723,6.466,1263220,4045,27486,8.39,i
137.65,5012,-33.723,6.467,1263501,4046,27486,8.39,i
137.94,5016,-33.723,6.468,1263767,4047,27486,8.19,i
138.32,5014,-33.724,6.468,1264137,4048,27486,8.28,i
138.57,5016,-33.724,6.469,1264412,4049,27486,8.03,i
138.78,5015,-33.724,6.469,1264642,4050,27486,7.92,i
139.16,5014,-33.724,6.47,1264981,4051,27486,8.01,i
139.53,5014,-33.724,6.47,1265377,4052,27486,7.75,i
139.76,5014,-33.724,6.47,1265579,4053,27486,7.66,i
140.07,5015,-33.724,6.471,1265865,4054,27486,7.77,i
140.29,5014,-33.724,6.471,1266141,4055,27486,7.59,i
140.59,5014,-33.724,6.471,1266421,4056,27486,7.57,i
140.96,5013,-33.724,6.472,1266785,4057,27486,7.31,i
141.22,5014,-33.724,6.472,1267077,4058,27486,7.51,i
141.55,5014,-33.724,6.473,1267317,4059,27486,7.37,i
141.79,5015,-33.725,6.473,1267615,4060,27486,7.2,i
142.14,5016,-33.725,6.473,1267988,4061,27486,7.41,i
142.54,5015,-33.725,6.474,1268317,4062,27486,7.29,i
142.82,5013,-33.725,6.474,1268650,4063,27486,7.36,i
143.06,5016,-33.725,6.474,1268891,4064,27486,7.19,i
143.34,5015,-33.725,6.475,1269191,4065,27486,7.18,i
143.56,5014,-33.725,6.475,1269425,4066,27486,7.09,i
143.95,5016,-33.725,6.476,1269794,4067,27486,7.04,i
144.19,5016,-33.725,6.476,1270045,4068,27486,6.91,i
144.64,5016,-33.725,6.477,1270465,4069,27486,7.14,i
144.91,5014,-33.725,6.477,1270716,4070,27486,6.93,i
145.17,5014,-33.725,6.477,1270979,4071,27486,6.94,i
145.4,5014,-33.725,6.477,1271237,4072,27486,6.8,i
145.79,5015,-33.725,6.477,1271607,4073,27486,6.69,i
146.06,5012,-33.725,6.478,1271886,4074,27486,6.87,i
146.35,5014,-33.725,6.478,1272171,4075,27486,6.93,i
146.59,5014,-33.725,6.478,1272425,4076,27486,6.61,i
147.05,5015,-33.726,6.479,1272826,4077,27486,6.65,i
147.27,5012,-33.726,6.479,1273134,4078,27486,6.56,i
147.54,5013,-33.726,6.479,1273367,4079,27486,6.54,i
147.96,5014,-33.726,6.48,1273744,4080,27486,6.49,i
148.19,5014,-33.726,6.48,1274035,4081,27486,6.31,i
148.51,5016,-33.726,6.48,1274333,4082,27486,6.33,i
148.75,5014,-33.726,6.48,1274615,4083,27486,6.41,i
149.01,5014,-33.726,6.481,1274855,4084,27486,6.31,i
149.36,5014,-33.726,6.481,1275162,4085,27486,6.36,i
149.75,5016,-33.726,6.482,1275536,4086,27486,6.09,i
149.97,5015,-33.726,6.482,1275817,4087,27486,6.36,i
150.24,5015,-33.726,6.482,1276074,4088,27486,6.22,i
150.6,5014,-33.726,6.482,1276423,4089,27486,6.2,i
150.88,5016,-33.726,6.482,1276687,4090,27486,6.19,i
151.16,5016,-33.726,6.483,1276965,4091,27486,6.21,i
151.46,5015,-33.726,6.483,1277237,4092,27486,6.21,i
151.77,5017,-33.726,6.483,1277556,4093,27486,6.01,i
152.0,5018,-33.726,6.483,1277862,4094,27486,6.2,i
152.48,5016,-33.726,6.484,1278286,4095,27486,6.0,i
152.68,5015,-33.727,6.484,1278438,4096,27486,5.94,i
153.08,5016,-33.726,6.484,1278867,4097,27486,6.01,i
153.34,5016,-33.726,6.484,1279136,4098,27486,5.94,i
153.57,5013,-33.727,6.484,1279441,4099,27486,5.93,i
153.93,5015,-33.727,6.484,1279705,4100,27486,5.89,i
154.21,5015,-33.727,6.485,1279956,4101,27486,5.86,i
154.5,5015,-33.727,6.485,1280300,4102,27486,6.0,i
154.72,5015,-33.727,6.485,1280566,4103,27486,5.9,i
155.07,5018,-33.727,6.485,1280908,4104,27486,5.65,i
155.35,5016,-33.727,6.485,1281136,4105,27486,5.66,i
155.73,5016,-33.727,6.485,1281572,4106,27486,5.84,i
156.04,5018,-33.727,6.486,1281839,4107,27486,5.76,i
156.33,5016,-33.727,6.486,1282107,4108,27486,5.56,i
156.57,5015,-33.727,6.486,1282388,4109,27486,5.77,i
157.01,5017,-33.727,6.487,1282783,4110,27486,5.51,i
157.2,5016,-33.727,6.487,1282957,4111,27486,5.6,i
157.5,5016,-33.727,6.487,1283279,4112,27486,5.75,i
157.74,5016,-33.727,6.487,1283590,4113,27486,5.6,i
158.15,5014,-33.727,6.487,1283937,4114,27486,5.48,i
158.39,5017,-33.727,6.488,1284197,4115,27486,5.32,i
158.71,5014,-33.727,6.488,1284484,4116,27486,5.5,i
159.01,5016,-33.727,6.488,1284816,4117,27486,5.46,i
159.23,5013,-33.727,6.488,1285045,4118,27486,5.44,i
159.57,5015,-33.727,6.489,1285367,4119,27486,5.43,i
159.93,5016,-33.727,6.489,1285686,4120,27486,5.49,i
160.15,5015,-33.727,6.489,1285997,4121,27486,5.53,i
160.5,5013,-33.727,6.49,1286323,4122,27486,5.37,i
160.85,5015,-33.727,6.49,1286652,4123,27486,5.32,i
161.1,5013,-33.727,6.49,1286916,4124,27486,5.29,i
161.35,5017,-33.728,6.49,1287236,4125,27486,5.22,i
161.7,5013,-33.728,6.49,1287457,4126,27486,5.31,i
162.01,5014,-33.728,6.49,1287818,4127,27486,5.32,i
162.36,5013,-33.728,6.49,1288153,4128,27486,5.11,i
162.63,5017,-33.728,6.49,1288447,4129,27486,5.24,i
162.92,5017,-33.728,6.49,1288702,4130,27486,5.35,i
163.14,5011,-33.728,6.49,1289009,4131,27486,5.11,i
163.48,5014,-33.728,6.49,1289273,4132,27486,5.15,i
163.73,5015,-33.728,6.49,1289537,4133,27486,5.07,i
164.17,5015,-33.728,6.49,1289903,4134,27486,5.34,i
164.43,5016,-33.728,6.49,1290195,4135,27486,5.17,i
164.71,5016,-33.728,6.49,1290504,4136,27486,5.12,i
164.97,5015,-33.728,6.49,1290768,4137,27486,5.11,i
165.38,5016,-33.728,6.49,1291164,4138,27486,5.07,i
165.65,5017,-33.728,6.49,1291405,4139,27486,5.07,i
165.87,5013,-33.728,6.49,1291706,4140,27486,5.18,i
166.3,5016,-33.728,6.491,1292098,4141,27486,5.05,i
166.41,5018,-33.728,6.491,1292241,4142,27486,4.83,i
166.84,5015,-33.728,6.491,1292596,4143,27486,5.02,i
167.07,5016,-33.728,6.491,1292876,4144,27486,5.07,i
167.35,5017,-33.728,6.491,1293142,4145,27486,4.94,i
167.66,5015,-33.728,6.491,1293452,4146,27486,4.9,i
168.07,5014,-33.728,6.492,1293775,4147,27486,4.89,i
168.26,5016,-33.728,6.492,1294128,4148,27486,4.88,i
168.57,5016,-33.728,6.492,1294377,4149,27486,4.93,i
168.87,5015,-33.728,6.492,1294677,4150,27486,4.99,i
169.27,5015,-33.728,6.493,1295074,4151,27486,4.88,i
169.52,5015,-33.728,6.493,1295351,4152,27486,4.89,i
169.74,5014,-33.728,6.493,1295556,4153,27486,4.76,i
170.0,5017,-33.728,6.493,1295850,4154,27486,4.79,i
170.46,5015,-33.728,6.493,1296238,4155,27486,4.74,i
170.83,5016,-33.728,6.494,1296620,4156,27486,4.79,i
171.0,5015,-33.728,6.494,1296775,4157,27486,4.78,i
171.32,5016,-33.729,6.494,1297136,4158,27486,4.89,i
171.59,5016,-33.729,6.494,1297450,4159,27486,4.61,i
171.99,5013,-33.728,6.495,1297755,4160,27486,4.76,i
172.24,5015,-33.728,6.495,1298041,4161,27486,4.68,i
172.52,5015,-33.728,6.495,1298341,4162,27486,4.57,i
172.83,5014,-33.728,6.495,1298620,4163,27486,4.78,i
173.05,5014,-33.729,6.495,1298893,4164,27486,4.79,i
173.33,5016,-33.729,6.495,1299173,4165,27486,4.73,i
173.76,5017,-33.728,6.495,1299558,4166,27486,4.63,i
174.02,5015,-33.728,6.495,1299809,4167,27486,4.61,i
174.29,5015,-33.728,6.495,1300106,4168,27486,4.68,i
174.61,5015,-33.729,6.495,1300353,4169,27486,4.67,i
174.85,5019,-33.729,6.495,1300664,4170,27486,4.69,i
175.28,5017,-33.729,6.495,1301066,4171,27486,4.65,i
175.56,5013,-33.729,6.495,1301339,4172,27486,4.43,i
175.75,5014,-33.729,6.496,1301597,4173,27486,4.58,i
176.0,5015,-33.729,6.496,1301854,4174,27486,4.5,i
176.44,5015,-33.729,6.496,1302218,4175,27486,4.5,i
176.73,5015,-33.729,6.496,1302488,4176,27486,4.63,i
176.93,5016,-33.729,6.496,1302782,4177,27486,4.44,i
177.31,5016,-33.729,6.496,1303124,4178,27486,4.46,i
177.6,5016,-33.729,6.496,1303465,4179,27486,4.46,i
177.82,5016,-33.729,6.496,1303658,4180,27486,4.58,i
178.27,5016,-33.729,6.496,1304075,4181,27486,4.56,i
178.54,5015,-33.729,6.496,1304375,4182,27486,4.49,i
178.79,5015,-33.729,6.496,1304608,4183,27486,4.46,i
179.03,5017,-33.729,6.496,1304893,4184,27486,4.32,i
179.44,5016,-33.729,6.496,1305255,4185,27486,4.6,i
179.78,5017,-33.729,6.496,1305572,4186,27486,4.32,i
180.09,5017,-33.729,6.496,1305853,4187,27486,4.52,i
180.39,5015,-33.729,6.496,1306181,4188,27486,4.4,i
180.66,5013,-33.729,6.496,1306497,4189,27486,4.33,i
180.98,5017,-33.729,6.496,1306752,4190,27486,4.5,i
181.29,5016,-33.729,6.496,1307094,4191,27486,4.43,i
181.56,5016,-33.729,6.496,1307383,4192,27486,4.29,i
181.78,5016,-33.729,6.496,1307600,4193,27486,4.4,i
182.19,5015,-33.729,6.496,1307978,4194,27486,4.47,i
182.48,5015,-33.729,6.496,1308267,4195,27486,4.3,i
182.75,5016,-33.729,6.497,1308534,4196,27486,4.24,i
183.01,5015,-33.729,6.497,1308788,4197,27486,4.29,i
183.32,5014,-33.729,6.497,1309185,4198,27486,4.23,i
183.54,5017,-33.729,6.497,1309393,4199,27486,4.28,i
