time,adc,distance,mass,millis,samples,steps,force,state
0.0,5001,-5.919,1.194,12423851,40259,-3704,1.25,p
0.3,5003,-5.921,1.194,12424142,40260,-3696,1.44,p
0.64,5001,-5.926,nan,12424506,40261,-3688,1.77,p
1.09,4997,-5.933,1.194,12424868,40262,-3680,1.71,p
1.31,5000,-5.939,1.194,12425155,40263,-3673,2.27,p
1.7,5006,-5.947,1.194,12425387,40264,-3665,2.3,p
2.01,5000,-5.947,1.194,12425662,40265,-3657,2.3,p
2.31,4999,-5.954,1.194,12425971,40266,-3649,2.44,p
2.65,5002,-5.954,1.194,12426331,40267,-3641,2.55,p
2.89,4996,-5.96,1.194,12426570,40268,-3634,2.4,p
3.54,4997,-5.971,1.194,12427215,40270,-3618,2.59,p
3.64,4996,-5.978,1.194,12427478,40271,-3610,2.59,p
4.05,4990,-5.978,1.194,12427859,40272,-3602,2.73,p
4.33,4998,-5.985,1.194,12428101,40273,-3595,2.87,p
4.57,4999,-5.992,1.194,12428401,40274,-3587,2.88,p
5.0,5004,-5.999,1.194,12428816,40275,-3579,2.87,p
5.13,5002,-5.999,1.194,12428949,40276,-3571,3.07,p
5.41,5009,-6.006,1.194,12429255,40277,-3563,3.06,p
5.82,5002,-6.013,1.194,12429611,40278,-3556,3.23,p
6.13,4996,-6.013,1.194,12429904,40279,-3548,2.95,p
6.41,4998,-6.02,1.194,12430199,40280,-3540,3.23,p
6.73,5003,-6.02,1.194,12430513,40281,-3532,3.19,p
6.96,4998,-6.027,1.194,12430741,40282,-3524,3.22,p
7.23,4995,-6.034,1.194,12431049,40283,-3517,3.02,p
7.6,4997,-6.034,1.198,12431419,40284,-3509,2.85,p
7.92,4995,-6.04,1.202,12431680,40285,-3501,3.07,p
8.17,5003,-6.048,1.203,12431997,40286,-3493,3.34,p
8.48,4997,-6.048,1.204,12432277,40287,-3485,3.03,p
8.74,4998,-6.055,1.204,12432578,40288,-3478,3.18,p
9.21,5004,-6.062,1.204,12432950,40289,-3470,2.97,p
9.33,4997,-6.062,1.204,12433147,40290,-3462,3.19,p
9.6,4995,-6.069,1.204,12433450,40291,-3454,3.2,p
9.97,5005,-6.076,1.204,12433807,40292,-3446,3.22,p
10.24,4995,-6.076,1.204,12434058,40293,-3439,3.23,p
10.71,4997,-6.083,1.204,12434504,40294,-3431,3.39,p
10.83,5002,-6.09,1.204,12434642,40295,-3423,3.3,p
11.27,5004,-6.097,1.204,12435077,40296,-3415,3.26,p
11.53,4993,-6.097,1.204,12435353,40297,-3407,3.75,p
11.84,4999,-6.104,1.207,12435654,40298,-3400,3.47,p
12.15,4993,-6.109,1.213,12435920,40299,-3392,3.36,p
12.42,5004,-6.115,1.214,12436227,40300,-3384,3.23,p
12.71,4997,-6.115,1.215,12436560,40301,-3376,3.4,p
13.02,5000,-6.123,1.215,12436819,40302,-3368,3.26,p
13.28,4999,-6.13,1.215,12437072,40303,-3361,3.46,p
13.67,4998,-6.137,1.215,12437470,40304,-3353,3.29,p
13.94,4991,-6.137,1.215,12437752,40305,-3345,3.3,p
14.23,5002,-6.145,1.215,12438034,40306,-3337,3.28,p
14.55,4995,-6.152,1.215,12438363,40307,-3329,3.13,p
14.86,5004,-6.152,1.216,12438672,40308,-3322,3.39,p
15.15,4996,-6.158,1.216,12438943,40309,-3314,3.23,p
15.4,5000,-6.158,1.216,12439230,40310,-3306,3.42,p
15.63,4998,-6.165,1.216,12439449,40311,-3298,3.28,p
16.03,4998,-6.173,1.216,12439781,40312,-3290,3.36,p
16.24,4996,-6.177,1.216,12440089,40313,-3283,3.37,p
16.54,5004,-6.177,1.216,12440387,40314,-3275,3.35,p
16.97,4996,-6.184,1.216,12440762,40315,-3267,3.31,p
17.26,4998,-6.195,1.216,12441052,40316,-3259,3.24,p
17.54,5003,-6.199,1.216,12441370,40317,-3251,3.4,p
17.84,5006,-6.199,1.216,12441649,40318,-3244,3.33,p
18.1,5001,-6.207,1.216,12441883,40319,-3236,3.25,p
18.38,4994,-6.207,1.216,12442157,40320,-3228,3.47,p
18.65,5000,-6.214,1.219,12442452,40321,-3220,3.45,p
19.1,4999,-6.221,1.229,12442891,40322,-3212,3.24,p
19.23,5002,-6.221,1.232,12443065,40323,-3205,3.36,p
19.7,5001,-6.229,1.234,12443530,40324,-3197,3.28,p
19.85,5003,-6.236,1.234,12443671,40325,-3189,3.47,p
20.19,5008,-6.243,1.235,12443980,40326,-3181,3.5,p
20.49,5002,-6.243,1.235,12444292,40327,-3173,3.39,p
20.78,4997,-6.25,1.235,12444614,40328,-3166,3.45,p
21.07,5000,-6.257,1.235,12444863,40329,-3158,3.53,p
21.35,5004,-6.262,1.235,12445206,40330,-3150,3.4,p
21.8,4998,-6.269,1.235,12445606,40331,-3142,3.36,p
22.03,4996,-6.269,1.235,12445870,40332,-3134,3.52,p
22.33,5005,-6.275,1.235,12446145,40333,-3127,3.31,p
22.59,4996,-6.275,1.235,12446389,40334,-3119,3.2,p
22.93,5002,-6.283,1.235,12446669,40335,-3111,3.33,p
23.18,4997,-6.287,1.235,12446970,40336,-3103,3.33,p
23.48,5000,-6.294,1.236,12447285,40337,-3095,3.37,p
23.87,5006,-6.302,1.236,12447702,40338,-3088,3.52,p
24.17,5003,-6.302,1.236,12447992,40339,-3080,3.35,p
24.4,4997,-6.309,1.236,12448229,40340,-3072,3.52,p
24.68,4998,-6.309,1.236,12448479,40341,-3064,3.59,p
24.95,5003,-6.315,1.236,12448775,40342,-3056,3.24,p
25.34,5001,-6.322,1.236,12449140,40343,-3049,3.23,p
25.61,5000,-6.322,1.236,12449420,40344,-3041,3.37,p
25.82,4997,-6.33,1.236,12449690,40345,-3033,3.33,p
26.23,4992,-6.337,1.237,12450069,40346,-3025,3.25,p
26.48,4994,-6.337,1.237,12450294,40347,-3017,3.57,p
26.71,4999,-6.344,1.237,12450561,40348,-3010,3.31,p
27.07,5001,-6.352,1.238,12450871,40349,-3002,3.51,p
27.37,4998,-6.352,1.238,12451210,40350,-2994,3.25,p
27.78,5003,-6.358,1.239,12451612,40351,-2986,3.42,p
28.09,4999,-6.366,1.239,12451890,40352,-2978,3.61,p
28.22,4999,-6.366,1.239,12452057,40353,-2971,3.34,p
28.54,4998,-6.377,1.24,12452411,40354,-2963,3.51,p
28.82,5003,-6.377,1.254,12452661,40355,-2955,3.35,p
29.24,4999,-6.385,1.263,12452999,40356,-2947,3.52,p
29.41,4996,-6.392,1.265,12453280,40357,-2939,3.47,p
29.79,5001,-6.392,1.265,12453654,40358,-2932,3.37,p
30.09,4996,-6.399,1.265,12453921,40359,-2924,3.64,p
30.31,5001,-6.399,1.266,12454173,40360,-2916,3.46,p
30.74,4997,-6.406,1.266,12454528,40361,-2908,3.52,p
30.94,4998,-6.414,1.266,12454767,40362,-2900,3.61,p
31.38,5003,-6.421,1.266,12455161,40363,-2893,3.36,p
31.65,5000,-6.428,1.266,12455480,40364,-2885,3.42,p
31.99,4993,-6.428,1.266,12455758,40365,-2877,3.47,p
32.2,5006,-6.435,1.266,12456049,40366,-2869,3.66,p
32.56,4999,-6.443,1.266,12456352,40367,-2861,3.3,p
32.87,4996,-6.443,1.266,12456650,40368,-2854,3.47,p
33.11,4994,-6.451,1.266,12456941,40369,-2846,3.59,p
33.37,5000,-6.451,1.266,12457192,40370,-2838,3.5,p
33.65,4992,-6.457,1.266,12457485,40371,-2830,3.48,p
34.1,5000,-6.465,1.266,12457900,40372,-2822,3.41,p
34.29,4996,-6.469,1.266,12458172,40373,-2815,3.51,p
34.54,5003,-6.469,1.266,12458406,40374,-2807,3.42,p
34.95,4996,-6.476,1.267,12458791,40375,-2799,3.44,p
35.22,5002,-6.484,1.267,12459044,40376,-2791,3.53,p
35.55,4996,-6.491,1.267,12459385,40377,-2783,3.39,p
35.84,5001,-6.491,1.267,12459696,40378,-2776,3.36,p
36.19,5003,-6.498,1.268,12459907,40379,-2768,3.58,p
36.52,4999,-6.506,1.268,12460290,40380,-2760,3.79,p
36.81,4997,-6.513,1.269,12460608,40381,-2752,3.64,p
37.04,5003,-6.513,1.269,12460900,40382,-2744,3.47,p
37.33,4996,-6.52,1.269,12461144,40383,-2737,3.47,p
37.57,5000,-6.52,1.269,12461383,40384,-2729,3.42,p
37.98,4997,-6.528,1.27,12461789,40385,-2721,3.4,p
38.21,5000,-6.535,1.271,12462076,40386,-2713,3.58,p
38.45,4998,-6.535,1.271,12462269,40387,-2705,3.5,p
38.93,4998,-6.542,1.272,12462712,40388,-2698,3.58,p
39.06,4997,-6.549,1.272,12462870,40389,-2690,3.53,p
39.43,5000,-6.556,1.273,12463307,40390,-2682,3.4,p
39.67,5001,-6.556,1.274,12463541,40391,-2674,3.52,p
39.96,4997,-6.56,1.275,12463773,40392,-2666,3.52,p
40.32,5002,-6.568,1.275,12464142,40393,-2659,3.58,p
40.57,4998,-6.568,1.276,12464398,40394,-2651,3.34,p
41.01,4997,-6.575,1.277,12464804,40395,-2643,3.55,p
41.24,4993,-6.582,1.277,12465072,40396,-2635,3.53,p
41.57,4994,-6.589,1.278,12465359,40397,-2627,3.53,p
41.8,4999,-6.589,1.279,12465625,40398,-2620,3.28,p
42.06,5002,-6.596,1.28,12465942,40399,-2612,3.4,p
42.51,5005,-6.603,1.281,12466304,40400,-2604,3.44,p
42.8,5000,-6.608,1.282,12466596,40401,-2596,3.47,p
43.04,4998,-6.608,1.282,12466895,40402,-2588,3.63,p
43.42,5003,-6.615,1.284,12467178,40403,-2581,3.51,p
43.69,5005,-6.622,1.284,12467500,40404,-2573,3.52,p
43.9,5003,-6.622,1.285,12467768,40405,-2565,3.52,p
44.19,4997,-6.629,1.286,12467979,40406,-2557,3.46,p
44.4,5004,-6.636,1.287,12468281,40407,-2549,3.34,p
44.96,4997,-6.643,1.292,12468763,40408,-2542,3.63,p
45.1,5003,-6.643,1.297,12468896,40409,-2534,3.63,p
45.39,4998,-6.65,1.308,12469211,40410,-2526,3.55,p
45.77,5002,-6.65,1.315,12469583,40411,-2518,3.41,p
46.12,5004,-6.657,1.315,12469844,40412,-2510,3.45,p
46.35,4998,-6.665,1.316,12470160,40413,-2503,3.45,p
46.6,4995,-6.665,1.316,12470447,40414,-2495,3.44,p
46.91,5003,-6.672,1.316,12470699,40415,-2487,3.58,p
47.16,4998,-6.679,1.316,12471016,40416,-2479,3.58,p
47.5,5002,-6.686,1.316,12471340,40417,-2471,3.64,p
47.84,4997,-6.691,1.316,12471679,40418,-2464,3.69,p
48.05,4998,-6.691,1.317,12471898,40419,-2456,3.44,p
48.48,4991,-6.697,1.317,12472293,40420,-2448,3.69,p
48.72,4999,-6.705,1.317,12472588,40421,-2440,3.47,p
49.0,4997,-6.705,1.317,12472791,40422,-2432,3.39,p
49.38,5003,-6.712,1.317,12473119,40423,-2425,3.4,p
49.7,4996,-6.718,1.317,12473505,40424,-2417,3.47,p
50.01,5002,-6.726,1.317,12473809,40425,-2409,3.25,p
50.33,4998,-6.726,1.317,12474129,40426,-2401,3.46,p
50.48,4996,-6.733,1.317,12474280,40427,-2393,3.48,p
50.75,4996,-6.733,1.317,12474630,40428,-2386,3.36,p
51.17,5000,-6.74,1.317,12475000,40429,-2378,3.44,p
51.49,4997,-6.747,1.321,12475278,40430,-2370,3.5,p
51.71,5001,-6.755,1.323,12475570,40431,-2362,3.66,p
52.05,5001,-6.758,1.331,12475850,40432,-2354,3.45,p
52.34,4998,-6.758,1.335,12476172,40433,-2347,3.59,p
52.62,5005,-6.765,1.336,12476451,40434,-2339,3.67,p
52.95,5005,-6.77,1.336,12476682,40435,-2331,3.63,p
53.3,4999,-6.778,1.336,12477099,40436,-2323,3.55,p
53.52,5005,-6.778,1.336,12477331,40437,-2315,3.53,p
53.76,5002,-6.785,1.336,12477591,40438,-2308,3.56,p
54.18,5001,-6.792,1.336,12477981,40439,-2300,3.34,p
54.48,5002,-6.792,1.336,12478268,40440,-2292,3.29,p
54.78,4995,-6.799,1.336,12478544,40441,-2284,3.36,p
55.0,5002,-6.799,1.336,12478816,40442,-2276,3.42,p
55.42,5003,-6.806,1.337,12479199,40443,-2269,3.45,p
55.81,4991,-6.818,1.337,12479581,40444,-2261,3.55,p
55.95,5006,-6.818,1.337,12479742,40445,-2253,3.41,p
56.14,5000,-6.818,1.337,12480017,40446,-2245,3.36,p
56.65,4997,-6.829,1.337,12480407,40447,-2237,3.63,p
56.79,5003,-6.833,1.337,12480588,40448,-2230,3.35,p
57.14,4995,-6.833,1.337,12480969,40449,-2222,3.5,p
57.43,5000,-6.845,1.337,12481244,40450,-2214,3.3,p
57.69,4998,-6.845,1.337,12481532,40451,-2206,3.72,p
58.03,5000,-6.852,1.338,12481796,40452,-2198,3.64,p
58.33,4991,-6.859,1.338,12482160,40453,-2191,3.55,p
58.59,5001,-6.859,1.338,12482413,40454,-2183,3.44,p
58.91,4997,-6.866,1.338,12482694,40455,-2175,3.61,p
59.2,5003,-6.873,1.339,12483008,40456,-2167,3.51,p
59.46,4999,-6.873,1.339,12483325,40457,-2159,3.42,p
60.0,5001,-6.885,1.34,12483771,40458,-2152,3.26,p
60.12,4999,-6.885,1.34,12483941,40459,-2144,3.47,p
60.41,5000,-6.892,1.34,12484190,40460,-2136,3.36,p
60.76,4991,-6.896,1.341,12484539,40461,-2128,3.5,p
61.03,4998,-6.896,1.341,12484821,40462,-2120,3.37,p
61.27,4992,-6.903,1.342,12485097,40463,-2113,3.55,p
61.74,5002,-6.911,1.359,12485570,40464,-2105,3.59,p
62.04,5007,-6.914,1.364,12485827,40465,-2097,3.66,p
62.33,5004,-6.922,1.366,12486129,40466,-2089,3.56,p
62.54,5001,-6.922,1.367,12486360,40467,-2081,3.46,p
62.78,4997,-6.93,1.367,12486607,40468,-2074,3.46,p
63.16,4990,-6.936,1.367,12486988,40469,-2066,3.5,p
63.45,4995,-6.936,1.367,12487242,40470,-2058,3.35,p
63.79,4995,-6.944,1.367,12487554,40471,-2050,3.45,p
64.07,4997,-6.951,1.367,12487870,40472,-2042,3.46,p
64.31,4998,-6.951,1.367,12488134,40473,-2035,3.42,p
64.62,4995,-6.958,1.367,12488400,40474,-2027,3.42,p
64.91,5001,-6.966,1.367,12488734,40475,-2019,3.55,p
65.2,4999,-6.966,1.367,12489009,40476,-2011,3.75,p
65.62,5004,-6.973,1.368,12489418,40477,-2003,3.72,p
65.93,5000,-6.98,1.368,12489718,40478,-1996,3.8,p
66.25,4994,-6.985,1.368,12490003,40479,-1988,3.48,p
66.34,4995,-6.989,1.368,12490209,40480,-1980,3.61,p
66.81,5002,-6.996,1.368,12490602,40481,-1972,3.4,p
67.01,5010,-6.996,1.368,12490857,40482,-1964,3.64,p
67.5,5001,-7.003,1.368,12491233,40483,-1957,3.52,p
67.63,4998,-7.01,1.368,12491451,40484,-1949,3.62,p
67.88,5002,-7.01,1.368,12491708,40485,-1941,3.51,p
68.32,5004,-7.017,1.368,12492100,40486,-1933,3.46,p
68.57,5003,-7.025,1.369,12492400,40487,-1925,3.48,p
68.85,4997,-7.025,1.369,12492663,40488,-1918,3.45,p
69.15,5003,-7.032,1.369,12492941,40489,-1910,3.7,p
69.38,4998,-7.032,1.37,12493200,40490,-1902,3.58,p
69.78,5003,-7.039,1.37,12493579,40491,-1894,3.47,p
70.11,4996,-7.046,1.37,12493880,40492,-1886,3.4,p
70.36,5001,-7.053,1.371,12494189,40493,-1879,3.42,p
70.59,4992,-7.053,1.371,12494445,40494,-1871,3.34,p
70.98,5000,-7.061,1.372,12494782,40495,-1863,3.74,p
71.31,4995,-7.065,1.372,12495081,40496,-1855,3.33,p
71.54,5003,-7.072,1.373,12495399,40497,-1847,3.17,p
71.89,4997,-7.079,1.374,12495655,40498,-1840,3.33,p
72.12,5004,-7.079,1.374,12495927,40499,-1832,3.36,p
72.4,5002,-7.086,1.375,12496207,40500,-1824,3.63,p
72.79,4999,-7.091,1.376,12496633,40501,-1816,3.58,p
73.02,4995,-7.091,1.377,12496870,40502,-1808,3.69,p
73.32,5000,-7.098,1.378,12497112,40503,-1801,3.48,p
73.61,4996,-7.105,1.378,12497449,40504,-1793,3.37,p
73.94,5001,-7.105,1.379,12497731,40505,-1785,3.59,p
74.33,4998,-7.112,1.38,12498162,40506,-1777,3.46,p
74.62,5001,-7.119,1.381,12498435,40507,-1769,3.25,p
74.83,5000,-7.126,1.382,12498692,40508,-1762,3.53,p
75.19,5000,-7.126,1.383,12499017,40509,-1754,3.37,p
75.48,4994,-7.133,1.384,12499271,40510,-1746,3.36,p
75.77,4995,-7.14,1.384,12499560,40511,-1738,3.57,p
75.97,5003,-7.144,1.385,12499819,40512,-1730,3.64,p
76.27,4995,-7.148,1.386,12500118,40513,-1723,3.45,p
76.66,5004,-7.148,1.387,12500472,40514,-1715,3.36,p
77.01,5001,-7.155,1.388,12500770,40515,-1707,3.41,p
77.25,5002,-7.162,1.389,12501061,40516,-1699,3.4,p
77.53,4999,-7.162,1.39,12501337,40517,-1691,3.33,p
77.83,4995,-7.169,1.393,12501638,40518,-1684,3.62,p
78.15,5003,-7.176,1.412,12502020,40519,-1676,3.67,p
78.53,4994,-7.183,1.417,12502259,40520,-1668,3.5,p
78.78,4999,-7.187,1.418,12502591,40521,-1660,3.53,p
79.04,4996,-7.187,1.418,12502868,40522,-1652,3.17,p
79.43,5003,-7.194,1.418,12503212,40523,-1645,3.46,p
79.69,4998,-7.2,1.418,12503507,40524,-1637,3.37,p
79.93,5000,-7.2,1.418,12503751,40525,-1629,3.48,p
80.23,5001,-7.208,1.418,12504042,40526,-1621,3.41,p
80.49,5005,-7.208,1.418,12504321,40527,-1613,3.35,p
80.94,5005,-7.222,1.418,12504747,40528,-1606,3.48,p
81.21,4999,-7.222,1.419,12505011,40529,-1598,3.55,p
81.5,5003,-7.229,1.422,12505328,40530,-1590,3.34,p
81.72,4995,-7.229,1.425,12505522,40531,-1582,3.22,p
82.14,4997,-7.235,1.427,12505933,40532,-1574,3.48,p
82.41,4997,-7.243,1.427,12506224,40533,-1567,3.51,p
82.71,5004,-7.25,1.427,12506507,40534,-1559,3.47,p
82.96,4990,-7.254,1.427,12506815,40535,-1551,3.36,p
83.32,5001,-7.254,1.427,12507092,40536,-1543,3.55,p
83.56,4993,-7.261,1.427,12507401,40537,-1535,3.41,p
83.92,5003,-7.268,1.428,12507670,40538,-1528,3.41,p
84.19,4997,-7.268,1.428,12508017,40539,-1520,3.45,p
84.49,5002,-7.275,1.428,12508224,40540,-1512,3.44,p
84.67,5003,-7.275,1.428,12508556,40541,-1504,3.46,p
85.16,5001,-7.289,1.428,12509000,40542,-1496,3.48,p
85.41,4990,-7.289,1.428,12509253,40543,-1489,3.58,p
85.73,5001,-7.294,1.428,12509539,40544,-1481,3.44,p
85.98,4996,-7.301,1.428,12509813,40545,-1473,3.47,p
86.25,5002,-7.301,1.428,12510067,40546,-1465,3.57,p
86.53,5000,-7.307,1.428,12510362,40547,-1457,3.73,p
86.81,4995,-7.307,1.429,12510635,40548,-1450,3.62,p
87.16,5000,-7.315,1.429,12511022,40549,-1442,3.47,p
87.52,5000,-7.327,1.429,12511322,40550,-1434,3.55,p
87.76,5002,-7.327,1.429,12511591,40551,-1426,3.58,p
88.09,5000,-7.334,1.429,12511882,40552,-1418,3.48,p
88.34,5004,-7.334,1.429,12512198,40553,-1411,3.36,p
88.61,5001,-7.342,1.429,12512442,40554,-1403,3.44,p
88.93,5002,-7.349,1.43,12512818,40555,-1395,3.63,p
89.24,4996,-7.349,1.43,12513059,40556,-1387,3.73,p
89.6,5002,-7.356,1.431,12513421,40557,-1379,3.34,p
89.83,4998,-7.364,1.431,12513670,40558,-1372,3.57,p
90.23,5004,-7.371,1.432,12513985,40559,-1364,3.42,p
90.54,4997,-7.376,1.432,12514323,40560,-1356,3.63,p
90.77,5006,-7.38,1.433,12514600,40561,-1348,3.81,p
91.11,4995,-7.38,1.433,12514894,40562,-1340,3.7,p
91.31,5003,-7.388,1.434,12515177,40563,-1333,3.63,p
91.56,4993,-7.395,1.434,12515421,40564,-1325,3.53,p
92.0,5005,-7.403,1.436,12515818,40565,-1317,3.57,p
92.31,4995,-7.407,1.436,12516115,40566,-1309,3.46,p
92.58,5000,-7.407,1.437,12516376,40567,-1301,3.66,p
92.8,4992,-7.415,1.437,12516660,40568,-1294,3.58,p
93.17,4998,-7.423,1.438,12517013,40569,-1286,3.89,p
93.47,4997,-7.423,1.439,12517290,40570,-1278,3.68,p
93.67,4998,-7.43,1.44,12517544,40571,-1270,3.72,p
94.11,5007,-7.437,1.441,12517908,40572,-1262,3.41,p
94.35,5001,-7.437,1.441,12518197,40573,-1255,3.62,p
94.66,4997,-7.445,1.442,12518445,40574,-1247,3.57,p
94.96,5001,-7.449,1.444,12518787,40575,-1239,3.69,p
95.24,4991,-7.449,1.444,12519063,40576,-1231,3.58,p
95.56,4999,-7.456,1.445,12519329,40577,-1223,3.75,p
95.83,4996,-7.464,1.446,12519674,40578,-1216,3.61,p
96.12,5001,-7.47,1.447,12519933,40579,-1208,3.42,p
96.58,5006,-7.478,1.448,12520364,40580,-1200,3.31,p
96.87,5003,-7.478,1.448,12520706,40581,-1192,3.29,p
97.12,4993,-7.485,1.449,12520918,40582,-1184,3.42,p
97.4,4999,-7.485,1.455,12521207,40583,-1177,3.57,p
97.65,5003,-7.492,1.46,12521502,40584,-1169,3.24,p
97.92,4996,-7.5,1.471,12521762,40585,-1161,3.58,p
98.25,4994,-7.5,1.478,12522025,40586,-1153,3.61,p
98.48,4999,-7.508,1.479,12522331,40587,-1145,3.69,p
98.88,4997,-7.514,1.479,12522712,40588,-1138,3.37,p
99.21,4995,-7.514,1.479,12523001,40589,-1130,3.66,p
99.41,5000,-7.521,1.479,12523250,40590,-1122,3.56,p
99.81,5000,-7.529,1.48,12523664,40591,-1114,3.5,p
100.07,4996,-7.529,1.48,12523900,40592,-1106,3.55,p
100.32,5003,-7.536,1.48,12524149,40593,-1099,3.15,p
100.66,5002,-7.543,1.48,12524457,40594,-1091,3.4,p
100.89,4996,-7.543,1.48,12524736,40595,-1083,3.52,p
101.25,4998,-7.551,1.48,12525085,40596,-1075,3.66,p
101.6,5000,-7.558,1.48,12525469,40597,-1067,3.61,p
101.9,5003,-7.565,1.48,12525710,40598,-1060,3.45,p
102.15,4997,-7.565,1.48,12525944,40599,-1052,3.55,p
102.56,5005,-7.572,1.48,12526329,40600,-1044,3.47,p
102.84,4996,-7.58,1.48,12526658,40601,-1036,3.51,p
103.09,4999,-7.58,1.48,12526927,40602,-1028,3.73,p
103.43,4995,-7.587,1.48,12527190,40603,-1021,3.42,p
103.75,5002,-7.593,1.48,12527522,40604,-1013,3.39,p
104.09,5004,-7.597,1.48,12527851,40605,-1005,3.46,p
104.33,5000,-7.605,1.48,12528132,40606,-997,3.74,p
104.65,4998,-7.605,1.481,12528438,40607,-989,3.63,p
104.9,5004,-7.612,1.481,12528721,40608,-982,3.44,p
105.17,5005,-7.612,1.481,12528996,40609,-974,3.45,p
105.51,5002,-7.619,1.482,12529302,40610,-966,3.51,p
105.77,4994,-7.627,1.482,12529571,40611,-958,3.44,p
106.11,5004,-7.633,1.483,12529892,40612,-950,3.56,p
106.36,5007,-7.633,1.483,12530169,40613,-943,3.33,p
106.61,4997,-7.641,1.483,12530441,40614,-935,3.62,p
106.92,5003,-7.641,1.484,12530778,40615,-927,3.58,p
107.28,4999,-7.648,1.484,12531094,40616,-919,3.36,p
107.52,4994,-7.655,1.485,12531390,40617,-911,3.41,p
107.97,4997,-7.66,1.486,12531732,40618,-904,3.67,p
108.21,4995,-7.667,1.486,12532000,40619,-896,3.57,p
108.45,5003,-7.671,1.487,12532290,40620,-888,3.39,p
108.73,4997,-7.671,1.488,12532551,40621,-880,3.72,p
109.15,5004,-7.678,1.489,12532951,40622,-872,3.48,p
109.36,4999,-7.685,1.489,12533200,40623,-865,3.58,p
109.71,5000,-7.685,1.491,12533544,40624,-857,3.47,p
109.98,4993,-7.692,1.491,12533778,40625,-849,3.47,p
110.27,4999,-7.7,1.491,12534095,40626,-841,3.42,p
110.54,4995,-7.705,1.492,12534391,40627,-833,3.46,p
110.94,5003,-7.712,1.494,12534752,40628,-826,3.66,p
111.23,5003,-7.712,1.495,12534996,40629,-818,3.48,p
111.42,4993,-7.719,1.495,12535260,40630,-810,3.39,p
111.85,4999,-7.726,1.496,12535659,40631,-802,3.62,p
112.11,4999,-7.73,1.497,12535940,40632,-794,3.47,p
112.43,4993,-7.73,1.498,12536270,40633,-787,3.61,p
112.71,4996,-7.738,1.499,12536550,40634,-779,3.53,p
113.07,4996,-7.745,1.5,12536830,40635,-771,3.78,p
113.38,5004,-7.749,1.501,12537171,40636,-763,3.63,p
113.61,5001,-7.753,1.502,12537429,40637,-755,3.62,p
113.94,4998,-7.761,1.52,12537759,40638,-748,3.69,p
114.23,5003,-7.761,1.523,12538051,40639,-740,3.62,p
114.48,4994,-7.768,1.527,12538318,40640,-732,3.46,p
114.74,4999,-7.768,1.529,12538597,40641,-724,3.58,p
115.17,4996,-7.775,1.529,12538923,40642,-717,3.46,p
115.4,5002,-7.782,1.529,12539230,40643,-709,3.56,p
115.72,5000,-7.789,1.529,12539500,40644,-701,3.51,p
116.0,5002,-7.793,1.529,12539814,40645,-693,3.55,p
116.27,4998,-7.798,1.529,12540106,40646,-685,3.52,p
116.7,5001,-7.804,1.53,12540501,40647,-678,3.37,p
116.99,4996,-7.804,1.53,12540743,40648,-670,3.73,p
117.14,5001,-7.804,1.533,12540947,40649,-662,3.84,p
117.49,4992,-7.812,1.537,12541335,40650,-654,3.55,p
117.77,4997,-7.819,1.54,12541589,40651,-646,3.67,p
118.04,4997,-7.826,1.541,12541862,40652,-639,3.64,p
118.44,5001,-7.833,1.541,12542252,40653,-631,3.57,p
118.7,4994,-7.833,1.541,12542521,40654,-623,3.73,p
118.91,5003,-7.84,1.541,12542759,40655,-615,3.64,p
119.29,4999,-7.84,1.541,12543119,40656,-607,3.58,p
119.54,5002,-7.847,1.541,12543365,40657,-600,3.55,p
119.89,4989,-7.854,1.541,12543716,40658,-592,3.55,p
120.21,4999,-7.862,1.541,12543993,40659,-584,3.61,p
120.44,4992,-7.862,1.541,12544274,40660,-576,3.51,p
120.79,5005,-7.866,1.541,12544555,40661,-568,3.56,p
120.98,4998,-7.872,1.541,12544847,40662,-561,3.5,p
121.36,5004,-7.877,1.541,12545202,40663,-553,3.47,p
121.65,5004,-7.884,1.541,12545496,40664,-545,3.57,p
122.01,5001,-7.884,1.541,12545879,40665,-537,3.42,p
122.22,5006,-7.891,1.541,12546093,40666,-529,3.61,p
122.57,5007,-7.899,1.541,12546403,40667,-529,3.61,i
122.87,5009,-7.899,1.541,12546677,40668,-529,3.24,i
123.2,5007,-7.899,1.542,12546980,40669,-529,3.03,i
123.42,5006,-7.899,1.542,12547249,40670,-529,3.1,i
123.79,5008,-7.899,1.552,12547594,40671,-529,2.87,i
124.06,5009,-7.899,1.557,12547884,40672,-529,2.97,i
124.41,5007,-7.899,1.561,12548240,40673,-529,2.77,i
124.69,5006,-7.899,1.561,12548495,40674,-529,2.62,i
125.0,5008,-7.899,1.561,12548819,40675,-529,2.57,i
125.26,5007,-7.899,1.561,12549092,40676,-529,2.68,i
125.52,5008,-7.899,1.561,12549371,40677,-529,2.4,i
125.91,5008,-7.899,1.562,12549721,40678,-529,2.51,i
126.14,5008,-7.899,1.562,12549992,40679,-529,2.38,i
126.55,5007,-7.9,1.562,12550367,40680,-529,2.14,i
126.77,5007,-7.9,1.562,12550609,40681,-529,2.27,i
127.17,5007,-7.9,1.562,12551002,40682,-529,2.13,i
127.42,5007,-7.9,1.562,12551255,40683,-529,2.05,i
127.69,5007,-7.9,1.562,12551504,40684,-529,2.07,i
128.07,5007,-7.9,1.562,12551872,40685,-529,2.11,i
128.3,5008,-7.9,1.562,12552118,40686,-529,2.04,i
128.7,5007,-7.9,1.562,12552491,40687,-529,1.85,i
129.0,5007,-7.9,1.562,12552771,40688,-529,1.81,i
129.27,5008,-7.9,1.562,12553121,40689,-529,1.67,i
129.59,5004,-7.9,1.562,12553412,40690,-529,1.91,i
129.82,5006,-7.9,1.562,12553638,40691,-529,1.8,i
130.17,5009,-7.9,1.562,12554022,40692,-529,1.67,i
130.47,5008,-7.9,1.562,12554269,40693,-529,1.77,i
130.7,5006,-7.9,1.562,12554551,40694,-529,1.67,i
131.04,5008,-7.9,1.562,12554889,40695,-529,1.77,i
131.34,5009,-7.9,1.562,12555109,40696,-529,1.85,i
131.6,5006,-7.9,1.562,12555405,40697,-529,1.81,i
131.94,5009,-7.9,1.563,12555725,40698,-529,1.69,i
132.19,5006,-7.9,1.563,12555974,40699,-529,1.58,i
132.57,5008,-7.9,1.563,12556382,40700,-529,1.66,i
132.83,5008,-7.9,1.564,12556629,40701,-529,1.48,i
133.1,5008,-7.9,1.564,12556887,40702,-529,1.65,i
133.38,5006,-7.901,1.564,12557257,40703,-529,1.72,i
133.72,5006,-7.901,1.565,12557534,40704,-529,1.59,i
134.01,5006,-7.901,1.565,12557835,40705,-529,1.48,i
134.39,5009,-7.901,1.566,12558187,40706,-529,1.66,i
134.58,5007,-7.901,1.566,12558402,40707,-529,1.66,i
134.85,5008,-7.901,1.566,12558662,40708,-529,1.63,i
135.28,5007,-7.901,1.567,12559112,40709,-529,1.47,i
135.63,5005,-7.901,1.567,12559422,40710,-529,1.36,i
135.75,5008,-7.901,1.567,12559565,40711,-529,1.38,i
136.09,5008,-7.901,1.568,12559958,40712,-529,1.52,i
136.35,5009,-7.901,1.568,12560176,40713,-529,1.5,i
136.73,5008,-7.901,1.568,12560561,40714,-529,1.52,i
137.0,5005,-7.901,1.569,12560811,40715,-529,1.47,i
137.43,5007,-7.901,1.569,12561219,40716,-529,1.5,i
137.59,5004,-7.901,1.569,12561395,40717,-529,1.55,i
137.93,5008,-7.901,1.569,12561681,40718,-529,1.48,i
138.28,5007,-7.901,1.57,12562086,40719,-529,1.52,i
138.53,5009,-7.901,1.57,12562382,40720,-529,1.36,i
138.79,5007,-7.901,1.57,12562629,40721,-529,1.36,i
139.04,5006,-7.901,1.57,12562882,40722,-529,1.61,i
139.43,5006,-7.901,1.57,12563246,40723,-529,1.42,i
139.71,5006,-7.901,1.57,12563509,40724,-529,1.3,i
140.04,5005,-7.901,1.57,12563860,40725,-529,1.36,i
140.28,5007,-7.901,1.57,12564127,40726,-529,1.22,i
140.6,5007,-7.901,1.57,12564440,40727,-529,1.31,i
140.88,5007,-7.901,1.57,12564672,40728,-529,1.3,i
141.16,5006,-7.901,1.57,12564968,40729,-529,1.42,i
141.52,5008,-7.901,1.57,12565353,40730,-529,1.36,i
141.86,5008,-7.901,1.57,12565623,40731,-529,1.45,i
142.11,5006,-7.901,1.57,12565951,40732,-529,1.44,i
142.4,5006,-7.901,1.57,12566237,40733,-529,1.21,i
142.65,5005,-7.901,1.57,12566483,40734,-529,1.3,i
142.99,5009,-7.901,1.57,12566828,40735,-529,1.26,i
143.28,5005,-7.901,1.57,12567087,40736,-529,1.26,i
143.54,5006,-7.901,1.571,12567380,40737,-529,1.26,i
143.86,5008,-7.901,1.571,12567677,40738,-529,1.41,i
144.3,5008,-7.901,1.571,12568102,40739,-529,1.39,i
144.56,5008,-7.901,1.571,12568406,40740,-529,1.43,i
144.77,5008,-7.901,1.571,12568657,40741,-529,1.39,i
145.08,5007,-7.901,1.571,12568941,40742,-529,1.25,i
145.36,5009,-7.901,1.571,12569171,40743,-529,1.33,i
145.71,5008,-7.901,1.571,12569522,40744,-529,1.16,i
146.08,5009,-7.901,1.571,12569937,40745,-529,1.45,i
146.32,5007,-7.901,1.571,12570150,40746,-529,1.37,i
146.58,5007,-7.901,1.571,12570395,40747,-529,1.36,i
146.84,5008,-7.901,1.571,12570684,40748,-529,1.36,i
147.23,5007,-7.901,1.571,12571038,40749,-529,1.27,i
147.5,5009,-7.901,1.571,12571322,40750,-529,1.32,i
147.81,5007,-7.901,1.571,12571629,40751,-529,1.15,i
148.0,5008,-7.901,1.571,12571899,40752,-529,1.36,i
148.42,5007,-7.901,1.571,12572304,40753,-529,1.31,i
148.74,5009,-7.901,1.571,12572570,40754,-529,1.2,i
149.01,5008,-7.901,1.571,12572819,40755,-529,1.31,i
149.45,5007,-7.901,1.571,12573209,40756,-529,1.53,i
149.58,5006,-7.901,1.571,12573385,40757,-529,1.43,i
149.99,5006,-7.901,1.571,12573761,40758,-529,1.38,i
150.18,5008,-7.901,1.571,12574003,40759,-529,1.42,i
150.46,5009,-7.901,1.571,12574283,40760,-529,1.47,i
150.92,5006,-7.901,1.571,12574706,40761,-529,1.28,i
151.13,5008,-7.901,1.571,12574990,40762,-529,1.34,i
151.44,5008,-7.901,1.571,12575263,40763,-529,1.36,i
151.72,5008,-7.901,1.571,12575492,40764,-529,1.3,i
152.1,5010,-7.901,1.571,12575906,40765,-529,1.2,i
152.32,5005,-7.901,1.571,12576158,40766,-529,1.05,i
152.61,5005,-7.901,1.571,12576390,40767,-529,1.15,i
152.91,5008,-7.901,1.571,12576749,40768,-529,1.27,i
153.18,5007,-7.901,1.571,12577009,40769,-529,1.19,i
153.61,5005,-7.901,1.571,12577417,40770,-529,1.36,i
153.86,5007,-7.901,1.571,12577665,40771,-529,1.17,i
154.08,5004,-7.901,1.57,12577917,40772,-529,1.2,i
154.4,5006,-7.901,1.57,12578180,40773,-529,1.23,i
154.68,5006,-7.901,1.57,12578500,40774,-529,1.17,i
155.08,5009,-7.901,1.57,12578854,40775,-529,1.27,i
155.27,5006,-7.901,1.57,12579132,40776,-529,1.26,i
155.75,5006,-7.901,1.57,12579548,40777,-529,1.3,i
155.91,5008,-7.901,1.57,12579722,40778,-529,1.2,i
156.25,5006,-7.901,1.57,12580056,40779,-529,1.19,i
156.51,5008,-7.901,1.57,12580331,40780,-529,1.27,i
156.9,5006,-7.901,1.57,12580721,40781,-529,1.25,i
157.16,5007,-7.901,1.57,12580983,40782,-529,1.17,i
157.41,5007,-7.901,1.57,12581238,40783,-529,1.25,i
157.78,5006,-7.901,1.57,12581634,40784,-529,1.27,i
158.03,5007,-7.901,1.57,12581852,40785,-529,1.14,i
158.47,5007,-7.901,1.57,12582203,40786,-529,1.16,i
158.62,5006,-7.901,1.57,12582405,40787,-529,1.22,i
159.0,5005,-7.901,1.57,12582787,40788,-529,1.17,i
159.27,5007,-7.901,1.57,12583063,40789,-529,1.36,i
159.56,5009,-7.901,1.57,12583379,40790,-529,1.25,i
159.85,5009,-7.901,1.57,12583642,40791,-529,1.19,i
160.01,5008,-7.901,1.57,12583904,40792,-529,1.16,i
160.46,5008,-7.901,1.57,12584272,40793,-529,1.27,i
160.75,5006,-7.901,1.571,12584572,40794,-529,1.22,i
161.06,5009,-7.902,1.576,12584863,40795,-529,1.28,i
161.31,5008,-7.901,1.577,12585150,40796,-529,1.23,i
161.72,5006,-7.901,1.578,12585519,40797,-529,1.21,i
161.95,5008,-7.901,1.578,12585810,40798,-529,1.31,i
162.18,5004,-7.901,1.578,12586061,40799,-529,1.36,i
162.44,5009,-7.901,1.578,12586298,40800,-529,1.12,i
162.9,5005,-7.901,1.578,12586670,40801,-529,1.27,i
163.14,5007,-7.901,1.578,12586960,40802,-529,1.3,i
163.4,5007,-7.902,1.578,12587261,40803,-529,1.23,i
163.67,5007,-7.902,1.578,12587511,40804,-529,1.05,i
163.98,5006,-7.902,1.578,12587810,40805,-529,1.31,i
164.35,5008,-7.902,1.578,12588153,40806,-529,1.33,i
164.62,5008,-7.902,1.578,12588456,40807,-529,1.09,i
165.02,5009,-7.902,1.578,12588845,40808,-529,1.3,i
165.35,5007,-7.901,1.578,12589102,40809,-529,1.43,i
165.61,5005,-7.901,1.578,12589382,40810,-529,1.36,i
165.82,5007,-7.901,1.578,12589668,40811,-529,1.23,i
166.1,5008,-7.901,1.578,12589901,40812,-529,1.34,i
166.45,5005,-7.901,1.578,12590253,40813,-529,1.25,i
166.76,5007,-7.901,1.578,12590620,40814,-529,1.3,i
166.99,5008,-7.902,1.578,12590791,40815,-529,1.36,i
167.37,5009,-7.901,1.578,12591211,40816,-529,1.3,i
167.66,5005,-7.901,1.578,12591478,40817,-529,1.25,i
167.97,5008,-7.901,1.578,12591772,40818,-529,1.3,i
168.23,5008,-7.902,1.578,12592049,40819,-529,1.26,i
168.52,5007,-7.902,1.578,12592346,40820,-529,1.17,i
168.79,5008,-7.902,1.578,12592612,40821,-529,1.3,i
169.23,5007,-7.902,1.578,12593058,40822,-529,1.19,i
169.53,5005,-7.902,1.578,12593329,40823,-529,1.41,i
169.83,5009,-7.902,1.578,12593603,40824,-529,1.22,i
170.02,5007,-7.902,1.578,12593861,40825,-529,1.36,i
170.35,5007,-7.902,1.578,12594163,40826,-529,1.43,i
170.66,5007,-7.902,1.578,12594424,40827,-529,1.25,i
170.91,5006,-7.902,1.578,12594707,40828,-529,1.42,i
171.23,5007,-7.902,1.578,12595011,40829,-529,1.23,i
171.5,5008,-7.902,1.578,12595332,40830,-529,1.34,i
171.9,5007,-7.901,1.579,12595702,40831,-529,1.3,i
172.14,5007,-7.901,1.579,12595962,40832,-529,1.25,i
172.41,5007,-7.901,1.579,12596239,40833,-529,1.1,i
172.62,5007,-7.902,1.579,12596523,40834,-529,1.25,i
172.99,5007,-7.901,1.579,12596837,40835,-529,1.21,i
173.33,5009,-7.902,1.579,12597183,40836,-529,1.22,i
173.57,5007,-7.902,1.579,12597419,40837,-529,1.15,i
173.97,5008,-7.902,1.579,12597799,40838,-529,1.16,i
174.23,5008,-7.901,1.579,12598092,40839,-529,1.21,i
174.48,5009,-7.901,1.579,12598332,40840,-529,1.1,i
174.99,5007,-7.902,1.579,12598775,40841,-529,1.17,i
175.2,5008,-7.901,1.579,12598953,40842,-529,1.11,i
175.43,5006,-7.901,1.579,12599281,40843,-529,1.33,i
175.77,5006,-7.901,1.579,12599530,40844,-529,1.38,i
175.95,5006,-7.902,1.579,12599810,40845,-529,1.15,i
176.31,5006,-7.902,1.579,12600150,40846,-529,1.25,i
176.59,5007,-7.902,1.579,12600400,40847,-529,1.22,i
176.99,5009,-7.902,1.579,12600782,40848,-529,1.17,i
177.27,5007,-7.902,1.579,12601060,40849,-529,1.23,i
177.5,5009,-7.902,1.579,12601362,40850,-529,1.3,i
177.76,5009,-7.901,1.579,12601612,40851,-529,1.05,i
178.14,5007,-7.901,1.579,12601970,40852,-529,1.08,i
178.39,5008,-7.901,1.579,12602230,40853,-529,1.22,i
178.76,5007,-7.901,1.579,12602629,40854,-529,1.37,i
179.07,5006,-7.901,1.579,12602871,40855,-529,1.27,i
179.35,5006,-7.901,1.579,12603207,40856,-529,1.26,i
179.63,5007,-7.901,1.579,12603443,40857,-529,1.16,i
179.95,5007,-7.902,1.579,12603831,40858,-529,1.21,i
180.28,5007,-7.902,1.579,12604062,40859,-529,1.36,i
180.49,5005,-7.902,1.579,12604328,40860,-529,1.14,i
180.86,5009,-7.902,1.579,12604664,40861,-529,1.33,i
181.16,5008,-7.901,1.579,12604970,40862,-529,1.32,i
181.42,5007,-7.901,1.579,12605226,40863,-529,1.31,i
181.69,5007,-7.901,1.579,12605510,40864,-529,1.1,i
181.95,5006,-7.901,1.579,12605811,40865,-529,1.22,i
182.37,5007,-7.902,1.579,12606216,40866,-529,1.1,i
182.64,5007,-7.902,1.579,12606436,40867,-529,1.32,i
182.9,5008,-7.902,1.579,12606731,40868,-529,1.36,i
183.32,5009,-7.902,1.579,12607133,40869,-529,1.26,i
183.51,5006,-7.902,1.579,12607429,40870,-529,1.16,i
